﻿<?xml version="1.0" encoding="utf-8"?>
<svg version="1.1" xmlns:xlink="http://www.w3.org/1999/xlink" width="12px" height="12px" viewBox="888 3615  12 12" xmlns="http://www.w3.org/2000/svg">
  <path d="M 894 3615  C 897.36 3615  900 3617.64  900 3621  C 900 3624.36  897.36 3627  894 3627  C 890.64 3627  888 3624.36  888 3621  C 888 3617.64  890.64 3615  894 3615  Z " fill-rule="nonzero" fill="#f0f0f0" stroke="none" />
  <path d="M 894 3615.5  C 897.08 3615.5  899.5 3617.92  899.5 3621  C 899.5 3624.08  897.08 3626.5  894 3626.5  C 890.92 3626.5  888.5 3624.08  888.5 3621  C 888.5 3617.92  890.92 3615.5  894 3615.5  Z " stroke-width="1" stroke="#797979" fill="none" />
</svg>