﻿<?xml version="1.0" encoding="utf-8"?>
<svg version="1.1" xmlns:xlink="http://www.w3.org/1999/xlink" width="12px" height="12px" viewBox="1070 3615  12 12" xmlns="http://www.w3.org/2000/svg">
  <path d="M 1076 3615  C 1079.36 3615  1082 3617.64  1082 3621  C 1082 3624.36  1079.36 3627  1076 3627  C 1072.64 3627  1070 3624.36  1070 3621  C 1070 3617.64  1072.64 3615  1076 3615  Z " fill-rule="nonzero" fill="#ffffff" stroke="none" />
  <path d="M 1076 3615.5  C 1079.08 3615.5  1081.5 3617.92  1081.5 3621  C 1081.5 3624.08  1079.08 3626.5  1076 3626.5  C 1072.92 3626.5  1070.5 3624.08  1070.5 3621  C 1070.5 3617.92  1072.92 3615.5  1076 3615.5  Z " stroke-width="1" stroke="#797979" fill="none" />
</svg>