﻿<?xml version="1.0" encoding="utf-8"?>
<svg version="1.1" xmlns:xlink="http://www.w3.org/1999/xlink" width="12px" height="12px" viewBox="1237 3615  12 12" xmlns="http://www.w3.org/2000/svg">
  <path d="M 1243 3615  C 1246.36 3615  1249 3617.64  1249 3621  C 1249 3624.36  1246.36 3627  1243 3627  C 1239.64 3627  1237 3624.36  1237 3621  C 1237 3617.64  1239.64 3615  1243 3615  Z " fill-rule="nonzero" fill="#ffffff" stroke="none" />
  <path d="M 1243 3615.5  C 1246.08 3615.5  1248.5 3617.92  1248.5 3621  C 1248.5 3624.08  1246.08 3626.5  1243 3626.5  C 1239.92 3626.5  1237.5 3624.08  1237.5 3621  C 1237.5 3617.92  1239.92 3615.5  1243 3615.5  Z " stroke-width="1" stroke="#797979" fill="none" />
</svg>