﻿<?xml version="1.0" encoding="utf-8"?>
<svg version="1.1" xmlns:xlink="http://www.w3.org/1999/xlink" width="12px" height="12px" viewBox="888 3711.5  12 12" xmlns="http://www.w3.org/2000/svg">
  <path d="M 894 3711.5  C 897.36 3711.5  900 3714.14  900 3717.5  C 900 3720.86  897.36 3723.5  894 3723.5  C 890.64 3723.5  888 3720.86  888 3717.5  C 888 3714.14  890.64 3711.5  894 3711.5  Z " fill-rule="nonzero" fill="#ffffff" stroke="none" />
  <path d="M 894 3712  C 897.08 3712  899.5 3714.42  899.5 3717.5  C 899.5 3720.58  897.08 3723  894 3723  C 890.92 3723  888.5 3720.58  888.5 3717.5  C 888.5 3714.42  890.92 3712  894 3712  Z " stroke-width="1" stroke="#797979" fill="none" />
</svg>