﻿<?xml version="1.0" encoding="utf-8"?>
<svg version="1.1" xmlns:xlink="http://www.w3.org/1999/xlink" width="12px" height="12px" viewBox="998 3711.5  12 12" xmlns="http://www.w3.org/2000/svg">
  <path d="M 1004 3711.5  C 1007.36 3711.5  1010 3714.14  1010 3717.5  C 1010 3720.86  1007.36 3723.5  1004 3723.5  C 1000.64 3723.5  998 3720.86  998 3717.5  C 998 3714.14  1000.64 3711.5  1004 3711.5  Z " fill-rule="nonzero" fill="#ffffff" stroke="none" />
  <path d="M 1004 3712  C 1007.08 3712  1009.5 3714.42  1009.5 3717.5  C 1009.5 3720.58  1007.08 3723  1004 3723  C 1000.92 3723  998.5 3720.58  998.5 3717.5  C 998.5 3714.42  1000.92 3712  1004 3712  Z " stroke-width="1" stroke="#797979" fill="none" />
</svg>