﻿<?xml version="1.0" encoding="utf-8"?>
<svg version="1.1" xmlns:xlink="http://www.w3.org/1999/xlink" width="70px" height="70px" xmlns="http://www.w3.org/2000/svg">
  <defs>
    <mask fill="white" id="clip141">
      <path d="M 1346.5 726  L 1373.5 726  L 1373.5 766  L 1346.5 766  Z M 1324 710  L 1394 710  L 1394 780  L 1324 780  Z " fill-rule="evenodd" />
    </mask>
  </defs>
  <g transform="matrix(1 0 0 1 -1324 -710 )">
    <path d="M 1324.5 710.5  L 1393.5 710.5  L 1393.5 779.5  L 1324.5 779.5  L 1324.5 710.5  Z " fill-rule="nonzero" fill="#f2f2f2" stroke="none" />
    <path d="M 1324.5 710.5  L 1393.5 710.5  L 1393.5 779.5  L 1324.5 779.5  L 1324.5 710.5  Z " stroke-width="1" stroke="#797979" fill="none" />
    <path d="M 1324.35355339059 710.353553390593  L 1393.64644660941 779.646446609407  M 1393.64644660941 710.353553390593  L 1324.35355339059 779.646446609407  " stroke-width="1" stroke="#797979" fill="none" mask="url(#clip141)" />
  </g>
</svg>