﻿<?xml version="1.0" encoding="utf-8"?>
<svg version="1.1" xmlns:xlink="http://www.w3.org/1999/xlink" width="222px" height="222px" xmlns="http://www.w3.org/2000/svg">
  <defs>
    <mask fill="white" id="clip143">
      <path d="M 660.6083984375 1031  L 769.3916015625 1031  L 769.3916015625 1091  L 660.6083984375 1091  Z M 603 949  L 825 949  L 825 1171  L 603 1171  Z " fill-rule="evenodd" />
    </mask>
  </defs>
  <g transform="matrix(1 0 0 1 -603 -949 )">
    <path d="M 603.5 949.5  L 824.5 949.5  L 824.5 1170.5  L 603.5 1170.5  L 603.5 949.5  Z " fill-rule="nonzero" fill="#f2f2f2" stroke="none" />
    <path d="M 603.5 949.5  L 824.5 949.5  L 824.5 1170.5  L 603.5 1170.5  L 603.5 949.5  Z " stroke-width="1" stroke="#797979" fill="none" />
    <path d="M 603.353553390593 949.353553390593  L 824.646446609407 1170.64644660941  M 824.646446609407 949.353553390593  L 603.353553390593 1170.64644660941  " stroke-width="1" stroke="#797979" fill="none" mask="url(#clip143)" />
  </g>
</svg>