﻿<?xml version="1.0" encoding="utf-8"?>
<svg version="1.1" xmlns:xlink="http://www.w3.org/1999/xlink" width="222px" height="222px" xmlns="http://www.w3.org/2000/svg">
  <defs>
    <mask fill="white" id="clip144">
      <path d="M 949.5 1031  L 1070.5 1031  L 1070.5 1091  L 949.5 1091  Z M 898 949  L 1120 949  L 1120 1171  L 898 1171  Z " fill-rule="evenodd" />
    </mask>
  </defs>
  <g transform="matrix(1 0 0 1 -898 -949 )">
    <path d="M 898.5 949.5  L 1119.5 949.5  L 1119.5 1170.5  L 898.5 1170.5  L 898.5 949.5  Z " fill-rule="nonzero" fill="#f2f2f2" stroke="none" />
    <path d="M 898.5 949.5  L 1119.5 949.5  L 1119.5 1170.5  L 898.5 1170.5  L 898.5 949.5  Z " stroke-width="1" stroke="#797979" fill="none" />
    <path d="M 898.353553390593 949.353553390593  L 1119.64644660941 1170.64644660941  M 1119.64644660941 949.353553390593  L 898.353553390593 1170.64644660941  " stroke-width="1" stroke="#797979" fill="none" mask="url(#clip144)" />
  </g>
</svg>