﻿<?xml version="1.0" encoding="utf-8"?>
<svg version="1.1" xmlns:xlink="http://www.w3.org/1999/xlink" width="222px" height="222px" xmlns="http://www.w3.org/2000/svg">
  <defs>
    <mask fill="white" id="clip145">
      <path d="M 1243.5 1031  L 1364.5 1031  L 1364.5 1091  L 1243.5 1091  Z M 1192 949  L 1414 949  L 1414 1171  L 1192 1171  Z " fill-rule="evenodd" />
    </mask>
  </defs>
  <g transform="matrix(1 0 0 1 -1192 -949 )">
    <path d="M 1192.5 949.5  L 1413.5 949.5  L 1413.5 1170.5  L 1192.5 1170.5  L 1192.5 949.5  Z " fill-rule="nonzero" fill="#f2f2f2" stroke="none" />
    <path d="M 1192.5 949.5  L 1413.5 949.5  L 1413.5 1170.5  L 1192.5 1170.5  L 1192.5 949.5  Z " stroke-width="1" stroke="#797979" fill="none" />
    <path d="M 1192.35355339059 949.353553390593  L 1413.64644660941 1170.64644660941  M 1413.64644660941 949.353553390593  L 1192.35355339059 1170.64644660941  " stroke-width="1" stroke="#797979" fill="none" mask="url(#clip145)" />
  </g>
</svg>