﻿<?xml version="1.0" encoding="utf-8"?>
<svg version="1.1" xmlns:xlink="http://www.w3.org/1999/xlink" width="25px" height="23px" xmlns="http://www.w3.org/2000/svg">
  <g transform="matrix(1 0 0 1 -283 -559 )">
    <path d="M 23.7244897959184 4.59700520833333  C 24.1046418567427 4.74674479166667  24.3997599039616 4.96137152777778  24.609843937575 5.24088541666667  C 25.0100040016006 5.80989583333333  25.1000400160064 6.45377604166667  24.8799519807923 7.17252604166667  L 20.7533013205282 20.7389322916667  C 20.5632252901161 21.3778211805556  20.1805722288916 21.9143880208333  19.6053421368547 22.3486328125  C 19.0301120448179 22.7828776041667  18.4173669467787 23  17.7671068427371 23  L 3.91656662665066 23  C 3.14625850340136 23  2.40346138455382 22.7329644097222  1.68817527010804 22.1988932291667  C 0.972889155662265 21.6648220486111  0.475190076030412 21.0084635416667  0.195078031212485 20.2298177083333  C -0.0450180072028812 19.5609809027778  -0.0550220088035214 18.9270833333333  0.165066026410564 18.328125  C 0.165066026410564 18.2881944444444  0.180072028811525 18.1534288194444  0.210084033613445 17.923828125  C 0.240096038415366 17.6942274305556  0.260104041616647 17.5095486111111  0.270108043217287 17.3697916666667  C 0.280112044817927 17.2899305555556  0.265106042416967 17.1826171875  0.225090036014406 17.0478515625  C 0.185074029611845 16.9130859375  0.170068027210884 16.8157552083333  0.180072028811525 16.755859375  C 0.200080032012805 16.6460503472222  0.240096038415366 16.5412326388889  0.300120048019208 16.44140625  C 0.360144057623049 16.3415798611111  0.442677070828331 16.2242838541667  0.547719087635054 16.0895182291667  C 0.652761104441777 15.9547526041667  0.735294117647059 15.8374565972222  0.7953181272509 15.7376302083333  C 1.02541016406563 15.3582899305556  1.25050020008003 14.9015842013889  1.47058823529412 14.3675130208333  C 1.6906762705082 13.8334418402778  1.84073629451781 13.3767361111111  1.92076830732293 12.9973958333333  C 1.95078031212485 12.8975694444444  1.95328131252501 12.7478298611111  1.92827130852341 12.5481770833333  C 1.90326130452181 12.3485243055556  1.90076030412165 12.2087673611111  1.92076830732293 12.12890625  C 1.95078031212485 12.0190972222222  2.03581432573029 11.8793402777778  2.17587034813926 11.7096354166667  C 2.31592637054822 11.5399305555556  2.40096038415366 11.4251302083333  2.43097238895558 11.365234375  C 2.64105642256903 11.005859375  2.85114045618247 10.5466579861111  3.06122448979592 9.98763020833333  C 3.27130852340936 9.42860243055555  3.39635854341737 8.97938368055555  3.43637454981993 8.63997395833333  C 3.44637855142057 8.55013020833333  3.43387354941977 8.39040798611111  3.39885954381753 8.16080729166667  C 3.36384553821529 7.93120659722222  3.36634653861545 7.79144965277778  3.40636254501801 7.74153645833333  C 3.44637855142057 7.61176215277778  3.55642256902761 7.45952690972222  3.73649459783914 7.28483072916667  C 3.91656662665066 7.11013454861111  4.0266106442577 6.99782986111111  4.06662665066026 6.94791666666667  C 4.25670268107243 6.68836805555555  4.46928771508604 6.2666015625  4.70438175270108 5.6826171875  C 4.93947579031613 5.0986328125  5.07703081232493 4.61697048611111  5.11704681872749 4.23763020833333  C 5.12705082032813 4.15776909722222  5.11204481792717 4.03049045138889  5.07202881152461 3.85579427083333  C 5.03201280512205 3.68109809027778  5.02200880352141 3.548828125  5.04201680672269 3.458984375  C 5.06202480992397 3.37912326388889  5.10704281712685 3.28927951388889  5.17707082833133 3.189453125  C 5.24709883953581 3.08962673611111  5.33713485394158 2.97482638888889  5.44717887154862 2.84505208333333  C 5.55722288915566 2.71527777777778  5.6422569027611 2.61046006944444  5.70228091236495 2.53059895833333  C 5.78231292517007 2.41080729166667  5.86484593837535 2.25857204861111  5.94987995198079 2.07389322916667  C 6.03491396558623 1.88921440972222  6.10994397759104 1.71451822916667  6.1749699879952 1.5498046875  C 6.23999599839936 1.38509114583333  6.32002801120448 1.20540364583333  6.41506602641056 1.0107421875  C 6.51010404161665 0.816080729166668  6.60764305722289 0.656358506944443  6.70768307322929 0.531575520833332  C 6.8077230892357 0.406792534722219  6.94027611044418 0.289496527777776  7.10534213685474 0.1796875  C 7.27040816326531 0.0698784722222191  7.45048019207683 0.0124782986111108  7.64555822328932 0.00748697916666752  C 7.8406362545018 0.0024956597222191  8.07823129251701 0.0299479166666675  8.35834333733493 0.08984375  L 8.34333733493397 0.134765625  C 8.7234893957583 0.044921875  8.97859143657463 0  9.10864345738295 0  L 20.5282112845138 0  C 21.2685074029612 0  21.8387354941977 0.279513888888887  22.2388955582233 0.838541666666668  C 22.6390556222489 1.39756944444444  22.7290916366547 2.04644097222222  22.5090036014406 2.78515625  L 18.3973589435774 16.3515625  C 18.0372148859544 17.5394965277778  17.6795718287315 18.3056640625  17.3244297719088 18.6500651041667  C 16.969287715086 18.9944661458333  16.3265306122449 19.1666666666667  15.3961584633854 19  L 2.35594237695078 19  C 2.08583433373349 19.1666666666667  1.89575830332133 19.2415364583333  1.78571428571429 19.3912760416667  C 1.67567026810724 19.5509982638889  1.67066826730692 19.765625  1.77070828331333 20.03515625  C 2.01080432172869 20.7339409722222  2.73109243697479 21.0833333333333  3.93157262905162 21  L 17.7821128451381 21  C 18.0722288915566 21.0833333333333  18.3523409363745 21.0059678819444  18.6224489795918 20.8512369791667  C 18.8925570228091 20.6965060763889  19.0676270508203 20.4893663194444  19.1476590636255 20.2298177083333  L 23.6494597839136 5.45052083333333  C 23.719487795118 5.23090277777778  23.7444977991196 4.94639756944444  23.7244897959184 4.59700520833333  Z M 8.95858343337335 4.3125  L 8.64345738295318 5.27083333333333  C 8.60344137655062 5.40060763888889  8.61344537815126 5.51291232638889  8.6734693877551 5.60774739583333  C 8.73349339735894 5.70258246527778  8.83353341336535 5.75  8.97358943577431 5.75  L 18.0972388955582 5.75  C 18.2272909163665 5.75  18.3548419367747 5.70258246527778  18.4798919567827 5.60774739583333  C 18.6049419767907 5.51291232638889  18.687474989996 5.40060763888889  18.7274909963986 5.27083333333333  L 19.0426170468187 4.3125  C 19.0826330532213 4.18272569444444  19.0726290516206 4.07042100694444  19.0126050420168 3.9755859375  C 18.952581032413 3.88075086805555  18.8525410164066 3.83333333333333  18.7124849939976 3.83333333333333  L 9.58883553421369 3.83333333333333  C 9.45878351340536 3.83333333333333  9.3312324929972 3.88075086805555  9.20618247298919 3.9755859375  C 9.08113245298119 4.07042100694444  8.99859943977591 4.18272569444444  8.95858343337335 4.3125  Z M 7.71308523409364 8.14583333333333  L 7.39795918367347 9.10416666666667  C 7.35794317727091 9.23394097222222  7.36794717887155 9.34624565972222  7.42797118847539 9.44108072916667  C 7.48799519807923 9.53591579861111  7.58803521408563 9.58333333333333  7.7280912364946 9.58333333333333  L 16.8517406962785 9.58333333333333  C 16.9817927170868 9.58333333333333  17.109343737495 9.53591579861111  17.234393757503 9.44108072916667  C 17.359443777511 9.34624565972222  17.4419767907163 9.23394097222222  17.4819927971188 9.10416666666667  L 17.797118847539 8.14583333333333  C 17.8371348539416 8.01605902777778  17.8271308523409 7.90375434027778  17.7671068427371 7.80891927083333  C 17.7070828331333 7.71408420138889  17.6070428171269 7.66666666666667  17.4669867947179 7.66666666666667  L 8.34333733493397 7.66666666666667  C 8.21328531412565 7.66666666666667  8.08573429371749 7.71408420138889  7.96068427370948 7.80891927083333  C 7.83563425370148 7.90375434027778  7.7531012404962 8.01605902777778  7.71308523409364 8.14583333333333  Z " fill-rule="nonzero" fill="#047157" stroke="none" transform="matrix(1 0 0 1 283 559 )" />
  </g>
</svg>