﻿<?xml version="1.0" encoding="utf-8"?>
<svg version="1.1" xmlns:xlink="http://www.w3.org/1999/xlink" width="30px" height="30px" viewBox="9 1399  30 30" xmlns="http://www.w3.org/2000/svg">
  <path d="M 9.5 1399.5  L 38.5 1399.5  L 38.5 1428.5  L 9.5 1428.5  L 9.5 1399.5  Z " fill-rule="nonzero" fill="#ffffff" stroke="none" />
  <path d="M 9.5 1399.5  L 38.5 1399.5  L 38.5 1428.5  L 9.5 1428.5  L 9.5 1399.5  Z " stroke-width="1" stroke="#797979" fill="none" />
  <path d="M 15.4285714285714 1414  L 21.8571428571429 1420.42857142857  " stroke-width="6.42857142857143" stroke="#797979" fill="none" />
  <path d="M 21.8571428571429 1420.42857142857  L 32.5714285714286 1405.42857142857  " stroke-width="6.42857142857143" stroke="#797979" fill="none" />
</svg>