﻿<?xml version="1.0" encoding="utf-8"?>
<svg version="1.1" xmlns:xlink="http://www.w3.org/1999/xlink" width="12px" height="12px" viewBox="773 696.5  12 12" xmlns="http://www.w3.org/2000/svg">
  <path d="M 779 696.5  C 782.36 696.5  785 699.14  785 702.5  C 785 705.86  782.36 708.5  779 708.5  C 775.64 708.5  773 705.86  773 702.5  C 773 699.14  775.64 696.5  779 696.5  Z " fill-rule="nonzero" fill="#ffffff" stroke="none" />
  <path d="M 779 697  C 782.08 697  784.5 699.42  784.5 702.5  C 784.5 705.58  782.08 708  779 708  C 775.92 708  773.5 705.58  773.5 702.5  C 773.5 699.42  775.92 697  779 697  Z " stroke-width="1" stroke="#797979" fill="none" />
</svg>