﻿<?xml version="1.0" encoding="utf-8"?>
<svg version="1.1" xmlns:xlink="http://www.w3.org/1999/xlink" width="100px" height="108px" xmlns="http://www.w3.org/2000/svg">
  <g transform="matrix(1 0 0 1 -336 -265 )">
    <path d="M 83.3333333333333 30.8571428571429  C 83.3333333333333 36.7633928571429  81.6189236111111 42.2276785714286  78.1901041666667 47.25  C 80.2300347222222 47.8125  82.1723090277778 48.5758928571429  84.0169270833333 49.5401785714286  C 85.8615451388889 50.5044642857143  87.79296875 51.9709821428571  89.8111979166667 53.9397321428571  C 91.8294270833333 55.9084821428571  93.5546875 58.2287946428571  94.9869791666667 60.9006696428571  C 96.4192708333333 63.5725446428571  97.6128472222222 67.0279017857143  98.5677083333333 71.2667410714286  C 99.5225694444444 75.5055803571429  100 80.2566964285714  100 85.5200892857143  C 100 91.7075892857143  97.8298611111111 97.0011160714286  93.4895833333333 101.400669642857  C 89.1493055555556 105.800223214286  83.9192708333333 108  77.7994791666667 108  L 22.2005208333333 108  C 16.0807291666667 108  10.8506944444444 105.800223214286  6.51041666666667 101.400669642857  C 2.17013888888889 97.0011160714286  0 91.7075892857143  0 85.5200892857143  C 0 80.2566964285714  0.477430555555556 75.5055803571429  1.43229166666667 71.2667410714286  C 2.38715277777778 67.0279017857143  3.58072916666667 63.5725446428571  5.01302083333333 60.9006696428571  C 6.4453125 58.2287946428571  8.17057291666667 55.9084821428571  10.1888020833333 53.9397321428571  C 12.20703125 51.9709821428571  14.1384548611111 50.5044642857143  15.9830729166667 49.5401785714286  C 17.8276909722222 48.5758928571429  19.7699652777778 47.8125  21.8098958333333 47.25  C 18.3810763888889 42.2276785714286  16.6666666666667 36.7633928571429  16.6666666666667 30.8571428571429  C 16.6666666666667 26.6785714285714  17.5455729166667 22.6908482142857  19.3033854166667 18.8939732142857  C 21.0611979166667 15.0970982142857  23.4375 11.8125  26.4322916666667 9.04017857142857  C 29.4270833333333 6.26785714285714  32.9752604166667 4.06808035714286  37.0768229166667 2.44084821428571  C 41.1783854166667 0.813616071428566  45.4861111111111 0  50 0  C 54.5138888888889 0  58.8216145833333 0.813616071428566  62.9231770833333 2.44084821428571  C 67.0247395833333 4.06808035714286  70.5729166666667 6.26785714285714  73.5677083333333 9.04017857142857  C 76.5625 11.8125  78.9388020833333 15.0970982142857  80.6966145833333 18.8939732142857  C 82.4544270833333 22.6908482142857  83.3333333333333 26.6785714285714  83.3333333333333 30.8571428571429  Z M 67.67578125 14.4944196428571  C 62.79296875 9.97433035714286  56.9010416666667 7.71428571428571  50 7.71428571428571  C 43.0989583333333 7.71428571428571  37.20703125 9.97433035714286  32.32421875 14.4944196428571  C 27.44140625 19.0145089285714  25 24.46875  25 30.8571428571429  C 25 37.2455357142857  27.44140625 42.6997767857143  32.32421875 47.2198660714286  C 37.20703125 51.7399553571429  43.0989583333333 54  50 54  C 56.9010416666667 54  62.79296875 51.7399553571429  67.67578125 47.2198660714286  C 72.55859375 42.6997767857143  75 37.2455357142857  75 30.8571428571429  C 75 24.46875  72.55859375 19.0145089285714  67.67578125 14.4944196428571  Z M 22.2005208333333 100  L 77.7994791666667 100  C 81.6189236111111 100.285714285714  84.8849826388889 98.8493303571429  87.59765625 95.9765625  C 90.3103298611111 93.1037946428571  91.6666666666667 89.6183035714286  91.6666666666667 85.5200892857143  C 91.6666666666667 75.9174107142857  89.9631076388889 68.34375  86.5559895833333 62.7991071428571  C 83.1488715277778 57.2544642857143  78.2552083333333 54.3415178571429  71.875 54.0602678571429  C 65.5815972222222 59.1629464285714  58.2899305555556 61.7142857142857  50 61.7142857142857  C 41.7100694444444 61.7142857142857  34.4184027777778 59.1629464285714  28.125 54.0602678571429  C 21.7447916666667 54.3415178571429  16.8511284722222 57.2544642857143  13.4440104166667 62.7991071428571  C 10.0368923611111 68.34375  8.33333333333333 75.9174107142857  8.33333333333333 85.5200892857143  C 8.33333333333333 89.6183035714286  9.68967013888889 93.1037946428571  12.40234375 95.9765625  C 15.1150173611111 98.8493303571429  18.3810763888889 100.285714285714  22.2005208333333 100  Z " fill-rule="nonzero" fill="#000000" stroke="none" transform="matrix(1 0 0 1 336 265 )" />
  </g>
</svg>