﻿<?xml version="1.0" encoding="utf-8"?>
<svg version="1.1" xmlns:xlink="http://www.w3.org/1999/xlink" width="25px" height="28px" xmlns="http://www.w3.org/2000/svg">
  <g transform="matrix(1 0 0 1 -283 -497 )">
    <path d="M 19.7115384615385 14.703125  C 19.7115384615385 14.8385416666667  19.6664663461538 14.9583333333333  19.5763221153846 15.0625  L 11.8840144230769 23.0625  C 11.7838541666667 23.15625  11.6686698717949 23.203125  11.5384615384615 23.203125  C 11.4082532051282 23.203125  11.2930689102564 23.15625  11.1929086538462 23.0625  L 6.86598557692308 18.5625  C 6.77584134615385 18.4583333333333  6.73076923076923 18.3385416666667  6.73076923076923 18.203125  C 6.73076923076923 18.0677083333333  6.77584134615385 17.953125  6.86598557692308 17.859375  L 7.55709134615385 17.140625  C 7.64723557692308 17.046875  7.75741185897436 17  7.88762019230769 17  C 8.01782852564103 17  8.13301282051282 17.046875  8.23317307692308 17.140625  L 11.5384615384615 20.578125  L 18.2091346153846 13.640625  C 18.3092948717949 13.546875  18.4244791666667 13.5  18.5546875 13.5  C 18.6848958333333 13.5  18.7950721153846 13.546875  18.8852163461538 13.640625  L 19.5763221153846 14.359375  C 19.6664663461538 14.453125  19.7115384615385 14.5677083333333  19.7115384615385 14.703125  Z M 2 10  L 2 26  L 23 26  L 23 10  L 2 10  Z M 7.55709134615385 7.359375  C 7.64723557692308 7.265625  7.69230769230769 7.14583333333333  7.69230769230769 7  L 7.69230769230769 2.5  C 7.69230769230769 2.35416666666666  7.64723557692308 2.234375  7.55709134615385 2.140625  C 7.46694711538462 2.046875  7.35176282051282 2  7.21153846153846 2  L 6.25 2  C 6.10977564102564 2  5.99459134615385 2.046875  5.90444711538461 2.140625  C 5.81430288461539 2.234375  5.76923076923077 2.35416666666666  5.76923076923077 2.5  L 5.76923076923077 7  C 5.76923076923077 7.14583333333333  5.81430288461539 7.265625  5.90444711538461 7.359375  C 5.99459134615385 7.453125  6.10977564102564 7.5  6.25 7.5  L 7.21153846153846 7.5  C 7.35176282051282 7.5  7.46694711538462 7.453125  7.55709134615385 7.359375  Z M 19.0955528846154 7.359375  C 19.1856971153846 7.265625  19.2307692307692 7.14583333333333  19.2307692307692 7  L 19.2307692307692 2.5  C 19.2307692307692 2.35416666666666  19.1856971153846 2.234375  19.0955528846154 2.140625  C 19.0054086538462 2.046875  18.8902243589744 2  18.75 2  L 17.7884615384615 2  C 17.6482371794872 2  17.5330528846154 2.046875  17.4429086538462 2.140625  C 17.3527644230769 2.234375  17.3076923076923 2.35416666666666  17.3076923076923 2.5  L 17.3076923076923 7  C 17.3076923076923 7.14583333333333  17.3527644230769 7.265625  17.4429086538462 7.359375  C 17.5330528846154 7.453125  17.6482371794872 7.5  17.7884615384615 7.5  L 18.75 7.5  C 18.8902243589744 7.5  19.0054086538462 7.453125  19.0955528846154 7.359375  Z M 24.4290865384615 4.59375  C 24.8096955128205 4.98958333333333  25 5.45833333333333  25 6  L 25 26  C 25 26.5416666666667  24.8096955128205 27.0104166666667  24.4290865384615 27.40625  C 24.0484775641026 27.8020833333333  23.5977564102564 28  23.0769230769231 28  L 1.92307692307692 28  C 1.40224358974359 28  0.951522435897436 27.8020833333333  0.570913461538461 27.40625  C 0.190304487179487 27.0104166666667  0 26.5416666666667  0 26  L 0 6  C 0 5.45833333333333  0.190304487179487 4.98958333333333  0.570913461538461 4.59375  C 0.951522435897436 4.19791666666666  1.40224358974359 4  1.92307692307692 4  L 3.84615384615385 4  L 3.84615384615385 2.5  C 3.84615384615385 1.8125  4.08153044871795 1.22395833333333  4.55228365384615 0.734375000000001  C 5.02303685897436 0.244791666666667  5.58894230769231 0  6.25 0  L 7.21153846153846 0  C 7.87259615384615 0  8.4385016025641 0.244791666666667  8.90925480769231 0.734375000000001  C 9.38000801282051 1.22395833333333  9.61538461538462 1.8125  9.61538461538462 2.5  L 9.61538461538462 4  L 15.3846153846154 4  L 15.3846153846154 2.5  C 15.3846153846154 1.8125  15.6199919871795 1.22395833333333  16.0907451923077 0.734375000000001  C 16.5614983974359 0.244791666666667  17.1274038461538 0  17.7884615384615 0  L 18.75 0  C 19.4110576923077 0  19.9769631410256 0.244791666666667  20.4477163461538 0.734375000000001  C 20.9184695512821 1.22395833333333  21.1538461538462 1.8125  21.1538461538462 2.5  L 21.1538461538462 4  L 23.0769230769231 4  C 23.5977564102564 4  24.0484775641026 4.19791666666666  24.4290865384615 4.59375  Z " fill-rule="nonzero" fill="#047157" stroke="none" transform="matrix(1 0 0 1 283 497 )" />
  </g>
</svg>