﻿<?xml version="1.0" encoding="utf-8"?>
<svg version="1.1" xmlns:xlink="http://www.w3.org/1999/xlink" width="12px" height="12px" viewBox="1034 696.5  12 12" xmlns="http://www.w3.org/2000/svg">
  <path d="M 1040 696.5  C 1043.36 696.5  1046 699.14  1046 702.5  C 1046 705.86  1043.36 708.5  1040 708.5  C 1036.64 708.5  1034 705.86  1034 702.5  C 1034 699.14  1036.64 696.5  1040 696.5  Z " fill-rule="nonzero" fill="#ffffff" stroke="none" />
  <path d="M 1040 697  C 1043.08 697  1045.5 699.42  1045.5 702.5  C 1045.5 705.58  1043.08 708  1040 708  C 1036.92 708  1034.5 705.58  1034.5 702.5  C 1034.5 699.42  1036.92 697  1040 697  Z " stroke-width="1" stroke="#797979" fill="none" />
</svg>