﻿<?xml version="1.0" encoding="utf-8"?>
<svg version="1.1" xmlns:xlink="http://www.w3.org/1999/xlink" width="234px" height="175px" xmlns="http://www.w3.org/2000/svg">
  <g transform="matrix(1 0 0 1 -52 -14 )">
    <path d="M 52 14  L 286 14  L 286 189  L 52 189  L 52 14  " fill-rule="nonzero" fill="#cccccc" stroke="none" />
    <path d="M 64 26  L 274 26  L 274 177  L 64 177  L 64 26  " fill-rule="nonzero" fill="#ffffff" stroke="none" />
    <path d="M 186.805 66.5  C 179.455 66.5  173.68 60.725  173.68 53.375  C 173.68 46.025  179.455 40.25  186.805 40.25  C 194.155 40.25  199.93 46.025  199.93 53.375  C 199.93 60.725  194.155 66.5  186.805 66.5  " fill-rule="nonzero" fill="#cccccc" stroke="none" />
    <path d="M 69 173  L 69 94.9  L 119.25 59.4  L 189.6 109.282051282051  L 229.8 80.7  L 270 109.282051282051  L 270 173  L 69 173  " fill-rule="nonzero" fill="#169bd5" stroke="none" />
  </g>
</svg>