﻿<?xml version="1.0" encoding="utf-8"?>
<svg version="1.1" xmlns:xlink="http://www.w3.org/1999/xlink" width="30px" height="30px" viewBox="9 514  30 30" xmlns="http://www.w3.org/2000/svg">
  <path d="M 9.5 514.5  L 38.5 514.5  L 38.5 543.5  L 9.5 543.5  L 9.5 514.5  Z " fill-rule="nonzero" fill="#ffffff" stroke="none" />
  <path d="M 9.5 514.5  L 38.5 514.5  L 38.5 543.5  L 9.5 543.5  L 9.5 514.5  Z " stroke-width="1" stroke="#797979" fill="none" />
  <path d="M 15.4285714285714 529  L 21.8571428571429 535.428571428571  " stroke-width="6.42857142857143" stroke="#797979" fill="none" />
  <path d="M 21.8571428571429 535.428571428571  L 32.5714285714286 520.428571428571  " stroke-width="6.42857142857143" stroke="#797979" fill="none" />
</svg>