﻿<?xml version="1.0" encoding="utf-8"?>
<svg version="1.1" xmlns:xlink="http://www.w3.org/1999/xlink" width="18px" height="17px" xmlns="http://www.w3.org/2000/svg">
  <g transform="matrix(1 0 0 1 -21 -433 )">
    <path d="M 16.1484375 13.2037760416667  C 16.2421875 13.115234375  16.328125 12.9639756944444  16.40625 12.75  L 13.5 12.75  L 13.5 15.4947916666667  C 13.7265625 15.4210069444444  13.88671875 15.33984375  13.98046875 15.2513020833333  L 16.1484375 13.2037760416667  Z M 12.328125 11.6432291666667  C 12.546875 11.4366319444444  12.8125 11.3333333333333  13.125 11.3333333333333  L 16.5 11.3333333333333  L 16.5 1.41666666666667  L 1.5 1.41666666666667  L 1.5 15.5833333333333  L 12 15.5833333333333  L 12 12.3958333333333  C 12 12.1006944444444  12.109375 11.8498263888889  12.328125 11.6432291666667  Z M 17.671875 0.309895833333333  C 17.890625 0.516493055555553  18 0.76736111111111  18 1.0625  L 18 12.3958333333333  C 18 12.6909722222222  17.921875 13.015625  17.765625 13.3697916666667  C 17.609375 13.7239583333333  17.421875 14.0043402777778  17.203125 14.2109375  L 15.046875 16.2473958333333  C 14.828125 16.4539930555556  14.53125 16.6310763888889  14.15625 16.7786458333333  C 13.78125 16.9262152777778  13.4375 17  13.125 17  L 1.125 17  C 0.8125 17  0.546875 16.8967013888889  0.328125 16.6901041666667  C 0.109375 16.4835069444444  0 16.2326388888889  0 15.9375  L 0 1.0625  C 0 0.76736111111111  0.109375 0.516493055555553  0.328125 0.309895833333333  C 0.546875 0.10329861111111  0.8125 0  1.125 0  L 16.875 0  C 17.1875 0  17.453125 0.10329861111111  17.671875 0.309895833333333  Z " fill-rule="nonzero" fill="#000000" stroke="none" transform="matrix(1 0 0 1 21 433 )" />
  </g>
</svg>