﻿<?xml version="1.0" encoding="utf-8"?>
<svg version="1.1" xmlns:xlink="http://www.w3.org/1999/xlink" width="30px" height="30px" viewBox="585 304  30 30" xmlns="http://www.w3.org/2000/svg">
  <path d="M 585.5 304.5  L 614.5 304.5  L 614.5 333.5  L 585.5 333.5  L 585.5 304.5  Z " fill-rule="nonzero" fill="#f0f0f0" stroke="none" />
  <path d="M 585.5 304.5  L 614.5 304.5  L 614.5 333.5  L 585.5 333.5  L 585.5 304.5  Z " stroke-width="1" stroke="#797979" fill="none" />
  <path d="M 591.428571428571 319  L 597.857142857143 325.428571428571  " stroke-width="6.42857142857143" stroke="#797979" fill="none" />
  <path d="M 597.857142857143 325.428571428571  L 608.571428571429 310.428571428571  " stroke-width="6.42857142857143" stroke="#797979" fill="none" />
</svg>