﻿<?xml version="1.0" encoding="utf-8"?>
<svg version="1.1" xmlns:xlink="http://www.w3.org/1999/xlink" width="12px" height="12px" viewBox="859 520.5  12 12" xmlns="http://www.w3.org/2000/svg">
  <path d="M 865 520.5  C 868.36 520.5  871 523.14  871 526.5  C 871 529.86  868.36 532.5  865 532.5  C 861.64 532.5  859 529.86  859 526.5  C 859 523.14  861.64 520.5  865 520.5  Z " fill-rule="nonzero" fill="#f0f0f0" stroke="none" />
  <path d="M 865 521  C 868.08 521  870.5 523.42  870.5 526.5  C 870.5 529.58  868.08 532  865 532  C 861.92 532  859.5 529.58  859.5 526.5  C 859.5 523.42  861.92 521  865 521  Z " stroke-width="1" stroke="#797979" fill="none" />
</svg>