﻿<?xml version="1.0" encoding="utf-8"?>
<svg version="1.1" xmlns:xlink="http://www.w3.org/1999/xlink" width="12px" height="12px" viewBox="1020 562.5  12 12" xmlns="http://www.w3.org/2000/svg">
  <path d="M 1026 562.5  C 1029.36 562.5  1032 565.14  1032 568.5  C 1032 571.86  1029.36 574.5  1026 574.5  C 1022.64 574.5  1020 571.86  1020 568.5  C 1020 565.14  1022.64 562.5  1026 562.5  Z " fill-rule="nonzero" fill="#ffffff" stroke="none" />
  <path d="M 1026 563  C 1029.08 563  1031.5 565.42  1031.5 568.5  C 1031.5 571.58  1029.08 574  1026 574  C 1022.92 574  1020.5 571.58  1020.5 568.5  C 1020.5 565.42  1022.92 563  1026 563  Z " stroke-width="1" stroke="#797979" fill="none" />
</svg>