﻿<?xml version="1.0" encoding="utf-8"?>
<svg version="1.1" xmlns:xlink="http://www.w3.org/1999/xlink" width="12px" height="12px" viewBox="947 562.5  12 12" xmlns="http://www.w3.org/2000/svg">
  <path d="M 953 562.5  C 956.36 562.5  959 565.14  959 568.5  C 959 571.86  956.36 574.5  953 574.5  C 949.64 574.5  947 571.86  947 568.5  C 947 565.14  949.64 562.5  953 562.5  Z " fill-rule="nonzero" fill="#f0f0f0" stroke="none" />
  <path d="M 953 563  C 956.08 563  958.5 565.42  958.5 568.5  C 958.5 571.58  956.08 574  953 574  C 949.92 574  947.5 571.58  947.5 568.5  C 947.5 565.42  949.92 563  953 563  Z " stroke-width="1" stroke="#797979" fill="none" />
</svg>