﻿<?xml version="1.0" encoding="utf-8"?>
<svg version="1.1" xmlns:xlink="http://www.w3.org/1999/xlink" width="12px" height="12px" viewBox="773 522.5  12 12" xmlns="http://www.w3.org/2000/svg">
  <path d="M 779 522.5  C 782.36 522.5  785 525.14  785 528.5  C 785 531.86  782.36 534.5  779 534.5  C 775.64 534.5  773 531.86  773 528.5  C 773 525.14  775.64 522.5  779 522.5  Z " fill-rule="nonzero" fill="#f0f0f0" stroke="none" />
  <path d="M 779 523  C 782.08 523  784.5 525.42  784.5 528.5  C 784.5 531.58  782.08 534  779 534  C 775.92 534  773.5 531.58  773.5 528.5  C 773.5 525.42  775.92 523  779 523  Z " stroke-width="1" stroke="#797979" fill="none" />
</svg>