﻿<?xml version="1.0" encoding="utf-8"?>
<svg version="1.1" xmlns:xlink="http://www.w3.org/1999/xlink" width="12px" height="12px" viewBox="846 696.5  12 12" xmlns="http://www.w3.org/2000/svg">
  <path d="M 852 696.5  C 855.36 696.5  858 699.14  858 702.5  C 858 705.86  855.36 708.5  852 708.5  C 848.64 708.5  846 705.86  846 702.5  C 846 699.14  848.64 696.5  852 696.5  Z " fill-rule="nonzero" fill="#f0f0f0" stroke="none" />
  <path d="M 852 697  C 855.08 697  857.5 699.42  857.5 702.5  C 857.5 705.58  855.08 708  852 708  C 848.92 708  846.5 705.58  846.5 702.5  C 846.5 699.42  848.92 697  852 697  Z " stroke-width="1" stroke="#797979" fill="none" />
</svg>