﻿<?xml version="1.0" encoding="utf-8"?>
<svg version="1.1" xmlns:xlink="http://www.w3.org/1999/xlink" width="12px" height="12px" viewBox="940 696.5  12 12" xmlns="http://www.w3.org/2000/svg">
  <path d="M 946 696.5  C 949.36 696.5  952 699.14  952 702.5  C 952 705.86  949.36 708.5  946 708.5  C 942.64 708.5  940 705.86  940 702.5  C 940 699.14  942.64 696.5  946 696.5  Z " fill-rule="nonzero" fill="#ffffff" stroke="none" />
  <path d="M 946 697  C 949.08 697  951.5 699.42  951.5 702.5  C 951.5 705.58  949.08 708  946 708  C 942.92 708  940.5 705.58  940.5 702.5  C 940.5 699.42  942.92 697  946 697  Z " stroke-width="1" stroke="#797979" fill="none" />
</svg>