﻿<?xml version="1.0" encoding="utf-8"?>
<svg version="1.1" xmlns:xlink="http://www.w3.org/1999/xlink" width="10px" height="238px" preserveAspectRatio="xMidYMin meet" viewBox="66 372  8 238" xmlns="http://www.w3.org/2000/svg">
  <path d="M 81 377  L 75 377  A 5 5 0 0 0 70 382 L 70 600  A 5 5 0 0 0 75 605 L 110 605  " stroke-width="2" stroke-dasharray="6,2" stroke="#0099cc" fill="none" />
</svg>