﻿<?xml version="1.0" encoding="utf-8"?>
<svg version="1.1" xmlns:xlink="http://www.w3.org/1999/xlink" width="49px" height="10px" preserveAspectRatio="xMinYMid meet" viewBox="65 744  49 8" xmlns="http://www.w3.org/2000/svg">
  <path d="M 81 377  L 75 377  A 5 5 0 0 0 70 382 L 70 743  A 5 5 0 0 0 75 748 L 114 748  " stroke-width="2" stroke-dasharray="6,2" stroke="#0099cc" fill="none" />
</svg>