﻿<?xml version="1.0" encoding="utf-8"?>
<svg version="1.1" xmlns:xlink="http://www.w3.org/1999/xlink" width="10px" height="18px" preserveAspectRatio="xMidYMin meet" viewBox="175 785  8 18" xmlns="http://www.w3.org/2000/svg">
  <path d="M 168 776  L 168 785  A 5 5 0 0 0 173 790 L 174 790  A 5 5 0 0 1 179 795 L 179 803  " stroke-width="2" stroke-dasharray="6,2" stroke="#f28300" fill="none" />
</svg>