﻿<?xml version="1.0" encoding="utf-8"?>
<svg version="1.1" xmlns:xlink="http://www.w3.org/1999/xlink" width="187px" height="78px" xmlns="http://www.w3.org/2000/svg">
  <g transform="matrix(1 0 0 1 -308 -771 )">
    <path d="M 310 773  L 493 773  L 493 847  L 310 847  L 310 773  Z " fill-rule="nonzero" fill="#ffffff" stroke="none" fill-opacity="0" />
    <path d="M 309 772  L 494 772  L 494 848  L 309 848  L 309 772  Z " stroke-width="2" stroke-dasharray="34,16" stroke="#73b900" fill="none" />
  </g>
</svg>