﻿<?xml version="1.0" encoding="utf-8"?>
<svg version="1.1" xmlns:xlink="http://www.w3.org/1999/xlink" width="120px" height="100px" xmlns="http://www.w3.org/2000/svg">
  <g transform="matrix(1 0 0 1 -306 -255 )">
    <path d="M 306.58137767415 305  L 336.28137767415 255.5  L 395.71862232585 255.5  L 425.41862232585 305  L 395.71862232585 354.5  L 336.28137767415 354.5  L 306.58137767415 305  Z " fill-rule="nonzero" fill="#13b38d" stroke="none" />
    <path d="M 306 305  L 336 255  L 396 255  L 426 305  L 396 355  L 336 355  L 306 305  Z M 336.5627553483 256  L 307.1627553483 305  L 336.5627553483 354  L 395.4372446517 354  L 424.8372446517 305  L 395.4372446517 256  L 336.5627553483 256  Z " fill-rule="nonzero" fill="#797979" stroke="none" />
  </g>
</svg>