﻿<?xml version="1.0" encoding="utf-8"?>
<svg version="1.1" xmlns:xlink="http://www.w3.org/1999/xlink" width="431px" height="253px" xmlns="http://www.w3.org/2000/svg">
  <g transform="matrix(1 0 0 1 -266 -446 )">
    <path d="M 266 446  L 697 446  L 697 699  L 266 699  L 266 446  " fill-rule="nonzero" fill="#cccccc" stroke="none" />
    <path d="M 284 464  L 679 464  L 679 681  L 284 681  L 284 464  " fill-rule="nonzero" fill="#ffffff" stroke="none" />
    <path d="M 509.095 521.9  C 498.469 521.9  490.12 513.551  490.12 502.925  C 490.12 492.299  498.469 483.95  509.095 483.95  C 519.721 483.95  528.07 492.299  528.07 502.925  C 528.07 513.551  519.721 521.9  509.095 521.9  " fill-rule="nonzero" fill="#cccccc" stroke="none" />
    <path d="M 291 675  L 291 562.8  L 386.5 511.8  L 520.2 603.150348027842  L 596.6 542.4  L 673 603.150348027842  L 673 675  L 291 675  " fill-rule="nonzero" fill="#169bd5" stroke="none" />
  </g>
</svg>