﻿<?xml version="1.0" encoding="utf-8"?>
<svg version="1.1" xmlns:xlink="http://www.w3.org/1999/xlink" width="20px" height="20px" viewBox="870 1981  20 20" xmlns="http://www.w3.org/2000/svg">
  <path d="M 880 1981  C 885.6 1981  890 1985.4  890 1991  C 890 1996.6  885.6 2001  880 2001  C 874.4 2001  870 1996.6  870 1991  C 870 1985.4  874.4 1981  880 1981  Z " fill-rule="nonzero" fill="#f0f0f0" stroke="none" />
  <path d="M 880 1981.5  C 885.32 1981.5  889.5 1985.68  889.5 1991  C 889.5 1996.32  885.32 2000.5  880 2000.5  C 874.68 2000.5  870.5 1996.32  870.5 1991  C 870.5 1985.68  874.68 1981.5  880 1981.5  Z " stroke-width="1" stroke="#797979" fill="none" />
  <path d="M 880 1996  C 877.2 1996  875 1993.8  875 1991  C 875 1988.2  877.2 1986  880 1986  C 882.8 1986  885 1988.2  885 1991  C 885 1993.8  882.8 1996  880 1996  " fill-rule="nonzero" fill="#797979" stroke="none" />
</svg>