﻿<?xml version="1.0" encoding="utf-8"?>
<svg version="1.1" xmlns:xlink="http://www.w3.org/1999/xlink" width="20px" height="20px" viewBox="1024 1981  20 20" xmlns="http://www.w3.org/2000/svg">
  <path d="M 1034 1981  C 1039.6 1981  1044 1985.4  1044 1991  C 1044 1996.6  1039.6 2001  1034 2001  C 1028.4 2001  1024 1996.6  1024 1991  C 1024 1985.4  1028.4 1981  1034 1981  Z " fill-rule="nonzero" fill="#ffffff" stroke="none" />
  <path d="M 1034 1981.5  C 1039.32 1981.5  1043.5 1985.68  1043.5 1991  C 1043.5 1996.32  1039.32 2000.5  1034 2000.5  C 1028.68 2000.5  1024.5 1996.32  1024.5 1991  C 1024.5 1985.68  1028.68 1981.5  1034 1981.5  Z " stroke-width="1" stroke="#797979" fill="none" />
</svg>