﻿<?xml version="1.0" encoding="utf-8"?>
<svg version="1.1" xmlns:xlink="http://www.w3.org/1999/xlink" width="271px" height="170px" xmlns="http://www.w3.org/2000/svg">
  <g transform="matrix(1 0 0 1 -279 -669 )">
    <path d="M 279 669  L 550 669  L 550 839  L 279 839  L 279 669  " fill-rule="nonzero" fill="#cccccc" stroke="none" />
    <path d="M 291 681  L 538 681  L 538 827  L 291 827  L 291 681  " fill-rule="nonzero" fill="#ffffff" stroke="none" />
    <path d="M 432.67 720  C 425.53 720  419.92 714.39  419.92 707.25  C 419.92 700.11  425.53 694.5  432.67 694.5  C 439.81 694.5  445.42 700.11  445.42 707.25  C 445.42 714.39  439.81 720  432.67 720  " fill-rule="nonzero" fill="#cccccc" stroke="none" />
    <path d="M 296 823  L 296 747.65  L 355.5 713.4  L 438.8 771.435424354244  L 486.4 733.95  L 534 771.435424354244  L 534 823  L 296 823  " fill-rule="nonzero" fill="#169bd5" stroke="none" />
  </g>
</svg>