﻿<?xml version="1.0" encoding="utf-8"?>
<svg version="1.1" xmlns:xlink="http://www.w3.org/1999/xlink" width="235px" height="145px" xmlns="http://www.w3.org/2000/svg">
  <g transform="matrix(1 0 0 1 -568 -866 )">
    <path d="M 568 866  L 803 866  L 803 1011  L 568 1011  L 568 866  " fill-rule="nonzero" fill="#cccccc" stroke="none" />
    <path d="M 578 876  L 793 876  L 793 1001  L 578 1001  L 578 876  " fill-rule="nonzero" fill="#ffffff" stroke="none" />
    <path d="M 701.075 909.5  C 694.985 909.5  690.2 904.715  690.2 898.625  C 690.2 892.535  694.985 887.75  701.075 887.75  C 707.165 887.75  711.95 892.535  711.95 898.625  C 711.95 904.715  707.165 909.5  701.075 909.5  " fill-rule="nonzero" fill="#cccccc" stroke="none" />
    <path d="M 582 998  L 582 933.1  L 634 903.6  L 706.8 954.314893617021  L 748.4 921.3  L 790 954.314893617021  L 790 998  L 582 998  " fill-rule="nonzero" fill="#169bd5" stroke="none" />
  </g>
</svg>