﻿<?xml version="1.0" encoding="utf-8"?>
<svg version="1.1" xmlns:xlink="http://www.w3.org/1999/xlink" width="35px" height="35px" viewBox="94 518  35 35" xmlns="http://www.w3.org/2000/svg">
  <defs>
    <filter x="94px" y="518px" width="35px" height="35px" filterUnits="userSpaceOnUse" id="filter256">
      <feOffset dx="5" dy="5" in="SourceAlpha" result="shadowOffsetInner" />
      <feGaussianBlur stdDeviation="2.5" in="shadowOffsetInner" result="shadowGaussian" />
      <feComposite in2="shadowGaussian" operator="atop" in="SourceAlpha" result="shadowComposite" />
      <feColorMatrix type="matrix" values="0 0 0 0 0  0 0 0 0 0  0 0 0 0 0  0 0 0 0.349019607843137 0  " in="shadowComposite" />
    </filter>
    <g id="widget257">
      <path d="M 94.5 518.5  L 118.5 518.5  L 118.5 542.5  L 94.5 542.5  L 94.5 518.5  Z " fill-rule="nonzero" fill="#ffffff" stroke="none" />
      <path d="M 94.5 518.5  L 118.5 518.5  L 118.5 542.5  L 94.5 542.5  L 94.5 518.5  Z " stroke-width="1" stroke="#797979" fill="none" />
    </g>
  </defs>
  <use xlink:href="#widget257" filter="url(#filter256)" />
  <use xlink:href="#widget257" />
  <path d="M 99.3571428571429 530.5  L 104.714285714286 535.857142857143  " stroke-width="5.35714285714286" stroke="#797979" fill="none" />
  <path d="M 104.714285714286 535.857142857143  L 113.642857142857 523.357142857143  " stroke-width="5.35714285714286" stroke="#797979" fill="none" />
</svg>