﻿<?xml version="1.0" encoding="utf-8"?>
<svg version="1.1" xmlns:xlink="http://www.w3.org/1999/xlink" width="136px" height="38px" xmlns="http://www.w3.org/2000/svg">
  <defs>
    <mask fill="white" id="clip132">
      <path d="M 0.673267326732673 37.3214285714286  L 68.3416580464016 1.44829424307037  L 135.326732673267 37.3214285714286  L 0.673267326732673 37.3214285714286  Z " fill-rule="evenodd" />
    </mask>
  </defs>
  <g transform="matrix(1 0 0 1 -1211 -189 )">
    <path d="M 0.673267326732673 37.3214285714286  L 68.3416580464016 1.44829424307037  L 135.326732673267 37.3214285714286  L 0.673267326732673 37.3214285714286  Z " fill-rule="nonzero" fill="#ffffff" stroke="none" transform="matrix(1 0 0 1 1211 189 )" />
    <path d="M 0.673267326732673 37.3214285714286  L 68.3416580464016 1.44829424307037  L 135.326732673267 37.3214285714286  L 0.673267326732673 37.3214285714286  Z " stroke-width="2" stroke="#797979" fill="none" transform="matrix(1 0 0 1 1211 189 )" mask="url(#clip132)" />
  </g>
</svg>