﻿<?xml version="1.0" encoding="utf-8"?>
<svg version="1.1" xmlns:xlink="http://www.w3.org/1999/xlink" width="12px" height="12px" viewBox="997 476  12 12" xmlns="http://www.w3.org/2000/svg">
  <path d="M 997.5 476.5  L 1008.5 476.5  L 1008.5 487.5  L 997.5 487.5  L 997.5 476.5  Z " fill-rule="nonzero" fill="#f0f0f0" stroke="none" />
  <path d="M 997.5 476.5  L 1008.5 476.5  L 1008.5 487.5  L 997.5 487.5  L 997.5 476.5  Z " stroke-width="1" stroke="#797979" fill="none" />
  <path d="M 999.571428571429 482  L 1002.14285714286 484.571428571429  " stroke-width="2.57142857142857" stroke="#797979" fill="none" />
  <path d="M 1002.14285714286 484.571428571429  L 1006.42857142857 478.571428571429  " stroke-width="2.57142857142857" stroke="#797979" fill="none" />
</svg>