﻿<?xml version="1.0" encoding="utf-8"?>
<svg version="1.1" xmlns:xlink="http://www.w3.org/1999/xlink" width="18px" height="20px" xmlns="http://www.w3.org/2000/svg">
  <g transform="matrix(1 0 0 1 -1222 -318 )">
    <path d="M 1.60714285714286 4.28571428571429  L 2.89285714285714 4.28571428571429  C 3.33482142857143 4.28571428571429  3.71316964285714 4.46056547619047  4.02790178571429 4.81026785714286  C 4.34263392857143 5.15997023809524  4.5 5.58035714285714  4.5 6.07142857142857  L 4.5 18.2142857142857  C 4.5 18.7053571428571  4.34263392857143 19.125744047619  4.02790178571429 19.4754464285714  C 3.71316964285714 19.8251488095238  3.33482142857143 20  2.89285714285714 20  L 1.60714285714286 20  C 1.16517857142857 20  0.786830357142857 19.8251488095238  0.472098214285714 19.4754464285714  C 0.157366071428571 19.125744047619  0 18.7053571428571  0 18.2142857142857  L 0 6.07142857142857  C 0 5.58035714285714  0.157366071428571 5.15997023809524  0.472098214285714 4.81026785714286  C 0.786830357142857 4.46056547619047  1.16517857142857 4.28571428571429  1.60714285714286 4.28571428571429  Z M 16.7142857142857 4.28571428571429  L 16.7142857142857 6.10491071428571  C 17.1026785714286 6.3578869047619  17.4140625 6.70386904761905  17.6484375 7.14285714285714  C 17.8828125 7.58184523809524  18 8.05803571428571  18 8.57142857142857  L 18 17.1428571428571  C 18 17.9315476190476  17.7488839285714 18.6049107142857  17.2466517857143 19.1629464285714  C 16.7444196428571 19.7209821428571  16.1383928571429 20  15.4285714285714 20  L 6.75 20  C 6.30803571428571 20  5.9296875 19.8251488095238  5.61495535714286 19.4754464285714  C 5.30022321428572 19.125744047619  5.14285714285714 18.7053571428571  5.14285714285714 18.2142857142857  L 5.14285714285714 1.07142857142857  C 5.14285714285714 0.773809523809523  5.23660714285714 0.520833333333333  5.42410714285714 0.3125  C 5.61160714285714 0.104166666666667  5.83928571428571 0  6.10714285714286 0  L 12.8571428571429 0  C 13.125 0  13.4196428571429 0.0744047619047628  13.7410714285714 0.223214285714286  C 14.0625 0.372023809523809  14.3169642857143 0.550595238095237  14.5044642857143 0.758928571428572  L 16.03125 2.45535714285714  C 16.21875 2.66369047619047  16.3794642857143 2.94642857142857  16.5133928571429 3.30357142857143  C 16.6473214285714 3.66071428571429  16.7142857142857 3.98809523809524  16.7142857142857 4.28571428571429  Z M 9.23102678571428 17.3995535714286  C 9.29129464285714 17.3325892857143  9.32142857142857 17.2470238095238  9.32142857142857 17.1428571428571  L 9.32142857142857 15.7142857142857  C 9.32142857142857 15.610119047619  9.29129464285714 15.5245535714286  9.23102678571428 15.4575892857143  C 9.17075892857143 15.390625  9.09375 15.3571428571429  9 15.3571428571429  L 7.71428571428571 15.3571428571429  C 7.62053571428572 15.3571428571429  7.54352678571429 15.390625  7.48325892857143 15.4575892857143  C 7.42299107142857 15.5245535714286  7.39285714285714 15.610119047619  7.39285714285714 15.7142857142857  L 7.39285714285714 17.1428571428571  C 7.39285714285714 17.2470238095238  7.42299107142857 17.3325892857143  7.48325892857143 17.3995535714286  C 7.54352678571429 17.4665178571429  7.62053571428572 17.5  7.71428571428571 17.5  L 9 17.5  C 9.09375 17.5  9.17075892857143 17.4665178571429  9.23102678571428 17.3995535714286  Z M 9.23102678571428 14.5424107142857  C 9.29129464285714 14.4754464285714  9.32142857142857 14.389880952381  9.32142857142857 14.2857142857143  L 9.32142857142857 12.8571428571429  C 9.32142857142857 12.7529761904762  9.29129464285714 12.6674107142857  9.23102678571428 12.6004464285714  C 9.17075892857143 12.5334821428571  9.09375 12.5  9 12.5  L 7.71428571428571 12.5  C 7.62053571428572 12.5  7.54352678571429 12.5334821428571  7.48325892857143 12.6004464285714  C 7.42299107142857 12.6674107142857  7.39285714285714 12.7529761904762  7.39285714285714 12.8571428571429  L 7.39285714285714 14.2857142857143  C 7.39285714285714 14.389880952381  7.42299107142857 14.4754464285714  7.48325892857143 14.5424107142857  C 7.54352678571429 14.609375  7.62053571428572 14.6428571428571  7.71428571428571 14.6428571428571  L 9 14.6428571428571  C 9.09375 14.6428571428571  9.17075892857143 14.609375  9.23102678571428 14.5424107142857  Z M 9.23102678571428 11.6852678571429  C 9.29129464285714 11.6183035714286  9.32142857142857 11.5327380952381  9.32142857142857 11.4285714285714  L 9.32142857142857 10  C 9.32142857142857 9.89583333333333  9.29129464285714 9.81026785714286  9.23102678571428 9.74330357142857  C 9.17075892857143 9.67633928571429  9.09375 9.64285714285714  9 9.64285714285714  L 7.71428571428571 9.64285714285714  C 7.62053571428572 9.64285714285714  7.54352678571429 9.67633928571429  7.48325892857143 9.74330357142857  C 7.42299107142857 9.81026785714286  7.39285714285714 9.89583333333333  7.39285714285714 10  L 7.39285714285714 11.4285714285714  C 7.39285714285714 11.5327380952381  7.42299107142857 11.6183035714286  7.48325892857143 11.6852678571429  C 7.54352678571429 11.7522321428571  7.62053571428572 11.7857142857143  7.71428571428571 11.7857142857143  L 9 11.7857142857143  C 9.09375 11.7857142857143  9.17075892857143 11.7522321428571  9.23102678571428 11.6852678571429  Z M 11.8024553571429 17.3995535714286  C 11.8627232142857 17.3325892857143  11.8928571428571 17.2470238095238  11.8928571428571 17.1428571428571  L 11.8928571428571 15.7142857142857  C 11.8928571428571 15.610119047619  11.8627232142857 15.5245535714286  11.8024553571429 15.4575892857143  C 11.7421875 15.390625  11.6651785714286 15.3571428571429  11.5714285714286 15.3571428571429  L 10.2857142857143 15.3571428571429  C 10.1919642857143 15.3571428571429  10.1149553571429 15.390625  10.0546875 15.4575892857143  C 9.99441964285714 15.5245535714286  9.96428571428572 15.610119047619  9.96428571428572 15.7142857142857  L 9.96428571428572 17.1428571428571  C 9.96428571428572 17.2470238095238  9.99441964285714 17.3325892857143  10.0546875 17.3995535714286  C 10.1149553571429 17.4665178571429  10.1919642857143 17.5  10.2857142857143 17.5  L 11.5714285714286 17.5  C 11.6651785714286 17.5  11.7421875 17.4665178571429  11.8024553571429 17.3995535714286  Z M 11.8024553571429 14.5424107142857  C 11.8627232142857 14.4754464285714  11.8928571428571 14.389880952381  11.8928571428571 14.2857142857143  L 11.8928571428571 12.8571428571429  C 11.8928571428571 12.7529761904762  11.8627232142857 12.6674107142857  11.8024553571429 12.6004464285714  C 11.7421875 12.5334821428571  11.6651785714286 12.5  11.5714285714286 12.5  L 10.2857142857143 12.5  C 10.1919642857143 12.5  10.1149553571429 12.5334821428571  10.0546875 12.6004464285714  C 9.99441964285714 12.6674107142857  9.96428571428572 12.7529761904762  9.96428571428572 12.8571428571429  L 9.96428571428572 14.2857142857143  C 9.96428571428572 14.389880952381  9.99441964285714 14.4754464285714  10.0546875 14.5424107142857  C 10.1149553571429 14.609375  10.1919642857143 14.6428571428571  10.2857142857143 14.6428571428571  L 11.5714285714286 14.6428571428571  C 11.6651785714286 14.6428571428571  11.7421875 14.609375  11.8024553571429 14.5424107142857  Z M 11.8024553571429 11.6852678571429  C 11.8627232142857 11.6183035714286  11.8928571428571 11.5327380952381  11.8928571428571 11.4285714285714  L 11.8928571428571 10  C 11.8928571428571 9.89583333333333  11.8627232142857 9.81026785714286  11.8024553571429 9.74330357142857  C 11.7421875 9.67633928571429  11.6651785714286 9.64285714285714  11.5714285714286 9.64285714285714  L 10.2857142857143 9.64285714285714  C 10.1919642857143 9.64285714285714  10.1149553571429 9.67633928571429  10.0546875 9.74330357142857  C 9.99441964285714 9.81026785714286  9.96428571428572 9.89583333333333  9.96428571428572 10  L 9.96428571428572 11.4285714285714  C 9.96428571428572 11.5327380952381  9.99441964285714 11.6183035714286  10.0546875 11.6852678571429  C 10.1149553571429 11.7522321428571  10.1919642857143 11.7857142857143  10.2857142857143 11.7857142857143  L 11.5714285714286 11.7857142857143  C 11.6651785714286 11.7857142857143  11.7421875 11.7522321428571  11.8024553571429 11.6852678571429  Z M 14.3738839285714 17.3995535714286  C 14.4341517857143 17.3325892857143  14.4642857142857 17.2470238095238  14.4642857142857 17.1428571428571  L 14.4642857142857 15.7142857142857  C 14.4642857142857 15.610119047619  14.4341517857143 15.5245535714286  14.3738839285714 15.4575892857143  C 14.3136160714286 15.390625  14.2366071428571 15.3571428571429  14.1428571428571 15.3571428571429  L 12.8571428571429 15.3571428571429  C 12.7633928571429 15.3571428571429  12.6863839285714 15.390625  12.6261160714286 15.4575892857143  C 12.5658482142857 15.5245535714286  12.5357142857143 15.610119047619  12.5357142857143 15.7142857142857  L 12.5357142857143 17.1428571428571  C 12.5357142857143 17.2470238095238  12.5658482142857 17.3325892857143  12.6261160714286 17.3995535714286  C 12.6863839285714 17.4665178571429  12.7633928571429 17.5  12.8571428571429 17.5  L 14.1428571428571 17.5  C 14.2366071428571 17.5  14.3136160714286 17.4665178571429  14.3738839285714 17.3995535714286  Z M 14.3738839285714 14.5424107142857  C 14.4341517857143 14.4754464285714  14.4642857142857 14.389880952381  14.4642857142857 14.2857142857143  L 14.4642857142857 12.8571428571429  C 14.4642857142857 12.7529761904762  14.4341517857143 12.6674107142857  14.3738839285714 12.6004464285714  C 14.3136160714286 12.5334821428571  14.2366071428571 12.5  14.1428571428571 12.5  L 12.8571428571429 12.5  C 12.7633928571429 12.5  12.6863839285714 12.5334821428571  12.6261160714286 12.6004464285714  C 12.5658482142857 12.6674107142857  12.5357142857143 12.7529761904762  12.5357142857143 12.8571428571429  L 12.5357142857143 14.2857142857143  C 12.5357142857143 14.389880952381  12.5658482142857 14.4754464285714  12.6261160714286 14.5424107142857  C 12.6863839285714 14.609375  12.7633928571429 14.6428571428571  12.8571428571429 14.6428571428571  L 14.1428571428571 14.6428571428571  C 14.2366071428571 14.6428571428571  14.3136160714286 14.609375  14.3738839285714 14.5424107142857  Z M 14.3738839285714 11.6852678571429  C 14.4341517857143 11.6183035714286  14.4642857142857 11.5327380952381  14.4642857142857 11.4285714285714  L 14.4642857142857 10  C 14.4642857142857 9.89583333333333  14.4341517857143 9.81026785714286  14.3738839285714 9.74330357142857  C 14.3136160714286 9.67633928571429  14.2366071428571 9.64285714285714  14.1428571428571 9.64285714285714  L 12.8571428571429 9.64285714285714  C 12.7633928571429 9.64285714285714  12.6863839285714 9.67633928571429  12.6261160714286 9.74330357142857  C 12.5658482142857 9.81026785714286  12.5357142857143 9.89583333333333  12.5357142857143 10  L 12.5357142857143 11.4285714285714  C 12.5357142857143 11.5327380952381  12.5658482142857 11.6183035714286  12.6261160714286 11.6852678571429  C 12.6863839285714 11.7522321428571  12.7633928571429 11.7857142857143  12.8571428571429 11.7857142857143  L 14.1428571428571 11.7857142857143  C 14.2366071428571 11.7857142857143  14.3136160714286 11.7522321428571  14.3738839285714 11.6852678571429  Z M 6.42857142857143 7.14285714285714  L 15.4285714285714 7.14285714285714  L 15.4285714285714 4.28571428571429  L 13.8214285714286 4.28571428571429  C 13.5535714285714 4.28571428571429  13.3258928571429 4.18154761904762  13.1383928571429 3.97321428571429  C 12.9508928571429 3.76488095238095  12.8571428571429 3.51190476190476  12.8571428571429 3.21428571428571  L 12.8571428571429 1.42857142857143  L 6.42857142857143 1.42857142857143  L 6.42857142857143 7.14285714285714  Z " fill-rule="nonzero" fill="#3eb134" stroke="none" transform="matrix(1 0 0 1 1222 318 )" />
  </g>
</svg>