﻿<?xml version="1.0" encoding="utf-8"?>
<svg version="1.1" xmlns:xlink="http://www.w3.org/1999/xlink" width="30px" height="30px" viewBox="9 809  30 30" xmlns="http://www.w3.org/2000/svg">
  <path d="M 9.5 809.5  L 38.5 809.5  L 38.5 838.5  L 9.5 838.5  L 9.5 809.5  Z " fill-rule="nonzero" fill="#ffffff" stroke="none" />
  <path d="M 9.5 809.5  L 38.5 809.5  L 38.5 838.5  L 9.5 838.5  L 9.5 809.5  Z " stroke-width="1" stroke="#797979" fill="none" />
  <path d="M 15.4285714285714 824  L 21.8571428571429 830.428571428571  " stroke-width="6.42857142857143" stroke="#797979" fill="none" />
  <path d="M 21.8571428571429 830.428571428571  L 32.5714285714286 815.428571428571  " stroke-width="6.42857142857143" stroke="#797979" fill="none" />
</svg>