﻿<?xml version="1.0" encoding="utf-8"?>
<svg version="1.1" xmlns:xlink="http://www.w3.org/1999/xlink" width="20px" height="20px" viewBox="1047 929  20 20" xmlns="http://www.w3.org/2000/svg">
  <path d="M 1047.5 929.5  L 1066.5 929.5  L 1066.5 948.5  L 1047.5 948.5  L 1047.5 929.5  Z " fill-rule="nonzero" fill="#f0f0f0" stroke="none" />
  <path d="M 1047.5 929.5  L 1066.5 929.5  L 1066.5 948.5  L 1047.5 948.5  L 1047.5 929.5  Z " stroke-width="1" stroke="#797979" fill="none" />
  <path d="M 1051.28571428571 939  L 1055.57142857143 943.285714285714  " stroke-width="4.28571428571429" stroke="#797979" fill="none" />
  <path d="M 1055.57142857143 943.285714285714  L 1062.71428571429 933.285714285714  " stroke-width="4.28571428571429" stroke="#797979" fill="none" />
</svg>