﻿<?xml version="1.0" encoding="utf-8"?>
<svg version="1.1" xmlns:xlink="http://www.w3.org/1999/xlink" width="20px" height="20px" viewBox="887 929  20 20" xmlns="http://www.w3.org/2000/svg">
  <path d="M 887.5 929.5  L 906.5 929.5  L 906.5 948.5  L 887.5 948.5  L 887.5 929.5  Z " fill-rule="nonzero" fill="#ffffff" stroke="none" />
  <path d="M 887.5 929.5  L 906.5 929.5  L 906.5 948.5  L 887.5 948.5  L 887.5 929.5  Z " stroke-width="1" stroke="#797979" fill="none" />
  <path d="M 891.285714285714 939  L 895.571428571429 943.285714285714  " stroke-width="4.28571428571429" stroke="#797979" fill="none" />
  <path d="M 895.571428571429 943.285714285714  L 902.714285714286 933.285714285714  " stroke-width="4.28571428571429" stroke="#797979" fill="none" />
</svg>