﻿<?xml version="1.0" encoding="utf-8"?>
<svg version="1.1" xmlns:xlink="http://www.w3.org/1999/xlink" width="39px" height="41px" xmlns="http://www.w3.org/2000/svg">
  <g transform="matrix(1 0 0 1 -30 -40 )">
    <path d="M 38.1389266304348 16.4342105263158  C 38.7129755434783 17.0921052631579  39 17.8859649122807  39 18.8157894736842  L 39 22.1842105263158  C 39 23.1140350877193  38.7129755434783 23.9078947368421  38.1389266304348 24.5657894736842  C 37.5648777173913 25.2236842105263  36.8186141304348 25.5526315789474  35.9001358695652 25  L 17.2479619565217 25  L 25.0108695652174 33.2894736842105  C 25.6820652173913 33.9210526315789  26.0176630434783 34.7105263157895  26.0176630434783 35.6578947368421  C 26.0176630434783 36.6052631578947  25.6820652173913 37.3947368421053  25.0108695652174 38.0263157894737  L 23.023777173913 40.0263157894737  C 22.3702445652174 40.6754385964912  21.5754076086957 41  20.6392663043478 41  C 19.7207880434783 41  18.9171195652174 40.6754385964912  18.2282608695652 40.0263157894737  L 0.980298913043478 22.8684210526316  C 0.326766304347826 22.219298245614  0 21.4298245614035  0 20.5  C 0 19.5877192982456  0.326766304347826 18.7894736842105  0.980298913043478 18.1052631578947  L 18.2282608695652 1  C 18.8994565217391 0.333333333333331  19.703125 0  20.6392663043478 0  C 21.5577445652174 0  22.3525815217391 0.333333333333331  23.023777173913 1  L 25.0108695652174 2.94736842105263  C 25.6820652173913 3.6140350877193  26.0176630434783 4.41228070175438  26.0176630434783 5.34210526315789  C 26.0176630434783 6.2719298245614  25.6820652173913 7.07017543859649  25.0108695652174 7.73684210526316  L 17.2479619565217 16  L 35.9001358695652 16  C 36.8186141304348 15.4473684210526  37.5648777173913 15.7763157894737  38.1389266304348 16.4342105263158  Z " fill-rule="nonzero" fill="#000000" stroke="none" transform="matrix(1 0 0 1 30 40 )" />
  </g>
</svg>