﻿<?xml version="1.0" encoding="utf-8"?>
<svg version="1.1" xmlns:xlink="http://www.w3.org/1999/xlink" width="21px" height="29px" xmlns="http://www.w3.org/2000/svg">
  <g transform="matrix(1 0 0 1 -1084 -3355 )">
    <path d="M 20.5012836970475 11.9871881321645  C 20.8337612323492 12.4956169925826  21 13.0887839964037  21 13.7666891436278  C 21 14.4576309282985  20.8337612323492 15.0442796133963  20.5012836970475 15.5266351989211  L 11.7265725288832 28.2764666217127  C 11.3761232349166 28.7588222072376  10.9672657252888 29  10.5 29  C 10.0237483953787 29  9.6193838254172 28.7588222072376  9.28690629011553 28.2764666217127  L 0.51219512195122 15.5266351989211  C 0.170731707317073 15.0573162508429  0 14.4706675657451  0 13.7666891436278  C 0 13.0757473589571  0.170731707317073 12.482580355136  0.51219512195122 11.9871881321645  L 1.50962772785623 10.5205664194201  C 1.86007702182285 10.0382108338953  2.26893453145058 9.79703304113284  2.73620025673941 9.79703304113284  C 3.21245186136072 9.79703304113284  3.61681643132221 10.0382108338953  3.94929396662388 10.5205664194201  L 8 16.2697235333783  L 8 2.50303438975051  C 7.91206675224647 1.82512924252641  8.08279845956354 1.23848055742863  8.42426187419769 0.743088334457183  C 8.76572528883184 0.247696111485723  9.17008985879333 0  9.63735558408216 0  L 11.3626444159178 0  C 11.8299101412067 0  12.2342747111682 0.247696111485723  12.5757381258023 0.743088334457183  C 12.9172015404365 1.23848055742863  13.0879332477535 1.82512924252641  13 2.50303438975051  L 13 16.2697235333783  L 17.0507060333761 10.5205664194201  C 17.3831835686778 10.0382108338953  17.7875481386393 9.79703304113284  18.2637997432606 9.79703304113284  C 18.7310654685494 9.79703304113284  19.1399229781772 10.0382108338953  19.4903722721438 10.5205664194201  L 20.5012836970475 11.9871881321645  Z " fill-rule="nonzero" fill="#ce1313" stroke="none" transform="matrix(1 0 0 1 1084 3355 )" />
  </g>
</svg>