﻿<?xml version="1.0" encoding="utf-8"?>
<svg version="1.1" xmlns:xlink="http://www.w3.org/1999/xlink" width="310px" height="235px" xmlns="http://www.w3.org/2000/svg">
  <defs>
    <filter x="884px" y="54px" width="310px" height="235px" filterUnits="userSpaceOnUse" id="filter25">
      <feOffset dx="5" dy="5" in="SourceAlpha" result="shadowOffsetInner" />
      <feGaussianBlur stdDeviation="2.5" in="shadowOffsetInner" result="shadowGaussian" />
      <feComposite in2="shadowGaussian" operator="atop" in="SourceAlpha" result="shadowComposite" />
      <feColorMatrix type="matrix" values="0 0 0 0 0  0 0 0 0 0  0 0 0 0 0  0 0 0 0.349019607843137 0  " in="shadowComposite" />
    </filter>
    <g id="widget26">
      <path d="M 884 54  L 1184 54  L 1184 279  L 884 279  L 884 54  " fill-rule="nonzero" fill="#cccccc" stroke="none" />
      <path d="M 900 70  L 1168 70  L 1168 263  L 900 263  L 900 70  " fill-rule="nonzero" fill="#ffffff" stroke="none" />
      <path d="M 1056.875 121.5  C 1047.425 121.5  1040 114.075  1040 104.625  C 1040 95.175  1047.425 87.75  1056.875 87.75  C 1066.325 87.75  1073.75 95.175  1073.75 104.625  C 1073.75 114.075  1066.325 121.5  1056.875 121.5  " fill-rule="nonzero" fill="#cccccc" stroke="none" />
      <path d="M 906 258  L 906 157.9  L 970.25 112.4  L 1060.2 176.1  L 1111.6 139.7  L 1163 176.1  L 1163 258  L 906 258  " fill-rule="nonzero" fill="#169bd5" stroke="none" />
    </g>
  </defs>
  <g transform="matrix(1 0 0 1 -884 -54 )">
    <use xlink:href="#widget26" filter="url(#filter25)" />
    <use xlink:href="#widget26" />
  </g>
</svg>