﻿<?xml version="1.0" encoding="utf-8"?>
<svg version="1.1" xmlns:xlink="http://www.w3.org/1999/xlink" width="35px" height="35px" viewBox="813 472  35 35" xmlns="http://www.w3.org/2000/svg">
  <defs>
    <filter x="813px" y="472px" width="35px" height="35px" filterUnits="userSpaceOnUse" id="filter76">
      <feOffset dx="5" dy="5" in="SourceAlpha" result="shadowOffsetInner" />
      <feGaussianBlur stdDeviation="2.5" in="shadowOffsetInner" result="shadowGaussian" />
      <feComposite in2="shadowGaussian" operator="atop" in="SourceAlpha" result="shadowComposite" />
      <feColorMatrix type="matrix" values="0 0 0 0 0  0 0 0 0 0  0 0 0 0 0  0 0 0 0.349019607843137 0  " in="shadowComposite" />
    </filter>
    <g id="widget77">
      <path d="M 813.5 472.5  L 837.5 472.5  L 837.5 496.5  L 813.5 496.5  L 813.5 472.5  Z " fill-rule="nonzero" fill="#f0f0f0" stroke="none" />
      <path d="M 813.5 472.5  L 837.5 472.5  L 837.5 496.5  L 813.5 496.5  L 813.5 472.5  Z " stroke-width="1" stroke="#797979" fill="none" />
    </g>
  </defs>
  <use xlink:href="#widget77" filter="url(#filter76)" />
  <use xlink:href="#widget77" />
  <path d="M 818.357142857143 484.5  L 823.714285714286 489.857142857143  " stroke-width="5.35714285714286" stroke="#797979" fill="none" />
  <path d="M 823.714285714286 489.857142857143  L 832.642857142857 477.357142857143  " stroke-width="5.35714285714286" stroke="#797979" fill="none" />
</svg>