﻿<?xml version="1.0" encoding="utf-8"?>
<svg version="1.1" xmlns:xlink="http://www.w3.org/1999/xlink" width="20px" height="20px" viewBox="351 422  20 20" xmlns="http://www.w3.org/2000/svg">
  <path d="M 351.5 422.5  L 370.5 422.5  L 370.5 441.5  L 351.5 441.5  L 351.5 422.5  Z " fill-rule="nonzero" fill="#f0f0f0" stroke="none" />
  <path d="M 351.5 422.5  L 370.5 422.5  L 370.5 441.5  L 351.5 441.5  L 351.5 422.5  Z " stroke-width="1" stroke="#797979" fill="none" />
  <path d="M 355.285714285714 432  L 359.571428571429 436.285714285714  " stroke-width="4.28571428571429" stroke="#797979" fill="none" />
  <path d="M 359.571428571429 436.285714285714  L 366.714285714286 426.285714285714  " stroke-width="4.28571428571429" stroke="#797979" fill="none" />
</svg>