﻿<?xml version="1.0" encoding="utf-8"?>
<svg version="1.1" xmlns:xlink="http://www.w3.org/1999/xlink" width="35px" height="35px" viewBox="-399 1056  35 35" xmlns="http://www.w3.org/2000/svg">
  <defs>
    <filter x="-399px" y="1056px" width="35px" height="35px" filterUnits="userSpaceOnUse" id="filter74">
      <feOffset dx="5" dy="5" in="SourceAlpha" result="shadowOffsetInner" />
      <feGaussianBlur stdDeviation="2.5" in="shadowOffsetInner" result="shadowGaussian" />
      <feComposite in2="shadowGaussian" operator="atop" in="SourceAlpha" result="shadowComposite" />
      <feColorMatrix type="matrix" values="0 0 0 0 0  0 0 0 0 0  0 0 0 0 0  0 0 0 0.349019607843137 0  " in="shadowComposite" />
    </filter>
    <g id="widget75">
      <path d="M -398.5 1056.5  L -374.5 1056.5  L -374.5 1080.5  L -398.5 1080.5  L -398.5 1056.5  Z " fill-rule="nonzero" fill="#f0f0f0" stroke="none" />
      <path d="M -398.5 1056.5  L -374.5 1056.5  L -374.5 1080.5  L -398.5 1080.5  L -398.5 1056.5  Z " stroke-width="1" stroke="#797979" fill="none" />
    </g>
  </defs>
  <use xlink:href="#widget75" filter="url(#filter74)" />
  <use xlink:href="#widget75" />
  <path d="M -393.642857142857 1068.5  L -388.285714285714 1073.85714285714  " stroke-width="5.35714285714286" stroke="#797979" fill="none" />
  <path d="M -388.285714285714 1073.85714285714  L -379.357142857143 1061.35714285714  " stroke-width="5.35714285714286" stroke="#797979" fill="none" />
</svg>