﻿<?xml version="1.0" encoding="utf-8"?>
<svg version="1.1" xmlns:xlink="http://www.w3.org/1999/xlink" width="20px" height="20px" viewBox="-729 448  20 20" xmlns="http://www.w3.org/2000/svg">
  <path d="M -728.5 448.5  L -709.5 448.5  L -709.5 467.5  L -728.5 467.5  L -728.5 448.5  Z " fill-rule="nonzero" fill="#f0f0f0" stroke="none" />
  <path d="M -728.5 448.5  L -709.5 448.5  L -709.5 467.5  L -728.5 467.5  L -728.5 448.5  Z " stroke-width="1" stroke="#797979" fill="none" />
</svg>