﻿<?xml version="1.0" encoding="utf-8"?>
<svg version="1.1" xmlns:xlink="http://www.w3.org/1999/xlink" width="53px" height="57px" xmlns="http://www.w3.org/2000/svg">
  <g transform="matrix(1 0 0 1 -1075 -427 )">
    <path d="M 44.1666666666667 16.2857142857143  C 44.1666666666667 19.4029017857143  43.2580295138889 22.2868303571429  41.4407552083333 24.9375  C 42.5219184027778 25.234375  43.5513237847222 25.6372767857143  44.5289713541667 26.1462053571429  C 45.5066189236111 26.6551339285714  46.5302734375 27.4291294642857  47.5999348958333 28.4681919642857  C 48.6695963541667 29.5072544642857  49.583984375 30.7318638392857  50.3430989583333 32.1420200892857  C 51.1022135416667 33.5521763392857  51.7348090277778 35.3758370535714  52.2408854166667 37.6130022321429  C 52.7469618055556 39.8501674107143  53 42.3577008928571  53 45.1356026785714  C 53 48.4012276785714  51.8498263888889 51.1950334821429  49.5494791666667 53.5170200892857  C 47.2491319444444 55.8390066964286  44.4772135416667 57  41.2337239583333 57  L 11.7662760416667 57  C 8.52278645833333 57  5.75086805555556 55.8390066964286  3.45052083333333 53.5170200892857  C 1.15017361111111 51.1950334821429  0 48.4012276785714  0 45.1356026785714  C 0 42.3577008928571  0.253038194444444 39.8501674107143  0.759114583333333 37.6130022321429  C 1.26519097222222 35.3758370535714  1.89778645833333 33.5521763392857  2.65690104166667 32.1420200892857  C 3.416015625 30.7318638392857  4.33040364583333 29.5072544642857  5.40006510416667 28.4681919642857  C 6.4697265625 27.4291294642857  7.49338107638889 26.6551339285714  8.47102864583333 26.1462053571429  C 9.44867621527778 25.6372767857143  10.4780815972222 25.234375  11.5592447916667 24.9375  C 9.74197048611111 22.2868303571429  8.83333333333333 19.4029017857143  8.83333333333333 16.2857142857143  C 8.83333333333333 14.0803571428571  9.29915364583333 11.9757254464286  10.2307942708333 9.97181919642857  C 11.1624348958333 7.96791294642857  12.421875 6.234375  14.0091145833333 4.77120535714285  C 15.5963541666667 3.30803571428572  17.4768880208333 2.14704241071428  19.6507161458333 1.28822544642857  C 21.8245442708333 0.429408482142854  24.1076388888889 0  26.5 0  C 28.8923611111111 0  31.1754557291667 0.429408482142854  33.3492838541667 1.28822544642857  C 35.5231119791667 2.14704241071428  37.4036458333333 3.30803571428572  38.9908854166667 4.77120535714285  C 40.578125 6.234375  41.8375651041667 7.96791294642857  42.7692057291667 9.97181919642857  C 43.7008463541667 11.9757254464286  44.1666666666667 14.0803571428571  44.1666666666667 16.2857142857143  Z M 35.8681640625 7.64983258928572  C 33.2802734375 5.26422991071428  30.1575520833333 4.07142857142857  26.5 4.07142857142857  C 22.8424479166667 4.07142857142857  19.7197265625 5.26422991071428  17.1318359375 7.64983258928572  C 14.5439453125 10.0354352678571  13.25 12.9140625  13.25 16.2857142857143  C 13.25 19.6573660714286  14.5439453125 22.5359933035714  17.1318359375 24.9215959821429  C 19.7197265625 27.3071986607143  22.8424479166667 28.5  26.5 28.5  C 30.1575520833333 28.5  33.2802734375 27.3071986607143  35.8681640625 24.9215959821429  C 38.4560546875 22.5359933035714  39.75 19.6573660714286  39.75 16.2857142857143  C 39.75 12.9140625  38.4560546875 10.0354352678571  35.8681640625 7.64983258928572  Z M 11.7662760416667 53  L 41.2337239583333 53  C 43.2580295138889 52.9285714285714  44.9890407986111 52.1704799107143  46.4267578125 50.654296875  C 47.8644748263889 49.1381138392857  48.5833333333333 47.2985491071429  48.5833333333333 45.1356026785714  C 48.5833333333333 40.0675223214286  47.6804470486111 36.0703125  45.8746744791667 33.1439732142857  C 44.0689019097222 30.2176339285714  41.4752604166667 28.6802455357143  38.09375 28.5318080357143  C 34.7582465277778 31.2248883928571  30.8936631944444 32.5714285714286  26.5 32.5714285714286  C 22.1063368055556 32.5714285714286  18.2417534722222 31.2248883928571  14.90625 28.5318080357143  C 11.5247395833333 28.6802455357143  8.93109809027778 30.2176339285714  7.12532552083333 33.1439732142857  C 5.31955295138889 36.0703125  4.41666666666667 40.0675223214286  4.41666666666667 45.1356026785714  C 4.41666666666667 47.2985491071429  5.13552517361111 49.1381138392857  6.5732421875 50.654296875  C 8.01095920138889 52.1704799107143  9.74197048611111 52.9285714285714  11.7662760416667 53  Z " fill-rule="nonzero" fill="#000000" stroke="none" transform="matrix(1 0 0 1 1075 427 )" />
  </g>
</svg>