﻿<?xml version="1.0" encoding="utf-8"?>
<svg version="1.1" xmlns:xlink="http://www.w3.org/1999/xlink" width="120px" height="90px" xmlns="http://www.w3.org/2000/svg">
  <g transform="matrix(1 0 0 1 -634 -854 )">
    <path d="M 634 854  L 754 854  L 754 944  L 634 944  L 634 854  " fill-rule="nonzero" fill="#cccccc" stroke="none" />
    <path d="M 640 860  L 748 860  L 748 938  L 640 938  L 640 860  " fill-rule="nonzero" fill="#ffffff" stroke="none" />
    <path d="M 703.15 881  C 699.37 881  696.4 878.03  696.4 874.25  C 696.4 870.47  699.37 867.5  703.15 867.5  C 706.93 867.5  709.9 870.47  709.9 874.25  C 709.9 878.03  706.93 881  703.15 881  " fill-rule="nonzero" fill="#cccccc" stroke="none" />
    <path d="M 643 936  L 643 895.85  L 668.75 877.6  L 704.8 903.15  L 725.4 888.55  L 746 903.15  L 746 936  L 643 936  " fill-rule="nonzero" fill="#169bd5" stroke="none" />
  </g>
</svg>