﻿<?xml version="1.0" encoding="utf-8"?>
<svg version="1.1" xmlns:xlink="http://www.w3.org/1999/xlink" width="18px" height="20px" xmlns="http://www.w3.org/2000/svg">
  <defs>
    <mask fill="white" id="clip22">
      <path d="M 11.6953125 12.7864583333333  C 12.4140625 12.0399305555556  13.265625 11.6666666666667  14.25 11.6666666666667  C 15.2890625 11.6666666666667  16.173828125 12.0724826388889  16.904296875 12.8841145833333  C 17.634765625 13.6957465277778  18 14.6788194444444  18 15.8333333333333  C 18 16.9878472222222  17.634765625 17.9709201388889  16.904296875 18.7825520833333  C 16.173828125 19.5941840277778  15.2890625 20  14.25 20  C 13.2109375 20  12.326171875 19.5941840277778  11.595703125 18.7825520833333  C 10.865234375 17.9709201388889  10.5 16.9878472222222  10.5 15.8333333333333  C 10.5 15.7291666666667  10.5078125 15.5815972222222  10.5234375 15.390625  L 6.3046875 13.046875  C 5.5859375 13.7934027777778  4.734375 14.1666666666667  3.75 14.1666666666667  C 2.7109375 14.1666666666667  1.826171875 13.7608506944444  1.095703125 12.94921875  C 0.365234375 12.1375868055556  0 11.1545138888889  0 10  C 0 8.84548611111111  0.365234375 7.86241319444444  1.095703125 7.05078125  C 1.826171875 6.23914930555555  2.7109375 5.83333333333333  3.75 5.83333333333333  C 4.734375 5.83333333333333  5.5859375 6.20659722222222  6.3046875 6.953125  L 10.5234375 4.609375  C 10.5078125 4.41840277777778  10.5 4.27083333333333  10.5 4.16666666666667  C 10.5 3.01215277777778  10.865234375 2.02907986111111  11.595703125 1.21744791666667  C 12.326171875 0.405815972222221  13.2109375 0  14.25 0  C 15.2890625 0  16.173828125 0.405815972222221  16.904296875 1.21744791666667  C 17.634765625 2.02907986111111  18 3.01215277777778  18 4.16666666666667  C 18 5.32118055555555  17.634765625 6.30425347222222  16.904296875 7.11588541666667  C 16.173828125 7.92751736111111  15.2890625 8.33333333333333  14.25 8.33333333333333  C 13.265625 8.33333333333333  12.4140625 7.96006944444444  11.6953125 7.21354166666667  L 7.4765625 9.55729166666667  C 7.4921875 9.74826388888889  7.5 9.89583333333333  7.5 10  C 7.5 10.1041666666667  7.4921875 10.2517361111111  7.4765625 10.4427083333333  L 11.6953125 12.7864583333333  Z " fill-rule="evenodd" />
    </mask>
  </defs>
  <g transform="matrix(1 0 0 1 -1329 -119 )">
    <path d="M 11.6953125 12.7864583333333  C 12.4140625 12.0399305555556  13.265625 11.6666666666667  14.25 11.6666666666667  C 15.2890625 11.6666666666667  16.173828125 12.0724826388889  16.904296875 12.8841145833333  C 17.634765625 13.6957465277778  18 14.6788194444444  18 15.8333333333333  C 18 16.9878472222222  17.634765625 17.9709201388889  16.904296875 18.7825520833333  C 16.173828125 19.5941840277778  15.2890625 20  14.25 20  C 13.2109375 20  12.326171875 19.5941840277778  11.595703125 18.7825520833333  C 10.865234375 17.9709201388889  10.5 16.9878472222222  10.5 15.8333333333333  C 10.5 15.7291666666667  10.5078125 15.5815972222222  10.5234375 15.390625  L 6.3046875 13.046875  C 5.5859375 13.7934027777778  4.734375 14.1666666666667  3.75 14.1666666666667  C 2.7109375 14.1666666666667  1.826171875 13.7608506944444  1.095703125 12.94921875  C 0.365234375 12.1375868055556  0 11.1545138888889  0 10  C 0 8.84548611111111  0.365234375 7.86241319444444  1.095703125 7.05078125  C 1.826171875 6.23914930555555  2.7109375 5.83333333333333  3.75 5.83333333333333  C 4.734375 5.83333333333333  5.5859375 6.20659722222222  6.3046875 6.953125  L 10.5234375 4.609375  C 10.5078125 4.41840277777778  10.5 4.27083333333333  10.5 4.16666666666667  C 10.5 3.01215277777778  10.865234375 2.02907986111111  11.595703125 1.21744791666667  C 12.326171875 0.405815972222221  13.2109375 0  14.25 0  C 15.2890625 0  16.173828125 0.405815972222221  16.904296875 1.21744791666667  C 17.634765625 2.02907986111111  18 3.01215277777778  18 4.16666666666667  C 18 5.32118055555555  17.634765625 6.30425347222222  16.904296875 7.11588541666667  C 16.173828125 7.92751736111111  15.2890625 8.33333333333333  14.25 8.33333333333333  C 13.265625 8.33333333333333  12.4140625 7.96006944444444  11.6953125 7.21354166666667  L 7.4765625 9.55729166666667  C 7.4921875 9.74826388888889  7.5 9.89583333333333  7.5 10  C 7.5 10.1041666666667  7.4921875 10.2517361111111  7.4765625 10.4427083333333  L 11.6953125 12.7864583333333  Z " fill-rule="nonzero" fill="#000000" stroke="none" fill-opacity="0" transform="matrix(1 0 0 1 1329 119 )" />
    <path d="M 11.6953125 12.7864583333333  C 12.4140625 12.0399305555556  13.265625 11.6666666666667  14.25 11.6666666666667  C 15.2890625 11.6666666666667  16.173828125 12.0724826388889  16.904296875 12.8841145833333  C 17.634765625 13.6957465277778  18 14.6788194444444  18 15.8333333333333  C 18 16.9878472222222  17.634765625 17.9709201388889  16.904296875 18.7825520833333  C 16.173828125 19.5941840277778  15.2890625 20  14.25 20  C 13.2109375 20  12.326171875 19.5941840277778  11.595703125 18.7825520833333  C 10.865234375 17.9709201388889  10.5 16.9878472222222  10.5 15.8333333333333  C 10.5 15.7291666666667  10.5078125 15.5815972222222  10.5234375 15.390625  L 6.3046875 13.046875  C 5.5859375 13.7934027777778  4.734375 14.1666666666667  3.75 14.1666666666667  C 2.7109375 14.1666666666667  1.826171875 13.7608506944444  1.095703125 12.94921875  C 0.365234375 12.1375868055556  0 11.1545138888889  0 10  C 0 8.84548611111111  0.365234375 7.86241319444444  1.095703125 7.05078125  C 1.826171875 6.23914930555555  2.7109375 5.83333333333333  3.75 5.83333333333333  C 4.734375 5.83333333333333  5.5859375 6.20659722222222  6.3046875 6.953125  L 10.5234375 4.609375  C 10.5078125 4.41840277777778  10.5 4.27083333333333  10.5 4.16666666666667  C 10.5 3.01215277777778  10.865234375 2.02907986111111  11.595703125 1.21744791666667  C 12.326171875 0.405815972222221  13.2109375 0  14.25 0  C 15.2890625 0  16.173828125 0.405815972222221  16.904296875 1.21744791666667  C 17.634765625 2.02907986111111  18 3.01215277777778  18 4.16666666666667  C 18 5.32118055555555  17.634765625 6.30425347222222  16.904296875 7.11588541666667  C 16.173828125 7.92751736111111  15.2890625 8.33333333333333  14.25 8.33333333333333  C 13.265625 8.33333333333333  12.4140625 7.96006944444444  11.6953125 7.21354166666667  L 7.4765625 9.55729166666667  C 7.4921875 9.74826388888889  7.5 9.89583333333333  7.5 10  C 7.5 10.1041666666667  7.4921875 10.2517361111111  7.4765625 10.4427083333333  L 11.6953125 12.7864583333333  Z " stroke-width="2" stroke="#047157" fill="none" stroke-opacity="0.988235294117647" transform="matrix(1 0 0 1 1329 119 )" mask="url(#clip22)" />
  </g>
</svg>