﻿<?xml version="1.0" encoding="utf-8"?>
<svg version="1.1" xmlns:xlink="http://www.w3.org/1999/xlink" width="16px" height="16px" viewBox="654 675  16 16" xmlns="http://www.w3.org/2000/svg">
  <path d="M 662 675  C 666.48 675  670 678.52  670 683  C 670 687.48  666.48 691  662 691  C 657.52 691  654 687.48  654 683  C 654 678.52  657.52 675  662 675  Z " fill-rule="nonzero" fill="#f0f0f0" stroke="none" />
  <path d="M 662 675.5  C 666.2 675.5  669.5 678.8  669.5 683  C 669.5 687.2  666.2 690.5  662 690.5  C 657.8 690.5  654.5 687.2  654.5 683  C 654.5 678.8  657.8 675.5  662 675.5  Z " stroke-width="1" stroke="#797979" fill="none" />
  <path d="M 662 687  C 659.76 687  658 685.24  658 683  C 658 680.76  659.76 679  662 679  C 664.24 679  666 680.76  666 683  C 666 685.24  664.24 687  662 687  " fill-rule="nonzero" fill="#797979" stroke="none" />
</svg>