﻿<?xml version="1.0" encoding="utf-8"?>
<svg version="1.1" xmlns:xlink="http://www.w3.org/1999/xlink" width="12px" height="12px" viewBox="649 23  12 12" xmlns="http://www.w3.org/2000/svg">
  <path d="M 655 23  C 658.36 23  661 25.64  661 29  C 661 32.36  658.36 35  655 35  C 651.64 35  649 32.36  649 29  C 649 25.64  651.64 23  655 23  Z " fill-rule="nonzero" fill="#f0f0f0" stroke="none" />
  <path d="M 655 23.5  C 658.08 23.5  660.5 25.92  660.5 29  C 660.5 32.08  658.08 34.5  655 34.5  C 651.92 34.5  649.5 32.08  649.5 29  C 649.5 25.92  651.92 23.5  655 23.5  Z " stroke-width="1" stroke="#797979" fill="none" />
  <path d="M 655 32  C 653.32 32  652 30.68  652 29  C 652 27.32  653.32 26  655 26  C 656.68 26  658 27.32  658 29  C 658 30.68  656.68 32  655 32  " fill-rule="nonzero" fill="#797979" stroke="none" />
</svg>