﻿<?xml version="1.0" encoding="utf-8"?>
<svg version="1.1" xmlns:xlink="http://www.w3.org/1999/xlink" width="12px" height="12px" viewBox="964 119.5  12 12" xmlns="http://www.w3.org/2000/svg">
  <path d="M 970 119.5  C 973.36 119.5  976 122.14  976 125.5  C 976 128.86  973.36 131.5  970 131.5  C 966.64 131.5  964 128.86  964 125.5  C 964 122.14  966.64 119.5  970 119.5  Z " fill-rule="nonzero" fill="#f0f0f0" stroke="none" />
  <path d="M 970 120  C 973.08 120  975.5 122.42  975.5 125.5  C 975.5 128.58  973.08 131  970 131  C 966.92 131  964.5 128.58  964.5 125.5  C 964.5 122.42  966.92 120  970 120  Z " stroke-width="1" stroke="#797979" fill="none" />
</svg>