﻿<?xml version="1.0" encoding="utf-8"?>
<svg version="1.1" xmlns:xlink="http://www.w3.org/1999/xlink" width="12px" height="12px" viewBox="649 119.5  12 12" xmlns="http://www.w3.org/2000/svg">
  <path d="M 655 119.5  C 658.36 119.5  661 122.14  661 125.5  C 661 128.86  658.36 131.5  655 131.5  C 651.64 131.5  649 128.86  649 125.5  C 649 122.14  651.64 119.5  655 119.5  Z " fill-rule="nonzero" fill="#f0f0f0" stroke="none" />
  <path d="M 655 120  C 658.08 120  660.5 122.42  660.5 125.5  C 660.5 128.58  658.08 131  655 131  C 651.92 131  649.5 128.58  649.5 125.5  C 649.5 122.42  651.92 120  655 120  Z " stroke-width="1" stroke="#797979" fill="none" />
</svg>