﻿<?xml version="1.0" encoding="utf-8"?>
<svg version="1.1" xmlns:xlink="http://www.w3.org/1999/xlink" width="12px" height="12px" viewBox="845 119.5  12 12" xmlns="http://www.w3.org/2000/svg">
  <path d="M 851 119.5  C 854.36 119.5  857 122.14  857 125.5  C 857 128.86  854.36 131.5  851 131.5  C 847.64 131.5  845 128.86  845 125.5  C 845 122.14  847.64 119.5  851 119.5  Z " fill-rule="nonzero" fill="#ffffff" stroke="none" />
  <path d="M 851 120  C 854.08 120  856.5 122.42  856.5 125.5  C 856.5 128.58  854.08 131  851 131  C 847.92 131  845.5 128.58  845.5 125.5  C 845.5 122.42  847.92 120  851 120  Z " stroke-width="1" stroke="#797979" fill="none" />
</svg>