﻿<?xml version="1.0" encoding="utf-8"?>
<svg version="1.1" xmlns:xlink="http://www.w3.org/1999/xlink" width="16px" height="16px" viewBox="1194 751  16 16" xmlns="http://www.w3.org/2000/svg">
  <path d="M 1202 751  C 1206.48 751  1210 754.52  1210 759  C 1210 763.48  1206.48 767  1202 767  C 1197.52 767  1194 763.48  1194 759  C 1194 754.52  1197.52 751  1202 751  Z " fill-rule="nonzero" fill="#ffffff" stroke="none" />
  <path d="M 1202 751.5  C 1206.2 751.5  1209.5 754.8  1209.5 759  C 1209.5 763.2  1206.2 766.5  1202 766.5  C 1197.8 766.5  1194.5 763.2  1194.5 759  C 1194.5 754.8  1197.8 751.5  1202 751.5  Z " stroke-width="1" stroke="#797979" fill="none" />
</svg>