﻿<?xml version="1.0" encoding="utf-8"?>
<svg version="1.1" xmlns:xlink="http://www.w3.org/1999/xlink" width="35px" height="35px" viewBox="-402 738  35 35" xmlns="http://www.w3.org/2000/svg">
  <defs>
    <filter x="-402px" y="738px" width="35px" height="35px" filterUnits="userSpaceOnUse" id="filter43">
      <feOffset dx="5" dy="5" in="SourceAlpha" result="shadowOffsetInner" />
      <feGaussianBlur stdDeviation="2.5" in="shadowOffsetInner" result="shadowGaussian" />
      <feComposite in2="shadowGaussian" operator="atop" in="SourceAlpha" result="shadowComposite" />
      <feColorMatrix type="matrix" values="0 0 0 0 0  0 0 0 0 0  0 0 0 0 0  0 0 0 0.349019607843137 0  " in="shadowComposite" />
    </filter>
    <g id="widget44">
      <path d="M -401.5 738.5  L -377.5 738.5  L -377.5 762.5  L -401.5 762.5  L -401.5 738.5  Z " fill-rule="nonzero" fill="#f0f0f0" stroke="none" />
      <path d="M -401.5 738.5  L -377.5 738.5  L -377.5 762.5  L -401.5 762.5  L -401.5 738.5  Z " stroke-width="1" stroke="#797979" fill="none" />
    </g>
  </defs>
  <use xlink:href="#widget44" filter="url(#filter43)" />
  <use xlink:href="#widget44" />
  <path d="M -396.642857142857 750.5  L -391.285714285714 755.857142857143  " stroke-width="5.35714285714286" stroke="#797979" fill="none" />
  <path d="M -391.285714285714 755.857142857143  L -382.357142857143 743.357142857143  " stroke-width="5.35714285714286" stroke="#797979" fill="none" />
</svg>