﻿<?xml version="1.0" encoding="utf-8"?>
<svg version="1.1" xmlns:xlink="http://www.w3.org/1999/xlink" width="35px" height="35px" viewBox="-1090 1056  35 35" xmlns="http://www.w3.org/2000/svg">
  <defs>
    <filter x="-1090px" y="1056px" width="35px" height="35px" filterUnits="userSpaceOnUse" id="filter51">
      <feOffset dx="5" dy="5" in="SourceAlpha" result="shadowOffsetInner" />
      <feGaussianBlur stdDeviation="2.5" in="shadowOffsetInner" result="shadowGaussian" />
      <feComposite in2="shadowGaussian" operator="atop" in="SourceAlpha" result="shadowComposite" />
      <feColorMatrix type="matrix" values="0 0 0 0 0  0 0 0 0 0  0 0 0 0 0  0 0 0 0.349019607843137 0  " in="shadowComposite" />
    </filter>
    <g id="widget52">
      <path d="M -1089.5 1056.5  L -1065.5 1056.5  L -1065.5 1080.5  L -1089.5 1080.5  L -1089.5 1056.5  Z " fill-rule="nonzero" fill="#f0f0f0" stroke="none" />
      <path d="M -1089.5 1056.5  L -1065.5 1056.5  L -1065.5 1080.5  L -1089.5 1080.5  L -1089.5 1056.5  Z " stroke-width="1" stroke="#797979" fill="none" />
    </g>
  </defs>
  <use xlink:href="#widget52" filter="url(#filter51)" />
  <use xlink:href="#widget52" />
  <path d="M -1084.64285714286 1068.5  L -1079.28571428571 1073.85714285714  " stroke-width="5.35714285714286" stroke="#797979" fill="none" />
  <path d="M -1079.28571428571 1073.85714285714  L -1070.35714285714 1061.35714285714  " stroke-width="5.35714285714286" stroke="#797979" fill="none" />
</svg>