﻿<?xml version="1.0" encoding="utf-8"?>
<svg version="1.1" xmlns:xlink="http://www.w3.org/1999/xlink" width="35px" height="35px" viewBox="-399 1056  35 35" xmlns="http://www.w3.org/2000/svg">
  <defs>
    <filter x="-399px" y="1056px" width="35px" height="35px" filterUnits="userSpaceOnUse" id="filter65">
      <feOffset dx="5" dy="5" in="SourceAlpha" result="shadowOffsetInner" />
      <feGaussianBlur stdDeviation="2.5" in="shadowOffsetInner" result="shadowGaussian" />
      <feComposite in2="shadowGaussian" operator="atop" in="SourceAlpha" result="shadowComposite" />
      <feColorMatrix type="matrix" values="0 0 0 0 0  0 0 0 0 0  0 0 0 0 0  0 0 0 0.349019607843137 0  " in="shadowComposite" />
    </filter>
    <g id="widget66">
      <path d="M -398.5 1056.5  L -374.5 1056.5  L -374.5 1080.5  L -398.5 1080.5  L -398.5 1056.5  Z " fill-rule="nonzero" fill="#f0f0f0" stroke="none" />
      <path d="M -398.5 1056.5  L -374.5 1056.5  L -374.5 1080.5  L -398.5 1080.5  L -398.5 1056.5  Z " stroke-width="1" stroke="#797979" fill="none" />
    </g>
  </defs>
  <use xlink:href="#widget66" filter="url(#filter65)" />
  <use xlink:href="#widget66" />
</svg>