﻿<?xml version="1.0" encoding="utf-8"?>
<svg version="1.1" xmlns:xlink="http://www.w3.org/1999/xlink" width="15px" height="14px" xmlns="http://www.w3.org/2000/svg">
  <g transform="matrix(1 0 0 1 -1242 -2097 )">
    <path d="M 1249.5 2097  C 1253.7 2097  1257 2100.08  1257 2104  C 1257 2107.92  1253.7 2111  1249.5 2111  C 1245.3 2111  1242 2107.92  1242 2104  C 1242 2100.08  1245.3 2097  1249.5 2097  Z " fill-rule="nonzero" fill="#ffffff" stroke="none" />
    <path d="M 1249.5 2097.5  C 1253.42 2097.5  1256.5 2100.36  1256.5 2104  C 1256.5 2107.64  1253.42 2110.5  1249.5 2110.5  C 1245.58 2110.5  1242.5 2107.64  1242.5 2104  C 1242.5 2100.36  1245.58 2097.5  1249.5 2097.5  Z " stroke-width="1" stroke="#797979" fill="none" />
  </g>
</svg>