﻿<?xml version="1.0" encoding="utf-8"?>
<svg version="1.1" xmlns:xlink="http://www.w3.org/1999/xlink" width="823px" height="567px" xmlns="http://www.w3.org/2000/svg">
  <g transform="matrix(1 0 0 1 -217 -275 )">
    <path d="M 217 275  L 1040 275  L 1040 842  L 217 842  L 217 275  " fill-rule="nonzero" fill="#cccccc" stroke="none" />
    <path d="M 257 315  L 1000 315  L 1000 802  L 257 802  L 257 315  " fill-rule="nonzero" fill="#ffffff" stroke="none" />
    <path d="M 687.485 445.1  C 663.671 445.1  644.96 426.389  644.96 402.575  C 644.96 378.761  663.671 360.05  687.485 360.05  C 711.299 360.05  730.01 378.761  730.01 402.575  C 730.01 426.389  711.299 445.1  687.485 445.1  " fill-rule="nonzero" fill="#cccccc" stroke="none" />
    <path d="M 271 788  L 271 535.55  L 449.75 420.8  L 700 598.265127582017  L 843 489.65  L 986 598.265127582017  L 986 788  L 271 788  " fill-rule="nonzero" fill="#169bd5" stroke="none" />
  </g>
</svg>