﻿<?xml version="1.0" encoding="utf-8"?>
<svg version="1.1" xmlns:xlink="http://www.w3.org/1999/xlink" width="20px" height="20px" xmlns="http://www.w3.org/2000/svg">
  <defs>
    <mask fill="white" id="clip165">
      <path d="M 4.61538461538462 15  L 4.61538461538462 18  L 15.3846153846154 18  L 15.3846153846154 15  L 4.61538461538462 15  Z M 4.61538461538462 1.66666666666667  L 4.61538461538462 10  L 15.3846153846154 10  L 15.3846153846154 5  L 13.4615384615385 5  C 13.1410256410256 5  12.8685897435897 4.87847222222222  12.6442307692308 4.63541666666667  C 12.4198717948718 4.39236111111111  12.3076923076923 4.09722222222222  12.3076923076923 3.75  L 12.3076923076923 1.66666666666667  L 4.61538461538462 1.66666666666667  Z M 18.2331730769231 11.4192708333333  C 18.3854166666667 11.2543402777778  18.4615384615385 11.0590277777778  18.4615384615385 10.8333333333333  C 18.4615384615385 10.6076388888889  18.3854166666667 10.4123263888889  18.2331730769231 10.2473958333333  C 18.0809294871795 10.0824652777778  17.900641025641 10  17.6923076923077 10  C 17.4839743589744 10  17.3036858974359 10.0824652777778  17.1514423076923 10.2473958333333  C 16.9991987179487 10.4123263888889  16.9230769230769 10.6076388888889  16.9230769230769 10.8333333333333  C 16.9230769230769 11.0590277777778  16.9991987179487 11.2543402777778  17.1514423076923 11.4192708333333  C 17.3036858974359 11.5842013888889  17.4839743589744 11.6666666666667  17.6923076923077 11.6666666666667  C 17.900641025641 11.6666666666667  18.0809294871795 11.5842013888889  18.2331730769231 11.4192708333333  Z M 19.3209134615385 9.06901041666667  C 19.7736378205128 9.55946180555556  20 10.1475694444444  20 10.8333333333333  L 20 16.25  C 20 16.3628472222222  19.9619391025641 16.4605034722222  19.8858173076923 16.54296875  C 19.8096955128205 16.6254340277778  19.7195512820513 16.6666666666667  19.6153846153846 16.6666666666667  L 16.9230769230769 16.6666666666667  L 16.9230769230769 18.75  C 16.9230769230769 19.0972222222222  16.8108974358974 19.3923611111111  16.5865384615385 19.6354166666667  C 16.3621794871795 19.8784722222222  16.0897435897436 20  15.7692307692308 20  L 4.23076923076923 20  C 3.91025641025641 20  3.63782051282051 19.8784722222222  3.41346153846154 19.6354166666667  C 3.18910256410256 19.3923611111111  3.07692307692308 19.0972222222222  3.07692307692308 18.75  L 3.07692307692308 16.6666666666667  L 0.384615384615385 16.6666666666667  C 0.280448717948718 16.6666666666667  0.190304487179487 16.6254340277778  0.114182692307692 16.54296875  C 0.0380608974358974 16.4605034722222  0 16.3628472222222  0 16.25  L 0 10.8333333333333  C 0 10.1475694444444  0.226362179487179 9.55946180555556  0.679086538461538 9.06901041666667  C 1.1318108974359 8.57855902777778  1.67467948717949 8.33333333333333  2.30769230769231 8.33333333333333  L 3.07692307692308 8.33333333333333  L 3.07692307692308 1.25  C 3.07692307692308 0.902777777777777  3.18910256410256 0.607638888888886  3.41346153846154 0.364583333333333  C 3.63782051282051 0.121527777777777  3.91025641025641 0  4.23076923076923 0  L 12.3076923076923 0  C 12.6282051282051 0  12.9807692307692 0.0868055555555536  13.3653846153846 0.260416666666667  C 13.75 0.434027777777777  14.0544871794872 0.642361111111109  14.2788461538462 0.885416666666667  L 16.1057692307692 2.86458333333333  C 16.3301282051282 3.10763888888889  16.5224358974359 3.4375  16.6826923076923 3.85416666666667  C 16.8429487179487 4.27083333333333  16.9230769230769 4.65277777777778  16.9230769230769 5  L 16.9230769230769 8.33333333333333  L 17.6923076923077 8.33333333333333  C 18.3253205128205 8.33333333333333  18.8681891025641 8.57855902777778  19.3209134615385 9.06901041666667  Z " fill-rule="evenodd" />
    </mask>
  </defs>
  <g transform="matrix(1 0 0 1 -1293 -119 )">
    <path d="M 4.61538461538462 15  L 4.61538461538462 18  L 15.3846153846154 18  L 15.3846153846154 15  L 4.61538461538462 15  Z M 4.61538461538462 1.66666666666667  L 4.61538461538462 10  L 15.3846153846154 10  L 15.3846153846154 5  L 13.4615384615385 5  C 13.1410256410256 5  12.8685897435897 4.87847222222222  12.6442307692308 4.63541666666667  C 12.4198717948718 4.39236111111111  12.3076923076923 4.09722222222222  12.3076923076923 3.75  L 12.3076923076923 1.66666666666667  L 4.61538461538462 1.66666666666667  Z M 18.2331730769231 11.4192708333333  C 18.3854166666667 11.2543402777778  18.4615384615385 11.0590277777778  18.4615384615385 10.8333333333333  C 18.4615384615385 10.6076388888889  18.3854166666667 10.4123263888889  18.2331730769231 10.2473958333333  C 18.0809294871795 10.0824652777778  17.900641025641 10  17.6923076923077 10  C 17.4839743589744 10  17.3036858974359 10.0824652777778  17.1514423076923 10.2473958333333  C 16.9991987179487 10.4123263888889  16.9230769230769 10.6076388888889  16.9230769230769 10.8333333333333  C 16.9230769230769 11.0590277777778  16.9991987179487 11.2543402777778  17.1514423076923 11.4192708333333  C 17.3036858974359 11.5842013888889  17.4839743589744 11.6666666666667  17.6923076923077 11.6666666666667  C 17.900641025641 11.6666666666667  18.0809294871795 11.5842013888889  18.2331730769231 11.4192708333333  Z M 19.3209134615385 9.06901041666667  C 19.7736378205128 9.55946180555556  20 10.1475694444444  20 10.8333333333333  L 20 16.25  C 20 16.3628472222222  19.9619391025641 16.4605034722222  19.8858173076923 16.54296875  C 19.8096955128205 16.6254340277778  19.7195512820513 16.6666666666667  19.6153846153846 16.6666666666667  L 16.9230769230769 16.6666666666667  L 16.9230769230769 18.75  C 16.9230769230769 19.0972222222222  16.8108974358974 19.3923611111111  16.5865384615385 19.6354166666667  C 16.3621794871795 19.8784722222222  16.0897435897436 20  15.7692307692308 20  L 4.23076923076923 20  C 3.91025641025641 20  3.63782051282051 19.8784722222222  3.41346153846154 19.6354166666667  C 3.18910256410256 19.3923611111111  3.07692307692308 19.0972222222222  3.07692307692308 18.75  L 3.07692307692308 16.6666666666667  L 0.384615384615385 16.6666666666667  C 0.280448717948718 16.6666666666667  0.190304487179487 16.6254340277778  0.114182692307692 16.54296875  C 0.0380608974358974 16.4605034722222  0 16.3628472222222  0 16.25  L 0 10.8333333333333  C 0 10.1475694444444  0.226362179487179 9.55946180555556  0.679086538461538 9.06901041666667  C 1.1318108974359 8.57855902777778  1.67467948717949 8.33333333333333  2.30769230769231 8.33333333333333  L 3.07692307692308 8.33333333333333  L 3.07692307692308 1.25  C 3.07692307692308 0.902777777777777  3.18910256410256 0.607638888888886  3.41346153846154 0.364583333333333  C 3.63782051282051 0.121527777777777  3.91025641025641 0  4.23076923076923 0  L 12.3076923076923 0  C 12.6282051282051 0  12.9807692307692 0.0868055555555536  13.3653846153846 0.260416666666667  C 13.75 0.434027777777777  14.0544871794872 0.642361111111109  14.2788461538462 0.885416666666667  L 16.1057692307692 2.86458333333333  C 16.3301282051282 3.10763888888889  16.5224358974359 3.4375  16.6826923076923 3.85416666666667  C 16.8429487179487 4.27083333333333  16.9230769230769 4.65277777777778  16.9230769230769 5  L 16.9230769230769 8.33333333333333  L 17.6923076923077 8.33333333333333  C 18.3253205128205 8.33333333333333  18.8681891025641 8.57855902777778  19.3209134615385 9.06901041666667  Z " fill-rule="nonzero" fill="#000000" stroke="none" fill-opacity="0" transform="matrix(1 0 0 1 1293 119 )" />
    <path d="M 4.61538461538462 15  L 4.61538461538462 18  L 15.3846153846154 18  L 15.3846153846154 15  L 4.61538461538462 15  Z " stroke-width="2" stroke="#047157" fill="none" transform="matrix(1 0 0 1 1293 119 )" mask="url(#clip165)" />
    <path d="M 4.61538461538462 1.66666666666667  L 4.61538461538462 10  L 15.3846153846154 10  L 15.3846153846154 5  L 13.4615384615385 5  C 13.1410256410256 5  12.8685897435897 4.87847222222222  12.6442307692308 4.63541666666667  C 12.4198717948718 4.39236111111111  12.3076923076923 4.09722222222222  12.3076923076923 3.75  L 12.3076923076923 1.66666666666667  L 4.61538461538462 1.66666666666667  Z " stroke-width="2" stroke="#047157" fill="none" transform="matrix(1 0 0 1 1293 119 )" mask="url(#clip165)" />
    <path d="M 18.2331730769231 11.4192708333333  C 18.3854166666667 11.2543402777778  18.4615384615385 11.0590277777778  18.4615384615385 10.8333333333333  C 18.4615384615385 10.6076388888889  18.3854166666667 10.4123263888889  18.2331730769231 10.2473958333333  C 18.0809294871795 10.0824652777778  17.900641025641 10  17.6923076923077 10  C 17.4839743589744 10  17.3036858974359 10.0824652777778  17.1514423076923 10.2473958333333  C 16.9991987179487 10.4123263888889  16.9230769230769 10.6076388888889  16.9230769230769 10.8333333333333  C 16.9230769230769 11.0590277777778  16.9991987179487 11.2543402777778  17.1514423076923 11.4192708333333  C 17.3036858974359 11.5842013888889  17.4839743589744 11.6666666666667  17.6923076923077 11.6666666666667  C 17.900641025641 11.6666666666667  18.0809294871795 11.5842013888889  18.2331730769231 11.4192708333333  Z " stroke-width="2" stroke="#047157" fill="none" transform="matrix(1 0 0 1 1293 119 )" mask="url(#clip165)" />
    <path d="M 19.3209134615385 9.06901041666667  C 19.7736378205128 9.55946180555556  20 10.1475694444444  20 10.8333333333333  L 20 16.25  C 20 16.3628472222222  19.9619391025641 16.4605034722222  19.8858173076923 16.54296875  C 19.8096955128205 16.6254340277778  19.7195512820513 16.6666666666667  19.6153846153846 16.6666666666667  L 16.9230769230769 16.6666666666667  L 16.9230769230769 18.75  C 16.9230769230769 19.0972222222222  16.8108974358974 19.3923611111111  16.5865384615385 19.6354166666667  C 16.3621794871795 19.8784722222222  16.0897435897436 20  15.7692307692308 20  L 4.23076923076923 20  C 3.91025641025641 20  3.63782051282051 19.8784722222222  3.41346153846154 19.6354166666667  C 3.18910256410256 19.3923611111111  3.07692307692308 19.0972222222222  3.07692307692308 18.75  L 3.07692307692308 16.6666666666667  L 0.384615384615385 16.6666666666667  C 0.280448717948718 16.6666666666667  0.190304487179487 16.6254340277778  0.114182692307692 16.54296875  C 0.0380608974358974 16.4605034722222  0 16.3628472222222  0 16.25  L 0 10.8333333333333  C 0 10.1475694444444  0.226362179487179 9.55946180555556  0.679086538461538 9.06901041666667  C 1.1318108974359 8.57855902777778  1.67467948717949 8.33333333333333  2.30769230769231 8.33333333333333  L 3.07692307692308 8.33333333333333  L 3.07692307692308 1.25  C 3.07692307692308 0.902777777777777  3.18910256410256 0.607638888888886  3.41346153846154 0.364583333333333  C 3.63782051282051 0.121527777777777  3.91025641025641 0  4.23076923076923 0  L 12.3076923076923 0  C 12.6282051282051 0  12.9807692307692 0.0868055555555536  13.3653846153846 0.260416666666667  C 13.75 0.434027777777777  14.0544871794872 0.642361111111109  14.2788461538462 0.885416666666667  L 16.1057692307692 2.86458333333333  C 16.3301282051282 3.10763888888889  16.5224358974359 3.4375  16.6826923076923 3.85416666666667  C 16.8429487179487 4.27083333333333  16.9230769230769 4.65277777777778  16.9230769230769 5  L 16.9230769230769 8.33333333333333  L 17.6923076923077 8.33333333333333  C 18.3253205128205 8.33333333333333  18.8681891025641 8.57855902777778  19.3209134615385 9.06901041666667  Z " stroke-width="2" stroke="#047157" fill="none" transform="matrix(1 0 0 1 1293 119 )" mask="url(#clip165)" />
  </g>
</svg>