﻿<?xml version="1.0" encoding="utf-8"?>
<svg version="1.1" xmlns:xlink="http://www.w3.org/1999/xlink" width="16px" height="16px" viewBox="794 675  16 16" xmlns="http://www.w3.org/2000/svg">
  <path d="M 802 675  C 806.48 675  810 678.52  810 683  C 810 687.48  806.48 691  802 691  C 797.52 691  794 687.48  794 683  C 794 678.52  797.52 675  802 675  Z " fill-rule="nonzero" fill="#f0f0f0" stroke="none" />
  <path d="M 802 675.5  C 806.2 675.5  809.5 678.8  809.5 683  C 809.5 687.2  806.2 690.5  802 690.5  C 797.8 690.5  794.5 687.2  794.5 683  C 794.5 678.8  797.8 675.5  802 675.5  Z " stroke-width="1" stroke="#797979" fill="none" />
</svg>