﻿<?xml version="1.0" encoding="utf-8"?>
<svg version="1.1" xmlns:xlink="http://www.w3.org/1999/xlink" width="1153px" height="2px" xmlns="http://www.w3.org/2000/svg">
  <g transform="matrix(1 0 0 1 -225 -2075 )">
    <path d="M 225 2075.5  L 1377 2075.5  " stroke-width="1" stroke="#797979" fill="none" />
  </g>
</svg>