﻿<?xml version="1.0" encoding="utf-8"?>
<svg version="1.1" xmlns:xlink="http://www.w3.org/1999/xlink" width="12px" height="12px" viewBox="1048 119.5  12 12" xmlns="http://www.w3.org/2000/svg">
  <path d="M 1054 119.5  C 1057.36 119.5  1060 122.14  1060 125.5  C 1060 128.86  1057.36 131.5  1054 131.5  C 1050.64 131.5  1048 128.86  1048 125.5  C 1048 122.14  1050.64 119.5  1054 119.5  Z " fill-rule="nonzero" fill="#f0f0f0" stroke="none" />
  <path d="M 1054 120  C 1057.08 120  1059.5 122.42  1059.5 125.5  C 1059.5 128.58  1057.08 131  1054 131  C 1050.92 131  1048.5 128.58  1048.5 125.5  C 1048.5 122.42  1050.92 120  1054 120  Z " stroke-width="1" stroke="#797979" fill="none" />
</svg>