﻿<?xml version="1.0" encoding="utf-8"?>
<svg version="1.1" xmlns:xlink="http://www.w3.org/1999/xlink" width="12px" height="12px" viewBox="759 119.5  12 12" xmlns="http://www.w3.org/2000/svg">
  <path d="M 765 119.5  C 768.36 119.5  771 122.14  771 125.5  C 771 128.86  768.36 131.5  765 131.5  C 761.64 131.5  759 128.86  759 125.5  C 759 122.14  761.64 119.5  765 119.5  Z " fill-rule="nonzero" fill="#ffffff" stroke="none" />
  <path d="M 765 120  C 768.08 120  770.5 122.42  770.5 125.5  C 770.5 128.58  768.08 131  765 131  C 761.92 131  759.5 128.58  759.5 125.5  C 759.5 122.42  761.92 120  765 120  Z " stroke-width="1" stroke="#797979" fill="none" />
</svg>