﻿<?xml version="1.0" encoding="utf-8"?>
<svg version="1.1" xmlns:xlink="http://www.w3.org/1999/xlink" width="12px" height="12px" viewBox="998 23  12 12" xmlns="http://www.w3.org/2000/svg">
  <path d="M 1004 23  C 1007.36 23  1010 25.64  1010 29  C 1010 32.36  1007.36 35  1004 35  C 1000.64 35  998 32.36  998 29  C 998 25.64  1000.64 23  1004 23  Z " fill-rule="nonzero" fill="#f0f0f0" stroke="none" />
  <path d="M 1004 23.5  C 1007.08 23.5  1009.5 25.92  1009.5 29  C 1009.5 32.08  1007.08 34.5  1004 34.5  C 1000.92 34.5  998.5 32.08  998.5 29  C 998.5 25.92  1000.92 23.5  1004 23.5  Z " stroke-width="1" stroke="#797979" fill="none" />
</svg>