﻿<?xml version="1.0" encoding="utf-8"?>
<svg version="1.1" xmlns:xlink="http://www.w3.org/1999/xlink" width="12px" height="12px" viewBox="831 23  12 12" xmlns="http://www.w3.org/2000/svg">
  <path d="M 837 23  C 840.36 23  843 25.64  843 29  C 843 32.36  840.36 35  837 35  C 833.64 35  831 32.36  831 29  C 831 25.64  833.64 23  837 23  Z " fill-rule="nonzero" fill="#f0f0f0" stroke="none" />
  <path d="M 837 23.5  C 840.08 23.5  842.5 25.92  842.5 29  C 842.5 32.08  840.08 34.5  837 34.5  C 833.92 34.5  831.5 32.08  831.5 29  C 831.5 25.92  833.92 23.5  837 23.5  Z " stroke-width="1" stroke="#797979" fill="none" />
  <path d="M 837 32  C 835.32 32  834 30.68  834 29  C 834 27.32  835.32 26  837 26  C 838.68 26  840 27.32  840 29  C 840 30.68  838.68 32  837 32  " fill-rule="nonzero" fill="#797979" stroke="none" />
</svg>