﻿<?xml version="1.0" encoding="utf-8"?>
<svg version="1.1" xmlns:xlink="http://www.w3.org/1999/xlink" width="35px" height="35px" viewBox="-755 738  35 35" xmlns="http://www.w3.org/2000/svg">
  <defs>
    <filter x="-755px" y="738px" width="35px" height="35px" filterUnits="userSpaceOnUse" id="filter178">
      <feOffset dx="5" dy="5" in="SourceAlpha" result="shadowOffsetInner" />
      <feGaussianBlur stdDeviation="2.5" in="shadowOffsetInner" result="shadowGaussian" />
      <feComposite in2="shadowGaussian" operator="atop" in="SourceAlpha" result="shadowComposite" />
      <feColorMatrix type="matrix" values="0 0 0 0 0  0 0 0 0 0  0 0 0 0 0  0 0 0 0.349019607843137 0  " in="shadowComposite" />
    </filter>
    <g id="widget179">
      <path d="M -754.5 738.5  L -730.5 738.5  L -730.5 762.5  L -754.5 762.5  L -754.5 738.5  Z " fill-rule="nonzero" fill="#ffffff" stroke="none" />
      <path d="M -754.5 738.5  L -730.5 738.5  L -730.5 762.5  L -754.5 762.5  L -754.5 738.5  Z " stroke-width="1" stroke="#797979" fill="none" />
    </g>
  </defs>
  <use xlink:href="#widget179" filter="url(#filter178)" />
  <use xlink:href="#widget179" />
</svg>