﻿<?xml version="1.0" encoding="utf-8"?>
<svg version="1.1" xmlns:xlink="http://www.w3.org/1999/xlink" width="20px" height="20px" viewBox="-464 448  20 20" xmlns="http://www.w3.org/2000/svg">
  <path d="M -463.5 448.5  L -444.5 448.5  L -444.5 467.5  L -463.5 467.5  L -463.5 448.5  Z " fill-rule="nonzero" fill="#f0f0f0" stroke="none" />
  <path d="M -463.5 448.5  L -444.5 448.5  L -444.5 467.5  L -463.5 467.5  L -463.5 448.5  Z " stroke-width="1" stroke="#797979" fill="none" />
  <path d="M -459.714285714286 458  L -455.428571428571 462.285714285714  " stroke-width="4.28571428571429" stroke="#797979" fill="none" />
  <path d="M -455.428571428571 462.285714285714  L -448.285714285714 452.285714285714  " stroke-width="4.28571428571429" stroke="#797979" fill="none" />
</svg>