﻿<?xml version="1.0" encoding="utf-8"?>
<svg version="1.1" xmlns:xlink="http://www.w3.org/1999/xlink" width="12px" height="12px" viewBox="355 804  12 12" xmlns="http://www.w3.org/2000/svg">
  <path d="M 355.5 804.5  L 366.5 804.5  L 366.5 815.5  L 355.5 815.5  L 355.5 804.5  Z " fill-rule="nonzero" fill="#f0f0f0" stroke="none" />
  <path d="M 355.5 804.5  L 366.5 804.5  L 366.5 815.5  L 355.5 815.5  L 355.5 804.5  Z " stroke-width="1" stroke="#797979" fill="none" />
  <path d="M 357.571428571429 810  L 360.142857142857 812.571428571429  " stroke-width="2.57142857142857" stroke="#797979" fill="none" />
  <path d="M 360.142857142857 812.571428571429  L 364.428571428571 806.571428571429  " stroke-width="2.57142857142857" stroke="#797979" fill="none" />
</svg>