﻿<?xml version="1.0" encoding="utf-8"?>
<svg version="1.1" xmlns:xlink="http://www.w3.org/1999/xlink" width="12px" height="12px" viewBox="772 804  12 12" xmlns="http://www.w3.org/2000/svg">
  <path d="M 772.5 804.5  L 783.5 804.5  L 783.5 815.5  L 772.5 815.5  L 772.5 804.5  Z " fill-rule="nonzero" fill="#ffffff" stroke="none" />
  <path d="M 772.5 804.5  L 783.5 804.5  L 783.5 815.5  L 772.5 815.5  L 772.5 804.5  Z " stroke-width="1" stroke="#797979" fill="none" />
  <path d="M 774.571428571429 810  L 777.142857142857 812.571428571429  " stroke-width="2.57142857142857" stroke="#797979" fill="none" />
  <path d="M 777.142857142857 812.571428571429  L 781.428571428571 806.571428571429  " stroke-width="2.57142857142857" stroke="#797979" fill="none" />
</svg>