﻿<?xml version="1.0" encoding="utf-8"?>
<svg version="1.1" xmlns:xlink="http://www.w3.org/1999/xlink" width="150px" height="47px" xmlns="http://www.w3.org/2000/svg">
  <defs>
    <filter x="1237px" y="210px" width="150px" height="47px" filterUnits="userSpaceOnUse" id="filter74">
      <feOffset dx="2" dy="2" in="SourceAlpha" result="shadowOffsetInner" />
      <feGaussianBlur stdDeviation="1" in="shadowOffsetInner" result="shadowGaussian" />
      <feComposite in2="shadowGaussian" operator="atop" in="SourceAlpha" result="shadowComposite" />
      <feColorMatrix type="matrix" values="0 0 0 0 0  0 0 0 0 0  0 0 0 0 0  0 0 0 0.349019607843137 0  " in="shadowComposite" />
    </filter>
    <g id="widget75">
      <path d="M 1237 231.5  A 21.5 21.5 0 0 1 1258.5 210 L 1361.5 210  A 21.5 21.5 0 0 1 1383 231.5 A 21.5 21.5 0 0 1 1361.5 253 L 1258.5 253  A 21.5 21.5 0 0 1 1237 231.5 Z " fill-rule="nonzero" fill="#047157" stroke="none" fill-opacity="0.670588235294118" />
    </g>
  </defs>
  <g transform="matrix(1 0 0 1 -1237 -210 )">
    <use xlink:href="#widget75" filter="url(#filter74)" />
    <use xlink:href="#widget75" />
  </g>
</svg>