﻿<?xml version="1.0" encoding="utf-8"?>
<svg version="1.1" xmlns:xlink="http://www.w3.org/1999/xlink" width="35px" height="35px" viewBox="429 200  35 35" xmlns="http://www.w3.org/2000/svg">
  <defs>
    <filter x="429px" y="200px" width="35px" height="35px" filterUnits="userSpaceOnUse" id="filter94">
      <feOffset dx="5" dy="5" in="SourceAlpha" result="shadowOffsetInner" />
      <feGaussianBlur stdDeviation="2.5" in="shadowOffsetInner" result="shadowGaussian" />
      <feComposite in2="shadowGaussian" operator="atop" in="SourceAlpha" result="shadowComposite" />
      <feColorMatrix type="matrix" values="0 0 0 0 0  0 0 0 0 0  0 0 0 0 0  0 0 0 0.349019607843137 0  " in="shadowComposite" />
    </filter>
    <g id="widget95">
      <path d="M 429.5 200.5  L 453.5 200.5  L 453.5 224.5  L 429.5 224.5  L 429.5 200.5  Z " fill-rule="nonzero" fill="#f0f0f0" stroke="none" />
      <path d="M 429.5 200.5  L 453.5 200.5  L 453.5 224.5  L 429.5 224.5  L 429.5 200.5  Z " stroke-width="1" stroke="#797979" fill="none" />
    </g>
  </defs>
  <use xlink:href="#widget95" filter="url(#filter94)" />
  <use xlink:href="#widget95" />
  <path d="M 434.357142857143 212.5  L 439.714285714286 217.857142857143  " stroke-width="5.35714285714286" stroke="#797979" fill="none" />
  <path d="M 439.714285714286 217.857142857143  L 448.642857142857 205.357142857143  " stroke-width="5.35714285714286" stroke="#797979" fill="none" />
</svg>