﻿<?xml version="1.0" encoding="utf-8"?>
<svg version="1.1" xmlns:xlink="http://www.w3.org/1999/xlink" width="20px" height="20px" viewBox="588 468  20 20" xmlns="http://www.w3.org/2000/svg">
  <path d="M 588.5 468.5  L 607.5 468.5  L 607.5 487.5  L 588.5 487.5  L 588.5 468.5  Z " fill-rule="nonzero" fill="#ffffff" stroke="none" />
  <path d="M 588.5 468.5  L 607.5 468.5  L 607.5 487.5  L 588.5 487.5  L 588.5 468.5  Z " stroke-width="1" stroke="#797979" fill="none" />
  <path d="M 592.285714285714 478  L 596.571428571429 482.285714285714  " stroke-width="4.28571428571429" stroke="#797979" fill="none" />
  <path d="M 596.571428571429 482.285714285714  L 603.714285714286 472.285714285714  " stroke-width="4.28571428571429" stroke="#797979" fill="none" />
</svg>