﻿<?xml version="1.0" encoding="utf-8"?>
<svg version="1.1" xmlns:xlink="http://www.w3.org/1999/xlink" width="510px" height="613px" xmlns="http://www.w3.org/2000/svg">
  <g transform="matrix(1 0 0 1 -312 -454 )">
    <path d="M 312 454  L 822 454  L 822 1067  L 312 1067  L 312 454  " fill-rule="nonzero" fill="#cccccc" stroke="none" />
    <path d="M 348 490  L 786 490  L 786 1031  L 348 1031  L 348 490  " fill-rule="nonzero" fill="#ffffff" stroke="none" />
    <path d="M 615.45 622.45  C 594.03 622.45  577.2 605.62  577.2 584.2  C 577.2 562.78  594.03 545.95  615.45 545.95  C 636.87 545.95  653.7 562.78  653.7 584.2  C 653.7 605.62  636.87 622.45  615.45 622.45  " fill-rule="nonzero" fill="#cccccc" stroke="none" />
    <path d="M 361 1018  L 361 734.75  L 464 606  L 608.2 709  L 690.6 683.25  L 773 709  L 773 1018  L 361 1018  " fill-rule="nonzero" fill="#169bd5" stroke="none" />
  </g>
</svg>