﻿<?xml version="1.0" encoding="utf-8"?>
<svg version="1.1" xmlns:xlink="http://www.w3.org/1999/xlink" width="1001px" height="2px" xmlns="http://www.w3.org/2000/svg">
  <g transform="matrix(1 0 0 1 -308 -448 )">
    <path d="M 308 448.5  L 1308 448.5  " stroke-width="1" stroke-dasharray="9,4" stroke="#797979" fill="none" />
  </g>
</svg>