﻿<?xml version="1.0" encoding="utf-8"?>
<svg version="1.1" xmlns:xlink="http://www.w3.org/1999/xlink" width="89px" height="68px" xmlns="http://www.w3.org/2000/svg">
  <defs>
    <mask fill="white" id="clip35">
      <path d="M 1393 191  L 1426 191  L 1426 239  L 1393 239  Z M 1364 180  L 1453 180  L 1453 248  L 1364 248  Z " fill-rule="evenodd" />
    </mask>
  </defs>
  <g transform="matrix(1 0 0 1 -1364 -180 )">
    <path d="M 1364.5 180.5  L 1452.5 180.5  L 1452.5 247.5  L 1364.5 247.5  L 1364.5 180.5  Z " fill-rule="nonzero" fill="#f2f2f2" stroke="none" />
    <path d="M 1364.5 180.5  L 1452.5 180.5  L 1452.5 247.5  L 1364.5 247.5  L 1364.5 180.5  Z " stroke-width="1" stroke="#797979" fill="none" />
    <path d="M 1364.52000290771 180.397305592408  L 1452.47999709229 247.602694407592  M 1452.47999709229 180.397305592408  L 1364.52000290771 247.602694407592  " stroke-width="1" stroke="#797979" fill="none" mask="url(#clip35)" />
  </g>
</svg>