﻿<?xml version="1.0" encoding="utf-8"?>
<svg version="1.1" xmlns:xlink="http://www.w3.org/1999/xlink" width="12px" height="12px" viewBox="775 612  12 12" xmlns="http://www.w3.org/2000/svg">
  <path d="M 775.5 612.5  L 786.5 612.5  L 786.5 623.5  L 775.5 623.5  L 775.5 612.5  Z " fill-rule="nonzero" fill="#ffffff" stroke="none" />
  <path d="M 775.5 612.5  L 786.5 612.5  L 786.5 623.5  L 775.5 623.5  L 775.5 612.5  Z " stroke-width="1" stroke="#797979" fill="none" />
  <path d="M 777.571428571429 618  L 780.142857142857 620.571428571429  " stroke-width="2.57142857142857" stroke="#797979" fill="none" />
  <path d="M 780.142857142857 620.571428571429  L 784.428571428571 614.571428571429  " stroke-width="2.57142857142857" stroke="#797979" fill="none" />
</svg>