﻿<?xml version="1.0" encoding="utf-8"?>
<svg version="1.1" xmlns:xlink="http://www.w3.org/1999/xlink" width="12px" height="12px" viewBox="942 612  12 12" xmlns="http://www.w3.org/2000/svg">
  <path d="M 942.5 612.5  L 953.5 612.5  L 953.5 623.5  L 942.5 623.5  L 942.5 612.5  Z " fill-rule="nonzero" fill="#ffffff" stroke="none" />
  <path d="M 942.5 612.5  L 953.5 612.5  L 953.5 623.5  L 942.5 623.5  L 942.5 612.5  Z " stroke-width="1" stroke="#797979" fill="none" />
  <path d="M 944.571428571429 618  L 947.142857142857 620.571428571429  " stroke-width="2.57142857142857" stroke="#797979" fill="none" />
  <path d="M 947.142857142857 620.571428571429  L 951.428571428571 614.571428571429  " stroke-width="2.57142857142857" stroke="#797979" fill="none" />
</svg>