﻿<?xml version="1.0" encoding="utf-8"?>
<svg version="1.1" xmlns:xlink="http://www.w3.org/1999/xlink" width="12px" height="12px" viewBox="379 287  12 12" xmlns="http://www.w3.org/2000/svg">
  <path d="M 385 287  C 388.36 287  391 289.64  391 293  C 391 296.36  388.36 299  385 299  C 381.64 299  379 296.36  379 293  C 379 289.64  381.64 287  385 287  Z " fill-rule="nonzero" fill="#ffffff" stroke="none" />
  <path d="M 385 287.5  C 388.08 287.5  390.5 289.92  390.5 293  C 390.5 296.08  388.08 298.5  385 298.5  C 381.92 298.5  379.5 296.08  379.5 293  C 379.5 289.92  381.92 287.5  385 287.5  Z " stroke-width="1" stroke="#797979" fill="none" />
  <path d="M 385 296  C 383.32 296  382 294.68  382 293  C 382 291.32  383.32 290  385 290  C 386.68 290  388 291.32  388 293  C 388 294.68  386.68 296  385 296  " fill-rule="nonzero" fill="#797979" stroke="none" />
</svg>