﻿<?xml version="1.0" encoding="utf-8"?>
<svg version="1.1" xmlns:xlink="http://www.w3.org/1999/xlink" width="12px" height="12px" viewBox="437 287  12 12" xmlns="http://www.w3.org/2000/svg">
  <path d="M 443 287  C 446.36 287  449 289.64  449 293  C 449 296.36  446.36 299  443 299  C 439.64 299  437 296.36  437 293  C 437 289.64  439.64 287  443 287  Z " fill-rule="nonzero" fill="#f0f0f0" stroke="none" />
  <path d="M 443 287.5  C 446.08 287.5  448.5 289.92  448.5 293  C 448.5 296.08  446.08 298.5  443 298.5  C 439.92 298.5  437.5 296.08  437.5 293  C 437.5 289.92  439.92 287.5  443 287.5  Z " stroke-width="1" stroke="#797979" fill="none" />
  <path d="M 443 296  C 441.32 296  440 294.68  440 293  C 440 291.32  441.32 290  443 290  C 444.68 290  446 291.32  446 293  C 446 294.68  444.68 296  443 296  " fill-rule="nonzero" fill="#797979" stroke="none" />
</svg>