﻿<?xml version="1.0" encoding="utf-8"?>
<svg version="1.1" xmlns:xlink="http://www.w3.org/1999/xlink" width="44px" height="25px" viewBox="826 302  44 25" xmlns="http://www.w3.org/2000/svg">
  <path d="M 828 304  L 868 304  L 868 325  L 828 325  L 828 304  Z " fill-rule="nonzero" fill="#ffffff" stroke="none" />
  <path d="M 827 303  L 869 303  L 869 326  L 827 326  L 827 303  Z " stroke-width="2" stroke="#047157" fill="none" stroke-opacity="0.670588235294118" />
</svg>