﻿<?xml version="1.0" encoding="utf-8"?>
<svg version="1.1" xmlns:xlink="http://www.w3.org/1999/xlink" width="300px" height="200px" xmlns="http://www.w3.org/2000/svg">
  <g transform="matrix(1 0 0 1 -297 -652 )">
    <path d="M 297 652  L 597 652  L 597 852  L 297 852  L 297 652  " fill-rule="nonzero" fill="#cccccc" stroke="none" />
    <path d="M 311 666  L 583 666  L 583 838  L 311 838  L 311 666  " fill-rule="nonzero" fill="#ffffff" stroke="none" />
    <path d="M 468 712  C 459.6 712  453 705.4  453 697  C 453 688.6  459.6 682  468 682  C 476.4 682  483 688.6  483 697  C 483 705.4  476.4 712  468 712  " fill-rule="nonzero" fill="#cccccc" stroke="none" />
    <path d="M 316 833  L 316 743.9  L 381.5 703.4  L 473.2 768.2  L 525.6 727.7  L 578 768.2  L 578 833  L 316 833  " fill-rule="nonzero" fill="#169bd5" stroke="none" />
  </g>
</svg>