﻿<?xml version="1.0" encoding="utf-8"?>
<svg version="1.1" xmlns:xlink="http://www.w3.org/1999/xlink" width="258px" height="127px" xmlns="http://www.w3.org/2000/svg">
  <defs>
    <mask fill="white" id="clip14">
      <path d="M 1145.5 1801  L 1296.5 1801  L 1296.5 1877  L 1145.5 1877  Z M 1091 1774  L 1349 1774  L 1349 1901  L 1091 1901  Z " fill-rule="evenodd" />
    </mask>
  </defs>
  <g transform="matrix(1 0 0 1 -1091 -1774 )">
    <path d="M 1091.5 1774.5  L 1348.5 1774.5  L 1348.5 1900.5  L 1091.5 1900.5  L 1091.5 1774.5  Z " fill-rule="nonzero" fill="#f2f2f2" stroke="none" />
    <path d="M 1091.5 1774.5  L 1348.5 1774.5  L 1348.5 1900.5  L 1091.5 1900.5  L 1091.5 1774.5  Z " stroke-width="1" stroke="#797979" fill="none" />
    <path d="M 1091.91132088107 1774.44859593758  L 1348.08867911893 1900.55140406242  M 1348.08867911893 1774.44859593758  L 1091.91132088107 1900.55140406242  " stroke-width="1" stroke="#797979" fill="none" mask="url(#clip14)" />
  </g>
</svg>