﻿<?xml version="1.0" encoding="utf-8"?>
<svg version="1.1" xmlns:xlink="http://www.w3.org/1999/xlink" width="89px" height="74px" xmlns="http://www.w3.org/2000/svg">
  <defs>
    <mask fill="white" id="clip18">
      <path d="M 1393 280  L 1426 280  L 1426 328  L 1393 328  Z M 1364 266  L 1453 266  L 1453 340  L 1364 340  Z " fill-rule="evenodd" />
    </mask>
  </defs>
  <g transform="matrix(1 0 0 1 -1364 -266 )">
    <path d="M 1364.5 266.5  L 1452.5 266.5  L 1452.5 339.5  L 1364.5 339.5  L 1364.5 266.5  Z " fill-rule="nonzero" fill="#f2f2f2" stroke="none" />
    <path d="M 1364.5 266.5  L 1452.5 266.5  L 1452.5 339.5  L 1364.5 339.5  L 1364.5 266.5  Z " stroke-width="1" stroke="#797979" fill="none" />
    <path d="M 1364.46239647985 266.384464488862  L 1452.53760352015 339.615535511138  M 1452.53760352015 266.384464488862  L 1364.46239647985 339.615535511138  " stroke-width="1" stroke="#797979" fill="none" mask="url(#clip18)" />
  </g>
</svg>