﻿<?xml version="1.0" encoding="utf-8"?>
<svg version="1.1" xmlns:xlink="http://www.w3.org/1999/xlink" width="12px" height="12px" viewBox="858 612  12 12" xmlns="http://www.w3.org/2000/svg">
  <path d="M 858.5 612.5  L 869.5 612.5  L 869.5 623.5  L 858.5 623.5  L 858.5 612.5  Z " fill-rule="nonzero" fill="#ffffff" stroke="none" />
  <path d="M 858.5 612.5  L 869.5 612.5  L 869.5 623.5  L 858.5 623.5  L 858.5 612.5  Z " stroke-width="1" stroke="#797979" fill="none" />
  <path d="M 860.571428571429 618  L 863.142857142857 620.571428571429  " stroke-width="2.57142857142857" stroke="#797979" fill="none" />
  <path d="M 863.142857142857 620.571428571429  L 867.428571428571 614.571428571429  " stroke-width="2.57142857142857" stroke="#797979" fill="none" />
</svg>