﻿<?xml version="1.0" encoding="utf-8"?>
<svg version="1.1" xmlns:xlink="http://www.w3.org/1999/xlink" width="12px" height="12px" viewBox="994 3127.5  12 12" xmlns="http://www.w3.org/2000/svg">
  <path d="M 1000 3127.5  C 1003.36 3127.5  1006 3130.14  1006 3133.5  C 1006 3136.86  1003.36 3139.5  1000 3139.5  C 996.64 3139.5  994 3136.86  994 3133.5  C 994 3130.14  996.64 3127.5  1000 3127.5  Z " fill-rule="nonzero" fill="#ffffff" stroke="none" />
  <path d="M 1000 3128  C 1003.08 3128  1005.5 3130.42  1005.5 3133.5  C 1005.5 3136.58  1003.08 3139  1000 3139  C 996.92 3139  994.5 3136.58  994.5 3133.5  C 994.5 3130.42  996.92 3128  1000 3128  Z " stroke-width="1" stroke="#797979" fill="none" />
  <path d="M 1000 3136.5  C 998.32 3136.5  997 3135.18  997 3133.5  C 997 3131.82  998.32 3130.5  1000 3130.5  C 1001.68 3130.5  1003 3131.82  1003 3133.5  C 1003 3135.18  1001.68 3136.5  1000 3136.5  " fill-rule="nonzero" fill="#797979" stroke="none" />
</svg>