﻿<?xml version="1.0" encoding="utf-8"?>
<svg version="1.1" xmlns:xlink="http://www.w3.org/1999/xlink" width="12px" height="12px" viewBox="1066 3032  12 12" xmlns="http://www.w3.org/2000/svg">
  <path d="M 1072 3032  C 1075.36 3032  1078 3034.64  1078 3038  C 1078 3041.36  1075.36 3044  1072 3044  C 1068.64 3044  1066 3041.36  1066 3038  C 1066 3034.64  1068.64 3032  1072 3032  Z " fill-rule="nonzero" fill="#ffffff" stroke="none" />
  <path d="M 1072 3032.5  C 1075.08 3032.5  1077.5 3034.92  1077.5 3038  C 1077.5 3041.08  1075.08 3043.5  1072 3043.5  C 1068.92 3043.5  1066.5 3041.08  1066.5 3038  C 1066.5 3034.92  1068.92 3032.5  1072 3032.5  Z " stroke-width="1" stroke="#797979" fill="none" />
</svg>