﻿<?xml version="1.0" encoding="utf-8"?>
<svg version="1.1" xmlns:xlink="http://www.w3.org/1999/xlink" width="1063px" height="5px" xmlns="http://www.w3.org/2000/svg">
  <g transform="matrix(1 0 0 1 -289 -856 )">
    <path d="M 290 858  L 1350 858  " stroke-width="2" stroke="#d7d4d4" fill="none" />
  </g>
</svg>