﻿<?xml version="1.0" encoding="utf-8"?>
<svg version="1.1" xmlns:xlink="http://www.w3.org/1999/xlink" width="259px" height="127px" xmlns="http://www.w3.org/2000/svg">
  <defs>
    <mask fill="white" id="clip20">
      <path d="M 765.875 1801  L 901.125 1801  L 901.125 1877  L 765.875 1877  Z M 703 1774  L 962 1774  L 962 1901  L 703 1901  Z " fill-rule="evenodd" />
    </mask>
  </defs>
  <g transform="matrix(1 0 0 1 -703 -1774 )">
    <path d="M 703.5 1774.5  L 961.5 1774.5  L 961.5 1900.5  L 703.5 1900.5  L 703.5 1774.5  Z " fill-rule="nonzero" fill="#f2f2f2" stroke="none" />
    <path d="M 703.5 1774.5  L 961.5 1774.5  L 961.5 1900.5  L 703.5 1900.5  L 703.5 1774.5  Z " stroke-width="1" stroke="#797979" fill="none" />
    <path d="M 703.915541532875 1774.44893349295  L 961.084458467125 1900.55106650705  M 961.084458467125 1774.44893349295  L 703.915541532875 1900.55106650705  " stroke-width="1" stroke="#797979" fill="none" mask="url(#clip20)" />
  </g>
</svg>