﻿<?xml version="1.0" encoding="utf-8"?>
<svg version="1.1" xmlns:xlink="http://www.w3.org/1999/xlink" width="12px" height="12px" viewBox="884 3032  12 12" xmlns="http://www.w3.org/2000/svg">
  <path d="M 890 3032  C 893.36 3032  896 3034.64  896 3038  C 896 3041.36  893.36 3044  890 3044  C 886.64 3044  884 3041.36  884 3038  C 884 3034.64  886.64 3032  890 3032  Z " fill-rule="nonzero" fill="#ffffff" stroke="none" />
  <path d="M 890 3032.5  C 893.08 3032.5  895.5 3034.92  895.5 3038  C 895.5 3041.08  893.08 3043.5  890 3043.5  C 886.92 3043.5  884.5 3041.08  884.5 3038  C 884.5 3034.92  886.92 3032.5  890 3032.5  Z " stroke-width="1" stroke="#797979" fill="none" />
  <path d="M 890 3041  C 888.32 3041  887 3039.68  887 3038  C 887 3036.32  888.32 3035  890 3035  C 891.68 3035  893 3036.32  893 3038  C 893 3039.68  891.68 3041  890 3041  " fill-rule="nonzero" fill="#797979" stroke="none" />
</svg>