﻿<?xml version="1.0" encoding="utf-8"?>
<svg version="1.1" xmlns:xlink="http://www.w3.org/1999/xlink" width="12px" height="12px" viewBox="1080 3127.5  12 12" xmlns="http://www.w3.org/2000/svg">
  <path d="M 1086 3127.5  C 1089.36 3127.5  1092 3130.14  1092 3133.5  C 1092 3136.86  1089.36 3139.5  1086 3139.5  C 1082.64 3139.5  1080 3136.86  1080 3133.5  C 1080 3130.14  1082.64 3127.5  1086 3127.5  Z " fill-rule="nonzero" fill="#f0f0f0" stroke="none" />
  <path d="M 1086 3128  C 1089.08 3128  1091.5 3130.42  1091.5 3133.5  C 1091.5 3136.58  1089.08 3139  1086 3139  C 1082.92 3139  1080.5 3136.58  1080.5 3133.5  C 1080.5 3130.42  1082.92 3128  1086 3128  Z " stroke-width="1" stroke="#797979" fill="none" />
  <path d="M 1086 3136.5  C 1084.32 3136.5  1083 3135.18  1083 3133.5  C 1083 3131.82  1084.32 3130.5  1086 3130.5  C 1087.68 3130.5  1089 3131.82  1089 3133.5  C 1089 3135.18  1087.68 3136.5  1086 3136.5  " fill-rule="nonzero" fill="#797979" stroke="none" />
</svg>