﻿<?xml version="1.0" encoding="utf-8"?>
<svg version="1.1" xmlns:xlink="http://www.w3.org/1999/xlink" width="12px" height="12px" viewBox="1283 3127.5  12 12" xmlns="http://www.w3.org/2000/svg">
  <path d="M 1289 3127.5  C 1292.36 3127.5  1295 3130.14  1295 3133.5  C 1295 3136.86  1292.36 3139.5  1289 3139.5  C 1285.64 3139.5  1283 3136.86  1283 3133.5  C 1283 3130.14  1285.64 3127.5  1289 3127.5  Z " fill-rule="nonzero" fill="#f0f0f0" stroke="none" />
  <path d="M 1289 3128  C 1292.08 3128  1294.5 3130.42  1294.5 3133.5  C 1294.5 3136.58  1292.08 3139  1289 3139  C 1285.92 3139  1283.5 3136.58  1283.5 3133.5  C 1283.5 3130.42  1285.92 3128  1289 3128  Z " stroke-width="1" stroke="#797979" fill="none" />
</svg>