﻿<?xml version="1.0" encoding="utf-8"?>
<svg version="1.1" xmlns:xlink="http://www.w3.org/1999/xlink" width="40px" height="40px" xmlns="http://www.w3.org/2000/svg">
  <defs>
    <linearGradient gradientUnits="userSpaceOnUse" x1="319" y1="1035" x2="319" y2="1065" id="LinearGradient2">
      <stop id="Stop3" stop-color="#ffffff" offset="0" />
      <stop id="Stop4" stop-color="#047157" stop-opacity="0.670588235294118" offset="0.07" />
      <stop id="Stop5" stop-color="#5c0b80" offset="1" />
    </linearGradient>
    <filter x="300px" y="1031px" width="40px" height="40px" filterUnits="userSpaceOnUse" id="filter6">
      <feOffset dx="1" dy="1" in="SourceAlpha" result="shadowOffsetInner" />
      <feGaussianBlur stdDeviation="2.5" in="shadowOffsetInner" result="shadowGaussian" />
      <feComposite in2="shadowGaussian" operator="atop" in="SourceAlpha" result="shadowComposite" />
      <feColorMatrix type="matrix" values="0 0 0 0 0  0 0 0 0 0  0 0 0 0 0  0 0 0 0.698039215686274 0  " in="shadowComposite" />
    </filter>
    <g id="widget7">
      <path d="M 319 1035  C 327.4 1035  334 1041.6  334 1050  C 334 1058.4  327.4 1065  319 1065  C 310.6 1065  304 1058.4  304 1050  C 304 1041.6  310.6 1035  319 1035  Z " fill-rule="nonzero" fill="url(#LinearGradient2)" stroke="none" />
      <path d="M 319 1035.5  C 327.12 1035.5  333.5 1041.88  333.5 1050  C 333.5 1058.12  327.12 1064.5  319 1064.5  C 310.88 1064.5  304.5 1058.12  304.5 1050  C 304.5 1041.88  310.88 1035.5  319 1035.5  Z " stroke-width="1" stroke="#ffffff" fill="none" />
    </g>
  </defs>
  <g transform="matrix(1 0 0 1 -300 -1031 )">
    <use xlink:href="#widget7" filter="url(#filter6)" />
    <use xlink:href="#widget7" />
  </g>
</svg>