﻿<?xml version="1.0" encoding="utf-8"?>
<svg version="1.1" xmlns:xlink="http://www.w3.org/1999/xlink" width="12px" height="12px" viewBox="583 247  12 12" xmlns="http://www.w3.org/2000/svg">
  <path d="M 583.5 247.5  L 594.5 247.5  L 594.5 258.5  L 583.5 258.5  L 583.5 247.5  Z " fill-rule="nonzero" fill="#ffffff" stroke="none" />
  <path d="M 583.5 247.5  L 594.5 247.5  L 594.5 258.5  L 583.5 258.5  L 583.5 247.5  Z " stroke-width="1" stroke="#797979" fill="none" />
  <path d="M 585.571428571429 253  L 588.142857142857 255.571428571429  " stroke-width="2.57142857142857" stroke="#797979" fill="none" />
  <path d="M 588.142857142857 255.571428571429  L 592.428571428571 249.571428571429  " stroke-width="2.57142857142857" stroke="#797979" fill="none" />
</svg>