﻿<?xml version="1.0" encoding="utf-8"?>
<svg version="1.1" xmlns:xlink="http://www.w3.org/1999/xlink" width="120px" height="100px" xmlns="http://www.w3.org/2000/svg">
  <g transform="matrix(1 0 0 1 -647 -174 )">
    <path d="M 647.58137767415 224  L 677.28137767415 174.5  L 736.71862232585 174.5  L 766.41862232585 224  L 736.71862232585 273.5  L 677.28137767415 273.5  L 647.58137767415 224  Z " fill-rule="nonzero" fill="#13b38d" stroke="none" fill-opacity="0" />
    <path d="M 647 224  L 677 174  L 737 174  L 767 224  L 737 274  L 677 274  L 647 224  Z M 677.5627553483 175  L 648.1627553483 224  L 677.5627553483 273  L 736.4372446517 273  L 765.8372446517 224  L 736.4372446517 175  L 677.5627553483 175  Z " fill-rule="nonzero" fill="#797979" stroke="none" />
  </g>
</svg>