﻿<?xml version="1.0" encoding="utf-8"?>
<svg version="1.1" xmlns:xlink="http://www.w3.org/1999/xlink" width="245px" height="144px" xmlns="http://www.w3.org/2000/svg">
  <defs>
    <filter x="609px" y="2352px" width="245px" height="144px" filterUnits="userSpaceOnUse" id="filter129">
      <feOffset dx="5" dy="5" in="SourceAlpha" result="shadowOffsetInner" />
      <feGaussianBlur stdDeviation="2.5" in="shadowOffsetInner" result="shadowGaussian" />
      <feComposite in2="shadowGaussian" operator="atop" in="SourceAlpha" result="shadowComposite" />
      <feColorMatrix type="matrix" values="0 0 0 0 0  0 0 0 0 0  0 0 0 0 0  0 0 0 0.349019607843137 0  " in="shadowComposite" />
    </filter>
    <g id="widget130">
      <path d="M 609 2352  L 844 2352  L 844 2486  L 609 2486  L 609 2352  " fill-rule="nonzero" fill="#cccccc" stroke="none" />
      <path d="M 618 2361  L 835 2361  L 835 2477  L 618 2477  L 618 2361  " fill-rule="nonzero" fill="#ffffff" stroke="none" />
      <path d="M 741.25 2392.2  C 735.622 2392.2  731.2 2387.778  731.2 2382.15  C 731.2 2376.522  735.622 2372.1  741.25 2372.1  C 746.878 2372.1  751.3 2376.522  751.3 2382.15  C 751.3 2387.778  746.878 2392.2  741.25 2392.2  " fill-rule="nonzero" fill="#cccccc" stroke="none" />
      <path d="M 622 2474  L 622 2414.05  L 674.5 2386.8  L 748 2436.70808510638  L 790 2403.15  L 832 2436.70808510638  L 832 2474  L 622 2474  " fill-rule="nonzero" fill="#169bd5" stroke="none" />
    </g>
  </defs>
  <g transform="matrix(1 0 0 1 -609 -2352 )">
    <use xlink:href="#widget130" filter="url(#filter129)" />
    <use xlink:href="#widget130" />
  </g>
</svg>