﻿<?xml version="1.0" encoding="utf-8"?>
<svg version="1.1" xmlns:xlink="http://www.w3.org/1999/xlink" width="101px" height="28px" xmlns="http://www.w3.org/2000/svg">
  <defs>
    <mask fill="white" id="clip131">
      <path d="M 0.5 27.5  L 50.7537313432836 1.06716417910448  L 100.5 27.5  L 0.5 27.5  Z " fill-rule="evenodd" />
    </mask>
  </defs>
  <g transform="matrix(1 0 0 1 -1348 -2442 )">
    <path d="M 0.5 27.5  L 50.7537313432836 1.06716417910448  L 100.5 27.5  L 0.5 27.5  Z " fill-rule="nonzero" fill="#ffffff" stroke="none" transform="matrix(1 0 0 1 1348 2442 )" />
    <path d="M 0.5 27.5  L 50.7537313432836 1.06716417910448  L 100.5 27.5  L 0.5 27.5  Z " stroke-width="2" stroke="#797979" fill="none" transform="matrix(1 0 0 1 1348 2442 )" mask="url(#clip131)" />
  </g>
</svg>