﻿<?xml version="1.0" encoding="utf-8"?>
<svg version="1.1" xmlns:xlink="http://www.w3.org/1999/xlink" width="20px" height="20px" viewBox="445 1356  20 20" xmlns="http://www.w3.org/2000/svg">
  <path d="M 455 1356  C 460.6 1356  465 1360.4  465 1366  C 465 1371.6  460.6 1376  455 1376  C 449.4 1376  445 1371.6  445 1366  C 445 1360.4  449.4 1356  455 1356  Z " fill-rule="nonzero" fill="#f0f0f0" stroke="none" />
  <path d="M 455 1356.5  C 460.32 1356.5  464.5 1360.68  464.5 1366  C 464.5 1371.32  460.32 1375.5  455 1375.5  C 449.68 1375.5  445.5 1371.32  445.5 1366  C 445.5 1360.68  449.68 1356.5  455 1356.5  Z " stroke-width="1" stroke="#797979" fill="none" />
</svg>