﻿<?xml version="1.0" encoding="utf-8"?>
<svg version="1.1" xmlns:xlink="http://www.w3.org/1999/xlink" width="20px" height="20px" viewBox="754 1443  20 20" xmlns="http://www.w3.org/2000/svg">
  <path d="M 764 1443  C 769.6 1443  774 1447.4  774 1453  C 774 1458.6  769.6 1463  764 1463  C 758.4 1463  754 1458.6  754 1453  C 754 1447.4  758.4 1443  764 1443  Z " fill-rule="nonzero" fill="#ffffff" stroke="none" />
  <path d="M 764 1443.5  C 769.32 1443.5  773.5 1447.68  773.5 1453  C 773.5 1458.32  769.32 1462.5  764 1462.5  C 758.68 1462.5  754.5 1458.32  754.5 1453  C 754.5 1447.68  758.68 1443.5  764 1443.5  Z " stroke-width="1" stroke="#797979" fill="none" />
  <path d="M 764 1458  C 761.2 1458  759 1455.8  759 1453  C 759 1450.2  761.2 1448  764 1448  C 766.8 1448  769 1450.2  769 1453  C 769 1455.8  766.8 1458  764 1458  " fill-rule="nonzero" fill="#797979" stroke="none" />
</svg>