﻿<?xml version="1.0" encoding="utf-8"?>
<svg version="1.1" xmlns:xlink="http://www.w3.org/1999/xlink" width="20px" height="20px" viewBox="908 1443  20 20" xmlns="http://www.w3.org/2000/svg">
  <path d="M 918 1443  C 923.6 1443  928 1447.4  928 1453  C 928 1458.6  923.6 1463  918 1463  C 912.4 1463  908 1458.6  908 1453  C 908 1447.4  912.4 1443  918 1443  Z " fill-rule="nonzero" fill="#ffffff" stroke="none" />
  <path d="M 918 1443.5  C 923.32 1443.5  927.5 1447.68  927.5 1453  C 927.5 1458.32  923.32 1462.5  918 1462.5  C 912.68 1462.5  908.5 1458.32  908.5 1453  C 908.5 1447.68  912.68 1443.5  918 1443.5  Z " stroke-width="1" stroke="#797979" fill="none" />
</svg>