﻿<?xml version="1.0" encoding="utf-8"?>
<svg version="1.1" xmlns:xlink="http://www.w3.org/1999/xlink" width="20px" height="20px" viewBox="693 1356  20 20" xmlns="http://www.w3.org/2000/svg">
  <path d="M 703 1356  C 708.6 1356  713 1360.4  713 1366  C 713 1371.6  708.6 1376  703 1376  C 697.4 1376  693 1371.6  693 1366  C 693 1360.4  697.4 1356  703 1356  Z " fill-rule="nonzero" fill="#f0f0f0" stroke="none" />
  <path d="M 703 1356.5  C 708.32 1356.5  712.5 1360.68  712.5 1366  C 712.5 1371.32  708.32 1375.5  703 1375.5  C 697.68 1375.5  693.5 1371.32  693.5 1366  C 693.5 1360.68  697.68 1356.5  703 1356.5  Z " stroke-width="1" stroke="#797979" fill="none" />
  <path d="M 703 1371  C 700.2 1371  698 1368.8  698 1366  C 698 1363.2  700.2 1361  703 1361  C 705.8 1361  708 1363.2  708 1366  C 708 1368.8  705.8 1371  703 1371  " fill-rule="nonzero" fill="#797979" stroke="none" />
</svg>