﻿<?xml version="1.0" encoding="utf-8"?>
<svg version="1.1" xmlns:xlink="http://www.w3.org/1999/xlink" width="120px" height="100px" xmlns="http://www.w3.org/2000/svg">
  <g transform="matrix(1 0 0 1 -1251 -174 )">
    <path d="M 1251.58137767415 224  L 1281.28137767415 174.5  L 1340.71862232585 174.5  L 1370.41862232585 224  L 1340.71862232585 273.5  L 1281.28137767415 273.5  L 1251.58137767415 224  Z " fill-rule="nonzero" fill="#109a79" stroke="none" fill-opacity="0" />
    <path d="M 1251 224  L 1281 174  L 1341 174  L 1371 224  L 1341 274  L 1281 274  L 1251 224  Z M 1281.5627553483 175  L 1252.1627553483 224  L 1281.5627553483 273  L 1340.4372446517 273  L 1369.8372446517 224  L 1340.4372446517 175  L 1281.5627553483 175  Z " fill-rule="nonzero" fill="#797979" stroke="none" />
  </g>
</svg>