﻿<?xml version="1.0" encoding="utf-8"?>
<svg version="1.1" xmlns:xlink="http://www.w3.org/1999/xlink" width="20px" height="20px" viewBox="445 1443  20 20" xmlns="http://www.w3.org/2000/svg">
  <path d="M 455 1443  C 460.6 1443  465 1447.4  465 1453  C 465 1458.6  460.6 1463  455 1463  C 449.4 1463  445 1458.6  445 1453  C 445 1447.4  449.4 1443  455 1443  Z " fill-rule="nonzero" fill="#ffffff" stroke="none" />
  <path d="M 455 1443.5  C 460.32 1443.5  464.5 1447.68  464.5 1453  C 464.5 1458.32  460.32 1462.5  455 1462.5  C 449.68 1462.5  445.5 1458.32  445.5 1453  C 445.5 1447.68  449.68 1443.5  455 1443.5  Z " stroke-width="1" stroke="#797979" fill="none" />
</svg>