﻿<?xml version="1.0" encoding="utf-8"?>
<svg version="1.1" xmlns:xlink="http://www.w3.org/1999/xlink" width="120px" height="100px" xmlns="http://www.w3.org/2000/svg">
  <g transform="matrix(1 0 0 1 -959 -174 )">
    <path d="M 959.58137767415 224  L 989.28137767415 174.5  L 1048.71862232585 174.5  L 1078.41862232585 224  L 1048.71862232585 273.5  L 989.28137767415 273.5  L 959.58137767415 224  Z " fill-rule="nonzero" fill="#ffffff" stroke="none" />
    <path d="M 959 224  L 989 174  L 1049 174  L 1079 224  L 1049 274  L 989 274  L 959 224  Z M 989.5627553483 175  L 960.1627553483 224  L 989.5627553483 273  L 1048.4372446517 273  L 1077.8372446517 224  L 1048.4372446517 175  L 989.5627553483 175  Z " fill-rule="nonzero" fill="#797979" stroke="none" />
  </g>
</svg>