﻿<?xml version="1.0" encoding="utf-8"?>
<svg version="1.1" xmlns:xlink="http://www.w3.org/1999/xlink" width="20px" height="20px" viewBox="725 1981  20 20" xmlns="http://www.w3.org/2000/svg">
  <path d="M 735 1981  C 740.6 1981  745 1985.4  745 1991  C 745 1996.6  740.6 2001  735 2001  C 729.4 2001  725 1996.6  725 1991  C 725 1985.4  729.4 1981  735 1981  Z " fill-rule="nonzero" fill="#ffffff" stroke="none" />
  <path d="M 735 1981.5  C 740.32 1981.5  744.5 1985.68  744.5 1991  C 744.5 1996.32  740.32 2000.5  735 2000.5  C 729.68 2000.5  725.5 1996.32  725.5 1991  C 725.5 1985.68  729.68 1981.5  735 1981.5  Z " stroke-width="1" stroke="#797979" fill="none" />
</svg>