﻿<?xml version="1.0" encoding="utf-8"?>
<svg version="1.1" xmlns:xlink="http://www.w3.org/1999/xlink" width="20px" height="20px" viewBox="609 1443  20 20" xmlns="http://www.w3.org/2000/svg">
  <path d="M 619 1443  C 624.6 1443  629 1447.4  629 1453  C 629 1458.6  624.6 1463  619 1463  C 613.4 1463  609 1458.6  609 1453  C 609 1447.4  613.4 1443  619 1443  Z " fill-rule="nonzero" fill="#ffffff" stroke="none" />
  <path d="M 619 1443.5  C 624.32 1443.5  628.5 1447.68  628.5 1453  C 628.5 1458.32  624.32 1462.5  619 1462.5  C 613.68 1462.5  609.5 1458.32  609.5 1453  C 609.5 1447.68  613.68 1443.5  619 1443.5  Z " stroke-width="1" stroke="#797979" fill="none" />
  <path d="M 619 1458  C 616.2 1458  614 1455.8  614 1453  C 614 1450.2  616.2 1448  619 1448  C 621.8 1448  624 1450.2  624 1453  C 624 1455.8  621.8 1458  619 1458  " fill-rule="nonzero" fill="#797979" stroke="none" />
</svg>