﻿<?xml version="1.0" encoding="utf-8"?>
<svg version="1.1" xmlns:xlink="http://www.w3.org/1999/xlink" width="20px" height="20px" viewBox="561 1981  20 20" xmlns="http://www.w3.org/2000/svg">
  <path d="M 571 1981  C 576.6 1981  581 1985.4  581 1991  C 581 1996.6  576.6 2001  571 2001  C 565.4 2001  561 1996.6  561 1991  C 561 1985.4  565.4 1981  571 1981  Z " fill-rule="nonzero" fill="#ffffff" stroke="none" />
  <path d="M 571 1981.5  C 576.32 1981.5  580.5 1985.68  580.5 1991  C 580.5 1996.32  576.32 2000.5  571 2000.5  C 565.68 2000.5  561.5 1996.32  561.5 1991  C 561.5 1985.68  565.68 1981.5  571 1981.5  Z " stroke-width="1" stroke="#797979" fill="none" />
  <path d="M 571 1996  C 568.2 1996  566 1993.8  566 1991  C 566 1988.2  568.2 1986  571 1986  C 573.8 1986  576 1988.2  576 1991  C 576 1993.8  573.8 1996  571 1996  " fill-rule="nonzero" fill="#797979" stroke="none" />
</svg>