﻿<?xml version="1.0" encoding="utf-8"?>
<svg version="1.1" xmlns:xlink="http://www.w3.org/1999/xlink" width="12px" height="12px" viewBox="364 184  12 12" xmlns="http://www.w3.org/2000/svg">
  <path d="M 364.5 184.5  L 375.5 184.5  L 375.5 195.5  L 364.5 195.5  L 364.5 184.5  Z " fill-rule="nonzero" fill="#ffffff" stroke="none" />
  <path d="M 364.5 184.5  L 375.5 184.5  L 375.5 195.5  L 364.5 195.5  L 364.5 184.5  Z " stroke-width="1" stroke="#797979" fill="none" />
  <path d="M 366.571428571429 190  L 369.142857142857 192.571428571429  " stroke-width="2.57142857142857" stroke="#797979" fill="none" />
  <path d="M 369.142857142857 192.571428571429  L 373.428571428571 186.571428571429  " stroke-width="2.57142857142857" stroke="#797979" fill="none" />
</svg>