﻿<?xml version="1.0" encoding="utf-8"?>
<svg version="1.1" xmlns:xlink="http://www.w3.org/1999/xlink" width="12px" height="12px" viewBox="508 237  12 12" xmlns="http://www.w3.org/2000/svg">
  <path d="M 508.5 237.5  L 519.5 237.5  L 519.5 248.5  L 508.5 248.5  L 508.5 237.5  Z " fill-rule="nonzero" fill="#ffffff" stroke="none" />
  <path d="M 508.5 237.5  L 519.5 237.5  L 519.5 248.5  L 508.5 248.5  L 508.5 237.5  Z " stroke-width="1" stroke="#797979" fill="none" />
  <path d="M 510.571428571429 243  L 513.142857142857 245.571428571429  " stroke-width="2.57142857142857" stroke="#797979" fill="none" />
  <path d="M 513.142857142857 245.571428571429  L 517.428571428571 239.571428571429  " stroke-width="2.57142857142857" stroke="#797979" fill="none" />
</svg>