﻿<?xml version="1.0" encoding="utf-8"?>
<svg version="1.1" xmlns:xlink="http://www.w3.org/1999/xlink" width="12px" height="12px" viewBox="443 184  12 12" xmlns="http://www.w3.org/2000/svg">
  <path d="M 443.5 184.5  L 454.5 184.5  L 454.5 195.5  L 443.5 195.5  L 443.5 184.5  Z " fill-rule="nonzero" fill="#f0f0f0" stroke="none" />
  <path d="M 443.5 184.5  L 454.5 184.5  L 454.5 195.5  L 443.5 195.5  L 443.5 184.5  Z " stroke-width="1" stroke="#797979" fill="none" />
  <path d="M 445.571428571429 190  L 448.142857142857 192.571428571429  " stroke-width="2.57142857142857" stroke="#797979" fill="none" />
  <path d="M 448.142857142857 192.571428571429  L 452.428571428571 186.571428571429  " stroke-width="2.57142857142857" stroke="#797979" fill="none" />
</svg>