﻿<?xml version="1.0" encoding="utf-8"?>
<svg version="1.1" xmlns:xlink="http://www.w3.org/1999/xlink" width="12px" height="12px" viewBox="424 237  12 12" xmlns="http://www.w3.org/2000/svg">
  <path d="M 424.5 237.5  L 435.5 237.5  L 435.5 248.5  L 424.5 248.5  L 424.5 237.5  Z " fill-rule="nonzero" fill="#f0f0f0" stroke="none" />
  <path d="M 424.5 237.5  L 435.5 237.5  L 435.5 248.5  L 424.5 248.5  L 424.5 237.5  Z " stroke-width="1" stroke="#797979" fill="none" />
  <path d="M 426.571428571429 243  L 429.142857142857 245.571428571429  " stroke-width="2.57142857142857" stroke="#797979" fill="none" />
  <path d="M 429.142857142857 245.571428571429  L 433.428571428571 239.571428571429  " stroke-width="2.57142857142857" stroke="#797979" fill="none" />
</svg>