﻿<?xml version="1.0" encoding="utf-8"?>
<svg version="1.1" xmlns:xlink="http://www.w3.org/1999/xlink" width="12px" height="12px" viewBox="82 271  12 12" xmlns="http://www.w3.org/2000/svg">
  <path d="M 82.5 271.5  L 93.5 271.5  L 93.5 282.5  L 82.5 282.5  L 82.5 271.5  Z " fill-rule="nonzero" fill="#ffffff" stroke="none" />
  <path d="M 82.5 271.5  L 93.5 271.5  L 93.5 282.5  L 82.5 282.5  L 82.5 271.5  Z " stroke-width="1" stroke="#797979" fill="none" />
  <path d="M 84.5714285714286 277  L 87.1428571428571 279.571428571429  " stroke-width="2.57142857142857" stroke="#797979" fill="none" />
  <path d="M 87.1428571428571 279.571428571429  L 91.4285714285714 273.571428571429  " stroke-width="2.57142857142857" stroke="#797979" fill="none" />
</svg>