﻿<?xml version="1.0" encoding="utf-8"?>
<svg version="1.1" xmlns:xlink="http://www.w3.org/1999/xlink" width="12px" height="12px" viewBox="78 213  12 12" xmlns="http://www.w3.org/2000/svg">
  <path d="M 84 213  C 87.36 213  90 215.64  90 219  C 90 222.36  87.36 225  84 225  C 80.64 225  78 222.36  78 219  C 78 215.64  80.64 213  84 213  Z " fill-rule="nonzero" fill="#ffffff" stroke="none" />
  <path d="M 84 213.5  C 87.08 213.5  89.5 215.92  89.5 219  C 89.5 222.08  87.08 224.5  84 224.5  C 80.92 224.5  78.5 222.08  78.5 219  C 78.5 215.92  80.92 213.5  84 213.5  Z " stroke-width="1" stroke="#797979" fill="none" />
  <path d="M 84 222  C 82.32 222  81 220.68  81 219  C 81 217.32  82.32 216  84 216  C 85.68 216  87 217.32  87 219  C 87 220.68  85.68 222  84 222  " fill-rule="nonzero" fill="#797979" stroke="none" />
</svg>