﻿<?xml version="1.0" encoding="utf-8"?>
<svg version="1.1" xmlns:xlink="http://www.w3.org/1999/xlink" width="12px" height="12px" viewBox="83 155  12 12" xmlns="http://www.w3.org/2000/svg">
  <path d="M 83.5 155.5  L 94.5 155.5  L 94.5 166.5  L 83.5 166.5  L 83.5 155.5  Z " fill-rule="nonzero" fill="#f0f0f0" stroke="none" />
  <path d="M 83.5 155.5  L 94.5 155.5  L 94.5 166.5  L 83.5 166.5  L 83.5 155.5  Z " stroke-width="1" stroke="#797979" fill="none" />
  <path d="M 85.5714285714286 161  L 88.1428571428571 163.571428571429  " stroke-width="2.57142857142857" stroke="#797979" fill="none" />
  <path d="M 88.1428571428571 163.571428571429  L 92.4285714285714 157.571428571429  " stroke-width="2.57142857142857" stroke="#797979" fill="none" />
</svg>