﻿<?xml version="1.0" encoding="utf-8"?>
<svg version="1.1" xmlns:xlink="http://www.w3.org/1999/xlink" width="12px" height="12px" viewBox="506 208  12 12" xmlns="http://www.w3.org/2000/svg">
  <path d="M 506.5 208.5  L 517.5 208.5  L 517.5 219.5  L 506.5 219.5  L 506.5 208.5  Z " fill-rule="nonzero" fill="#f0f0f0" stroke="none" />
  <path d="M 506.5 208.5  L 517.5 208.5  L 517.5 219.5  L 506.5 219.5  L 506.5 208.5  Z " stroke-width="1" stroke="#797979" fill="none" />
  <path d="M 508.571428571429 214  L 511.142857142857 216.571428571429  " stroke-width="2.57142857142857" stroke="#797979" fill="none" />
  <path d="M 511.142857142857 216.571428571429  L 515.428571428571 210.571428571429  " stroke-width="2.57142857142857" stroke="#797979" fill="none" />
</svg>