﻿<?xml version="1.0" encoding="utf-8"?>
<svg version="1.1" xmlns:xlink="http://www.w3.org/1999/xlink" width="12px" height="12px" viewBox="237 208  12 12" xmlns="http://www.w3.org/2000/svg">
  <path d="M 237.5 208.5  L 248.5 208.5  L 248.5 219.5  L 237.5 219.5  L 237.5 208.5  Z " fill-rule="nonzero" fill="#f0f0f0" stroke="none" />
  <path d="M 237.5 208.5  L 248.5 208.5  L 248.5 219.5  L 237.5 219.5  L 237.5 208.5  Z " stroke-width="1" stroke="#797979" fill="none" />
  <path d="M 239.571428571429 214  L 242.142857142857 216.571428571429  " stroke-width="2.57142857142857" stroke="#797979" fill="none" />
  <path d="M 242.142857142857 216.571428571429  L 246.428571428571 210.571428571429  " stroke-width="2.57142857142857" stroke="#797979" fill="none" />
</svg>