﻿<?xml version="1.0" encoding="utf-8"?>
<svg version="1.1" xmlns:xlink="http://www.w3.org/1999/xlink" width="12px" height="12px" viewBox="139 243  12 12" xmlns="http://www.w3.org/2000/svg">
  <path d="M 139.5 243.5  L 150.5 243.5  L 150.5 254.5  L 139.5 254.5  L 139.5 243.5  Z " fill-rule="nonzero" fill="#f0f0f0" stroke="none" />
  <path d="M 139.5 243.5  L 150.5 243.5  L 150.5 254.5  L 139.5 254.5  L 139.5 243.5  Z " stroke-width="1" stroke="#797979" fill="none" />
  <path d="M 141.571428571429 249  L 144.142857142857 251.571428571429  " stroke-width="2.57142857142857" stroke="#797979" fill="none" />
  <path d="M 144.142857142857 251.571428571429  L 148.428571428571 245.571428571429  " stroke-width="2.57142857142857" stroke="#797979" fill="none" />
</svg>