﻿<?xml version="1.0" encoding="utf-8"?>
<svg version="1.1" xmlns:xlink="http://www.w3.org/1999/xlink" width="12px" height="12px" viewBox="218 184  12 12" xmlns="http://www.w3.org/2000/svg">
  <path d="M 224 184  C 227.36 184  230 186.64  230 190  C 230 193.36  227.36 196  224 196  C 220.64 196  218 193.36  218 190  C 218 186.64  220.64 184  224 184  Z " fill-rule="nonzero" fill="#ffffff" stroke="none" />
  <path d="M 224 184.5  C 227.08 184.5  229.5 186.92  229.5 190  C 229.5 193.08  227.08 195.5  224 195.5  C 220.92 195.5  218.5 193.08  218.5 190  C 218.5 186.92  220.92 184.5  224 184.5  Z " stroke-width="1" stroke="#797979" fill="none" />
  <path d="M 224 193  C 222.32 193  221 191.68  221 190  C 221 188.32  222.32 187  224 187  C 225.68 187  227 188.32  227 190  C 227 191.68  225.68 193  224 193  " fill-rule="nonzero" fill="#797979" stroke="none" />
</svg>