﻿<?xml version="1.0" encoding="utf-8"?>
<svg version="1.1" xmlns:xlink="http://www.w3.org/1999/xlink" width="12px" height="12px" viewBox="134 184  12 12" xmlns="http://www.w3.org/2000/svg">
  <path d="M 140 184  C 143.36 184  146 186.64  146 190  C 146 193.36  143.36 196  140 196  C 136.64 196  134 193.36  134 190  C 134 186.64  136.64 184  140 184  Z " fill-rule="nonzero" fill="#ffffff" stroke="none" />
  <path d="M 140 184.5  C 143.08 184.5  145.5 186.92  145.5 190  C 145.5 193.08  143.08 195.5  140 195.5  C 136.92 195.5  134.5 193.08  134.5 190  C 134.5 186.92  136.92 184.5  140 184.5  Z " stroke-width="1" stroke="#797979" fill="none" />
  <path d="M 140 193  C 138.32 193  137 191.68  137 190  C 137 188.32  138.32 187  140 187  C 141.68 187  143 188.32  143 190  C 143 191.68  141.68 193  140 193  " fill-rule="nonzero" fill="#797979" stroke="none" />
</svg>