﻿<?xml version="1.0" encoding="utf-8"?>
<svg version="1.1" xmlns:xlink="http://www.w3.org/1999/xlink" width="12px" height="12px" viewBox="76 184  12 12" xmlns="http://www.w3.org/2000/svg">
  <path d="M 82 184  C 85.36 184  88 186.64  88 190  C 88 193.36  85.36 196  82 196  C 78.64 196  76 193.36  76 190  C 76 186.64  78.64 184  82 184  Z " fill-rule="nonzero" fill="#ffffff" stroke="none" />
  <path d="M 82 184.5  C 85.08 184.5  87.5 186.92  87.5 190  C 87.5 193.08  85.08 195.5  82 195.5  C 78.92 195.5  76.5 193.08  76.5 190  C 76.5 186.92  78.92 184.5  82 184.5  Z " stroke-width="1" stroke="#797979" fill="none" />
</svg>