﻿<?xml version="1.0" encoding="utf-8"?>
<svg version="1.1" xmlns:xlink="http://www.w3.org/1999/xlink" width="1232px" height="454px" xmlns="http://www.w3.org/2000/svg">
  <defs>
    <mask fill="white" id="clip1">
      <path d="M 767.65576171875 314  L 924.34423828125 314  L 924.34423828125 376  L 767.65576171875 376  Z M 229 117  L 1461 117  L 1461 571  L 229 571  Z " fill-rule="evenodd" />
    </mask>
  </defs>
  <g transform="matrix(1 0 0 1 -229 -117 )">
    <path d="M 229.5 117.5  L 1460.5 117.5  L 1460.5 570.5  L 229.5 570.5  L 229.5 117.5  Z " fill-rule="nonzero" fill="#f2f2f2" stroke="none" />
    <path d="M 229.5 117.5  L 1460.5 117.5  L 1460.5 570.5  L 229.5 570.5  L 229.5 117.5  Z " stroke-width="1" stroke="#797979" fill="none" />
    <path d="M 230.273135106334 117.469158553795  L 1459.72686489367 570.530841446205  M 1459.72686489367 117.469158553795  L 230.273135106334 570.530841446205  " stroke-width="1" stroke="#797979" fill="none" mask="url(#clip1)" />
  </g>
</svg>