﻿<?xml version="1.0" encoding="utf-8"?>
<svg version="1.1" xmlns:xlink="http://www.w3.org/1999/xlink" width="709px" height="322px" xmlns="http://www.w3.org/2000/svg">
  <g transform="matrix(1 0 0 1 -540 -3132 )">
    <path d="M 45 295  L 709 295  L 709 322  L 0 322  L 0 0  L 45 0  L 45 295  Z M 443.125 147.583333333333  L 576.0625 80.5  L 664.6875 268  L 89 268  L 89 147.583333333333  L 243.71875 26.8333333333333  L 443.125 147.583333333333  Z " fill-rule="nonzero" fill="#797979" stroke="none" fill-opacity="0.752941176470588" transform="matrix(1 0 0 1 540 3132 )" />
  </g>
</svg>