﻿<?xml version="1.0" encoding="utf-8"?>
<svg version="1.1" xmlns:xlink="http://www.w3.org/1999/xlink" width="621px" height="232px" xmlns="http://www.w3.org/2000/svg">
  <g transform="matrix(1 0 0 1 -628 -3221 )">
    <path d="M 621 232  L 621 205.166666666667  L 621 232  Z M 309.822784810127 0.974683544304298  L 383.901527783361 66.2183470803639  L 464.253164556962 46.5443037974687  L 576.6875 178  L 1 178  L 1 57.5833333333335  L 164.253164556962 122.493670886076  L 309.822784810127 0.974683544304298  Z " fill-rule="nonzero" fill="#000000" stroke="none" fill-opacity="0.925490196078431" transform="matrix(1 0 0 1 628 3221 )" />
  </g>
</svg>