﻿<?xml version="1.0" encoding="utf-8"?>
<svg version="1.1" xmlns:xlink="http://www.w3.org/1999/xlink" width="12px" height="12px" viewBox="1060 3605  12 12" xmlns="http://www.w3.org/2000/svg">
  <path d="M 1066 3605  C 1069.36 3605  1072 3607.64  1072 3611  C 1072 3614.36  1069.36 3617  1066 3617  C 1062.64 3617  1060 3614.36  1060 3611  C 1060 3607.64  1062.64 3605  1066 3605  Z " fill-rule="nonzero" fill="#f0f0f0" stroke="none" />
  <path d="M 1066 3605.5  C 1069.08 3605.5  1071.5 3607.92  1071.5 3611  C 1071.5 3614.08  1069.08 3616.5  1066 3616.5  C 1062.92 3616.5  1060.5 3614.08  1060.5 3611  C 1060.5 3607.92  1062.92 3605.5  1066 3605.5  Z " stroke-width="1" stroke="#797979" fill="none" />
  <path d="M 1066 3614  C 1064.32 3614  1063 3612.68  1063 3611  C 1063 3609.32  1064.32 3608  1066 3608  C 1067.68 3608  1069 3609.32  1069 3611  C 1069 3612.68  1067.68 3614  1066 3614  " fill-rule="nonzero" fill="#797979" stroke="none" />
</svg>