﻿<?xml version="1.0" encoding="utf-8"?>
<svg version="1.1" xmlns:xlink="http://www.w3.org/1999/xlink" width="12px" height="12px" viewBox="1227 3605  12 12" xmlns="http://www.w3.org/2000/svg">
  <path d="M 1233 3605  C 1236.36 3605  1239 3607.64  1239 3611  C 1239 3614.36  1236.36 3617  1233 3617  C 1229.64 3617  1227 3614.36  1227 3611  C 1227 3607.64  1229.64 3605  1233 3605  Z " fill-rule="nonzero" fill="#f0f0f0" stroke="none" />
  <path d="M 1233 3605.5  C 1236.08 3605.5  1238.5 3607.92  1238.5 3611  C 1238.5 3614.08  1236.08 3616.5  1233 3616.5  C 1229.92 3616.5  1227.5 3614.08  1227.5 3611  C 1227.5 3607.92  1229.92 3605.5  1233 3605.5  Z " stroke-width="1" stroke="#797979" fill="none" />
</svg>