﻿<?xml version="1.0" encoding="utf-8"?>
<svg version="1.1" xmlns:xlink="http://www.w3.org/1999/xlink" width="12px" height="12px" viewBox="878 3701.5  12 12" xmlns="http://www.w3.org/2000/svg">
  <path d="M 884 3701.5  C 887.36 3701.5  890 3704.14  890 3707.5  C 890 3710.86  887.36 3713.5  884 3713.5  C 880.64 3713.5  878 3710.86  878 3707.5  C 878 3704.14  880.64 3701.5  884 3701.5  Z " fill-rule="nonzero" fill="#ffffff" stroke="none" />
  <path d="M 884 3702  C 887.08 3702  889.5 3704.42  889.5 3707.5  C 889.5 3710.58  887.08 3713  884 3713  C 880.92 3713  878.5 3710.58  878.5 3707.5  C 878.5 3704.42  880.92 3702  884 3702  Z " stroke-width="1" stroke="#797979" fill="none" />
</svg>