﻿<?xml version="1.0" encoding="utf-8"?>
<svg version="1.1" xmlns:xlink="http://www.w3.org/1999/xlink" width="12px" height="12px" viewBox="988 3701.5  12 12" xmlns="http://www.w3.org/2000/svg">
  <path d="M 994 3701.5  C 997.36 3701.5  1000 3704.14  1000 3707.5  C 1000 3710.86  997.36 3713.5  994 3713.5  C 990.64 3713.5  988 3710.86  988 3707.5  C 988 3704.14  990.64 3701.5  994 3701.5  Z " fill-rule="nonzero" fill="#ffffff" stroke="none" />
  <path d="M 994 3702  C 997.08 3702  999.5 3704.42  999.5 3707.5  C 999.5 3710.58  997.08 3713  994 3713  C 990.92 3713  988.5 3710.58  988.5 3707.5  C 988.5 3704.42  990.92 3702  994 3702  Z " stroke-width="1" stroke="#797979" fill="none" />
</svg>