﻿<?xml version="1.0" encoding="utf-8"?>
<svg version="1.1" xmlns:xlink="http://www.w3.org/1999/xlink" width="12px" height="12px" viewBox="1074 3701.5  12 12" xmlns="http://www.w3.org/2000/svg">
  <path d="M 1080 3701.5  C 1083.36 3701.5  1086 3704.14  1086 3707.5  C 1086 3710.86  1083.36 3713.5  1080 3713.5  C 1076.64 3713.5  1074 3710.86  1074 3707.5  C 1074 3704.14  1076.64 3701.5  1080 3701.5  Z " fill-rule="nonzero" fill="#f0f0f0" stroke="none" />
  <path d="M 1080 3702  C 1083.08 3702  1085.5 3704.42  1085.5 3707.5  C 1085.5 3710.58  1083.08 3713  1080 3713  C 1076.92 3713  1074.5 3710.58  1074.5 3707.5  C 1074.5 3704.42  1076.92 3702  1080 3702  Z " stroke-width="1" stroke="#797979" fill="none" />
</svg>