﻿<?xml version="1.0" encoding="utf-8"?>
<svg version="1.1" xmlns:xlink="http://www.w3.org/1999/xlink" width="12px" height="12px" viewBox="1193 3701.5  12 12" xmlns="http://www.w3.org/2000/svg">
  <path d="M 1199 3701.5  C 1202.36 3701.5  1205 3704.14  1205 3707.5  C 1205 3710.86  1202.36 3713.5  1199 3713.5  C 1195.64 3713.5  1193 3710.86  1193 3707.5  C 1193 3704.14  1195.64 3701.5  1199 3701.5  Z " fill-rule="nonzero" fill="#ffffff" stroke="none" />
  <path d="M 1199 3702  C 1202.08 3702  1204.5 3704.42  1204.5 3707.5  C 1204.5 3710.58  1202.08 3713  1199 3713  C 1195.92 3713  1193.5 3710.58  1193.5 3707.5  C 1193.5 3704.42  1195.92 3702  1199 3702  Z " stroke-width="1" stroke="#797979" fill="none" />
</svg>