﻿<?xml version="1.0" encoding="utf-8"?>
<svg version="1.1" xmlns:xlink="http://www.w3.org/1999/xlink" width="12px" height="12px" viewBox="1277 3701.5  12 12" xmlns="http://www.w3.org/2000/svg">
  <path d="M 1283 3701.5  C 1286.36 3701.5  1289 3704.14  1289 3707.5  C 1289 3710.86  1286.36 3713.5  1283 3713.5  C 1279.64 3713.5  1277 3710.86  1277 3707.5  C 1277 3704.14  1279.64 3701.5  1283 3701.5  Z " fill-rule="nonzero" fill="#ffffff" stroke="none" />
  <path d="M 1283 3702  C 1286.08 3702  1288.5 3704.42  1288.5 3707.5  C 1288.5 3710.58  1286.08 3713  1283 3713  C 1279.92 3713  1277.5 3710.58  1277.5 3707.5  C 1277.5 3704.42  1279.92 3702  1283 3702  Z " stroke-width="1" stroke="#797979" fill="none" />
  <path d="M 1283 3710.5  C 1281.32 3710.5  1280 3709.18  1280 3707.5  C 1280 3705.82  1281.32 3704.5  1283 3704.5  C 1284.68 3704.5  1286 3705.82  1286 3707.5  C 1286 3709.18  1284.68 3710.5  1283 3710.5  " fill-rule="nonzero" fill="#797979" stroke="none" />
</svg>