﻿<?xml version="1.0" encoding="utf-8"?>
<svg version="1.1" xmlns:xlink="http://www.w3.org/1999/xlink" width="222px" height="222px" xmlns="http://www.w3.org/2000/svg">
  <defs>
    <mask fill="white" id="clip3">
      <path d="M 350.5 1021  L 471.5 1021  L 471.5 1081  L 350.5 1081  Z M 299 939  L 521 939  L 521 1161  L 299 1161  Z " fill-rule="evenodd" />
    </mask>
  </defs>
  <g transform="matrix(1 0 0 1 -299 -939 )">
    <path d="M 299.5 939.5  L 520.5 939.5  L 520.5 1160.5  L 299.5 1160.5  L 299.5 939.5  Z " fill-rule="nonzero" fill="#f2f2f2" stroke="none" />
    <path d="M 299.5 939.5  L 520.5 939.5  L 520.5 1160.5  L 299.5 1160.5  L 299.5 939.5  Z " stroke-width="1" stroke="#797979" fill="none" />
    <path d="M 299.353553390593 939.353553390593  L 520.646446609407 1160.64644660941  M 520.646446609407 939.353553390593  L 299.353553390593 1160.64644660941  " stroke-width="1" stroke="#797979" fill="none" mask="url(#clip3)" />
  </g>
</svg>