﻿<?xml version="1.0" encoding="utf-8"?>
<svg version="1.1" xmlns:xlink="http://www.w3.org/1999/xlink" width="25px" height="25px" xmlns="http://www.w3.org/2000/svg">
  <g transform="matrix(1 0 0 1 -1287 -1249 )">
    <path d="M 20.6217447916667 13.232421875  C 20.8170572916667 13.037109375  20.9147135416667 12.79296875  20.9147135416667 12.5  C 20.9147135416667 12.20703125  20.8170572916667 11.962890625  20.6217447916667 11.767578125  L 19.140625 10.2864583333333  L 13.2486979166667 4.39453125  C 13.0533854166667 4.19921875  12.8092447916667 4.1015625  12.5162760416667 4.1015625  C 12.2233072916667 4.1015625  11.9791666666667 4.19921875  11.7838541666667 4.39453125  L 10.302734375 5.87565104166667  C 10.107421875 6.07096354166667  10.009765625 6.31510416666667  10.009765625 6.60807291666667  C 10.009765625 6.90104166666667  10.107421875 7.14518229166667  10.302734375 7.34049479166667  L 13.37890625 10.4166666666667  L 5.20833333333333 10.4166666666667  C 4.92621527777778 10.4166666666667  4.68207465277778 10.5197482638889  4.47591145833333 10.7259114583333  C 4.26974826388889 10.9320746527778  4.16666666666667 11.1762152777778  4.16666666666667 11.4583333333333  L 4.16666666666667 13.5416666666667  C 4.16666666666667 13.8237847222222  4.26974826388889 14.0679253472222  4.47591145833333 14.2740885416667  C 4.68207465277778 14.4802517361111  4.92621527777778 14.5833333333333  5.20833333333333 14.5833333333333  L 13.37890625 14.5833333333333  L 10.302734375 17.6595052083333  C 10.0965711805556 17.8656684027778  9.99348958333333 18.1098090277778  9.99348958333333 18.3919270833333  C 9.99348958333333 18.6740451388889  10.0965711805556 18.9181857638889  10.302734375 19.1243489583333  L 11.7838541666667 20.60546875  C 11.9791666666667 20.80078125  12.2233072916667 20.8984375  12.5162760416667 20.8984375  C 12.8092447916667 20.8984375  13.0533854166667 20.80078125  13.2486979166667 20.60546875  L 19.140625 14.7135416666667  L 20.6217447916667 13.232421875  Z M 23.3235677083333 6.2255859375  C 24.4411892361111 8.14073350694444  25 10.2322048611111  25 12.5  C 25 14.7677951388889  24.4411892361111 16.8592664930556  23.3235677083333 18.7744140625  C 22.2059461805556 20.6895616319444  20.6895616319444 22.2059461805556  18.7744140625 23.3235677083333  C 16.8592664930556 24.4411892361111  14.7677951388889 25  12.5 25  C 10.2322048611111 25  8.14073350694444 24.4411892361111  6.2255859375 23.3235677083333  C 4.31043836805556 22.2059461805556  2.79405381944444 20.6895616319444  1.67643229166667 18.7744140625  C 0.558810763888889 16.8592664930556  0 14.7677951388889  0 12.5  C 0 10.2322048611111  0.558810763888889 8.14073350694444  1.67643229166667 6.2255859375  C 2.79405381944444 4.31043836805556  4.31043836805556 2.79405381944444  6.2255859375 1.67643229166667  C 8.14073350694444 0.558810763888887  10.2322048611111 0  12.5 0  C 14.7677951388889 0  16.8592664930556 0.558810763888887  18.7744140625 1.67643229166667  C 20.6895616319444 2.79405381944444  22.2059461805556 4.31043836805556  23.3235677083333 6.2255859375  Z " fill-rule="nonzero" fill="#000000" stroke="none" transform="matrix(1 0 0 1 1287 1249 )" />
  </g>
</svg>