﻿<?xml version="1.0" encoding="utf-8"?>
<svg version="1.1" xmlns:xlink="http://www.w3.org/1999/xlink" width="75px" height="5px" xmlns="http://www.w3.org/2000/svg">
  <g transform="matrix(1 0 0 1 -240 -1639 )">
    <path d="M 241 1641  L 313 1641  " stroke-width="2" stroke="#f90f0f" fill="none" />
  </g>
</svg>