﻿<?xml version="1.0" encoding="utf-8"?>
<svg version="1.1" xmlns:xlink="http://www.w3.org/1999/xlink" width="18px" height="30px" xmlns="http://www.w3.org/2000/svg">
  <g transform="matrix(1 0 0 1 -582 -669 )">
    <path d="M 12.181640625 13.53515625  C 13.060546875 12.55859375  13.5 11.3802083333333  13.5 10  C 13.5 8.61979166666666  13.060546875 7.44140625  12.181640625 6.46484375  C 11.302734375 5.48828125  10.2421875 5  9 5  C 7.7578125 5  6.697265625 5.48828125  5.818359375 6.46484375  C 4.939453125 7.44140625  4.5 8.61979166666666  4.5 10  C 4.5 11.3802083333333  4.939453125 12.55859375  5.818359375 13.53515625  C 6.697265625 14.51171875  7.7578125 15  9 15  C 10.2421875 15  11.302734375 14.51171875  12.181640625 13.53515625  Z M 15.36328125 2.9296875  C 17.12109375 4.8828125  18 7.23958333333333  18 10  C 18 11.4192708333333  17.806640625 12.5846354166667  17.419921875 13.49609375  L 11.021484375 28.61328125  C 10.833984375 29.04296875  10.5556640625 29.3815104166667  10.1865234375 29.62890625  C 9.8173828125 29.8763020833333  9.421875 30  9 30  C 8.578125 30  8.1826171875 29.8763020833333  7.8134765625 29.62890625  C 7.4443359375 29.3815104166667  7.171875 29.04296875  6.99609375 28.61328125  L 0.580078125 13.49609375  C 0.193359375 12.5846354166667  0 11.4192708333333  0 10  C 0 7.23958333333333  0.87890625 4.8828125  2.63671875 2.9296875  C 4.39453125 0.976562500000001  6.515625 0  9 0  C 11.484375 0  13.60546875 0.976562500000001  15.36328125 2.9296875  Z " fill-rule="nonzero" fill="#3eb134" stroke="none" transform="matrix(1 0 0 1 582 669 )" />
  </g>
</svg>