﻿<?xml version="1.0" encoding="utf-8"?>
<svg version="1.1" xmlns:xlink="http://www.w3.org/1999/xlink" width="25px" height="25px" xmlns="http://www.w3.org/2000/svg">
  <g transform="matrix(1 0 0 1 -299 -200 )">
    <path d="M 24.7349330357143 20.7919034090909  C 24.9116443452381 21.0168087121212  25 21.2831439393939  25 21.5909090909091  L 25 23.8636363636364  C 25 24.1714015151515  24.9116443452381 24.4377367424242  24.7349330357143 24.6626420454545  C 24.5582217261905 24.8875473484849  24.3489583333333 25  24.1071428571429 25  L 0.892857142857143 25  C 0.651041666666667 25  0.441778273809524 24.8875473484849  0.265066964285714 24.6626420454545  C 0.0883556547619048 24.4377367424242  0 24.1714015151515  0 23.8636363636364  L 0 21.5909090909091  C 0 21.2831439393939  0.0883556547619048 21.0168087121212  0.265066964285714 20.7919034090909  C 0.441778273809524 20.5669981060606  0.651041666666667 20.4545454545455  0.892857142857143 20  L 24.1071428571429 20  C 24.3489583333333 20.4545454545455  24.5582217261905 20.5669981060606  24.7349330357143 20.7919034090909  Z M 24.7349330357143 13.9737215909091  C 24.9116443452381 14.1986268939394  25 14.4649621212121  25 14.7727272727273  L 25 17.0454545454545  C 25 17.3532196969697  24.9116443452381 17.6195549242424  24.7349330357143 17.8444602272727  C 24.5582217261905 18.069365530303  24.3489583333333 18.1818181818182  24.1071428571429 18  L 0.892857142857143 18  C 0.651041666666667 18.1818181818182  0.441778273809524 18.069365530303  0.265066964285714 17.8444602272727  C 0.0883556547619048 17.6195549242424  0 17.3532196969697  0 17.0454545454545  L 0 14.7727272727273  C 0 14.4649621212121  0.0883556547619048 14.1986268939394  0.265066964285714 13.9737215909091  C 0.441778273809524 13.7488162878788  0.651041666666667 13.6363636363636  0.892857142857143 13.6363636363636  L 24.1071428571429 13.6363636363636  C 24.3489583333333 13.6363636363636  24.5582217261905 13.7488162878788  24.7349330357143 13.9737215909091  Z M 24.7349330357143 7.15553977272727  C 24.9116443452381 7.38044507575757  25 7.6467803030303  25 7.95454545454546  L 25 10.2272727272727  C 25 10.5350378787879  24.9116443452381 10.8013731060606  24.7349330357143 11.0262784090909  C 24.5582217261905 11.2511837121212  24.3489583333333 11.3636363636364  24.1071428571429 11.3636363636364  L 0.892857142857143 11.3636363636364  C 0.651041666666667 11.3636363636364  0.441778273809524 11.2511837121212  0.265066964285714 11.0262784090909  C 0.0883556547619048 10.8013731060606  0 10.5350378787879  0 10.2272727272727  L 0 7.95454545454546  C 0 7.6467803030303  0.0883556547619048 7.38044507575757  0.265066964285714 7.15553977272727  C 0.441778273809524 6.93063446969697  0.651041666666667 6.81818181818182  0.892857142857143 7  L 24.1071428571429 7  C 24.3489583333333 6.81818181818182  24.5582217261905 6.93063446969697  24.7349330357143 7.15553977272727  Z M 24.7349330357143 0.337357954545456  C 24.9116443452381 0.562263257575754  25 0.828598484848483  25 1.13636363636364  L 25 3.40909090909091  C 25 3.71685606060606  24.9116443452381 3.98319128787879  24.7349330357143 4.20809659090909  C 24.5582217261905 4.43300189393939  24.3489583333333 4.54545454545454  24.1071428571429 5  L 0.892857142857143 5  C 0.651041666666667 4.54545454545454  0.441778273809524 4.43300189393939  0.265066964285714 4.20809659090909  C 0.0883556547619048 3.98319128787879  0 3.71685606060606  0 3.40909090909091  L 0 1.13636363636364  C 0 0.828598484848483  0.0883556547619048 0.562263257575754  0.265066964285714 0.337357954545456  C 0.441778273809524 0.112452651515149  0.651041666666667 0  0.892857142857143 0  L 24.1071428571429 0  C 24.3489583333333 0  24.5582217261905 0.112452651515149  24.7349330357143 0.337357954545456  Z " fill-rule="nonzero" fill="#000000" stroke="none" transform="matrix(1 0 0 1 299 200 )" />
  </g>
</svg>