﻿<?xml version="1.0" encoding="utf-8"?>
<svg version="1.1" xmlns:xlink="http://www.w3.org/1999/xlink" width="236px" height="145px" xmlns="http://www.w3.org/2000/svg">
  <g transform="matrix(1 0 0 1 -324 -991 )">
    <path d="M 324 991  L 560 991  L 560 1136  L 324 1136  L 324 991  " fill-rule="nonzero" fill="#cccccc" stroke="none" />
    <path d="M 334 1001  L 550 1001  L 550 1126  L 334 1126  L 334 1001  " fill-rule="nonzero" fill="#ffffff" stroke="none" />
    <path d="M 457.595 1034.5  C 451.505 1034.5  446.72 1029.715  446.72 1023.625  C 446.72 1017.535  451.505 1012.75  457.595 1012.75  C 463.685 1012.75  468.47 1017.535  468.47 1023.625  C 468.47 1029.715  463.685 1034.5  457.595 1034.5  " fill-rule="nonzero" fill="#cccccc" stroke="none" />
    <path d="M 338 1123  L 338 1058.1  L 390.25 1028.6  L 463.4 1079.5  L 505.2 1046.3  L 547 1079.5  L 547 1123  L 338 1123  " fill-rule="nonzero" fill="#169bd5" stroke="none" />
  </g>
</svg>