﻿<?xml version="1.0" encoding="utf-8"?>
<svg version="1.1" xmlns:xlink="http://www.w3.org/1999/xlink" width="18px" height="16px" xmlns="http://www.w3.org/2000/svg">
  <g transform="matrix(1 0 0 1 -602 -814 )">
    <path d="M 16.9955357142857 6.14772727272727  C 17.3772321428571 5.85227272727273  17.7120535714286 5.52272727272727  18 5.15909090909091  L 18 14.1818181818182  C 18 14.6818181818182  17.8426339285714 15.1098484848485  17.5279017857143 15.4659090909091  C 17.2131696428571 15.8219696969697  16.8348214285714 16  16.3928571428571 16  L 1.60714285714286 16  C 1.16517857142857 16  0.786830357142857 15.8219696969697  0.472098214285714 15.4659090909091  C 0.157366071428572 15.1098484848485  0 14.6818181818182  0 14.1818181818182  L 0 5.15909090909091  C 0.294642857142857 5.53030303030303  0.6328125 5.85984848484848  1.01450892857143 6.14772727272727  C 3.43861607142857 8.01136363636364  5.10267857142857 9.31818181818182  6.00669642857143 10.0681818181818  C 6.38839285714286 10.3863636363636  6.69810267857143 10.6344696969697  6.93582589285714 10.8125  C 7.17354910714286 10.9905303030303  7.48995535714286 11.1723484848485  7.88504464285714 11.3579545454545  C 8.28013392857143 11.5435606060606  8.6484375 11.6363636363636  8.98995535714286 11.6363636363636  L 9 11.6363636363636  L 9.01004464285714 11.6363636363636  C 9.3515625 11.6363636363636  9.71986607142857 11.5435606060606  10.1149553571429 11.3579545454545  C 10.5100446428571 11.1723484848485  10.8264508928571 10.9905303030303  11.0641741071429 10.8125  C 11.3018973214286 10.6344696969697  11.6116071428571 10.3863636363636  11.9933035714286 10.0681818181818  C 13.1316964285714 9.13636363636364  14.7991071428571 7.82954545454546  16.9955357142857 6.14772727272727  Z M 17.5228794642857 0.534090909090908  C 17.8409598214286 0.890151515151514  18 1.31818181818182  18 1.81818181818182  C 18 2.41666666666666  17.8359375 2.98863636363636  17.5078125 3.53409090909091  C 17.1796875 4.07954545454546  16.7712053571429 4.54545454545454  16.2823660714286 4.93181818181818  C 13.7645089285714 6.90909090909091  12.1975446428571 8.14015151515152  11.5814732142857 8.625  C 11.5145089285714 8.6780303030303  11.3722098214286 8.79356060606061  11.1545758928571 8.97159090909091  C 10.9369419642857 9.14962121212121  10.7561383928571 9.29356060606061  10.6121651785714 9.40340909090909  C 10.4681919642857 9.51325757575757  10.2940848214286 9.63636363636364  10.08984375 9.77272727272727  C 9.88560267857143 9.90909090909091  9.69308035714286 10.0113636363636  9.51227678571428 10.0795454545455  C 9.33147321428572 10.1477272727273  9.1640625 10.1818181818182  9.01004464285714 10.1818181818182  L 9 10.1818181818182  L 8.98995535714286 10.1818181818182  C 8.8359375 10.1818181818182  8.66852678571429 10.1477272727273  8.48772321428571 10.0795454545455  C 8.30691964285714 10.0113636363636  8.11439732142857 9.90909090909091  7.91015625 9.77272727272727  C 7.70591517857143 9.63636363636364  7.53180803571429 9.51325757575757  7.38783482142857 9.40340909090909  C 7.24386160714286 9.29356060606061  7.06305803571429 9.14962121212121  6.84542410714286 8.97159090909091  C 6.62779017857143 8.79356060606061  6.48549107142857 8.6780303030303  6.41852678571429 8.625  C 5.80915178571429 8.14015151515152  4.93191964285714 7.44886363636364  3.78683035714286 6.55113636363636  C 2.64174107142857 5.65340909090909  1.95535714285714 5.11363636363636  1.72767857142857 4.93181818181818  C 1.3125 4.61363636363636  0.920758928571429 4.17613636363636  0.552455357142857 3.61931818181818  C 0.184151785714286 3.0625  0 2.54545454545454  0 2.06818181818182  C 0 1.47727272727273  0.138950892857143 0.984848484848483  0.416852678571429 0.590909090909092  C 0.694754464285714 0.196969696969695  1.09151785714286 0  1.60714285714286 0  L 16.3928571428571 0  C 16.828125 0  17.2047991071429 0.178030303030301  17.5228794642857 0.534090909090908  Z " fill-rule="nonzero" fill="#3eb134" stroke="none" transform="matrix(1 0 0 1 602 814 )" />
  </g>
</svg>