﻿<?xml version="1.0" encoding="utf-8"?>
<svg version="1.1" xmlns:xlink="http://www.w3.org/1999/xlink" width="235px" height="145px" xmlns="http://www.w3.org/2000/svg">
  <g transform="matrix(1 0 0 1 -578 -991 )">
    <path d="M 578 991  L 813 991  L 813 1136  L 578 1136  L 578 991  " fill-rule="nonzero" fill="#cccccc" stroke="none" />
    <path d="M 588 1001  L 803 1001  L 803 1126  L 588 1126  L 588 1001  " fill-rule="nonzero" fill="#ffffff" stroke="none" />
    <path d="M 711.075 1034.5  C 704.985 1034.5  700.2 1029.715  700.2 1023.625  C 700.2 1017.535  704.985 1012.75  711.075 1012.75  C 717.165 1012.75  721.95 1017.535  721.95 1023.625  C 721.95 1029.715  717.165 1034.5  711.075 1034.5  " fill-rule="nonzero" fill="#cccccc" stroke="none" />
    <path d="M 592 1123  L 592 1058.1  L 644 1028.6  L 716.8 1079.31489361702  L 758.4 1046.3  L 800 1079.31489361702  L 800 1123  L 592 1123  " fill-rule="nonzero" fill="#169bd5" stroke="none" />
  </g>
</svg>