﻿<?xml version="1.0" encoding="utf-8"?>
<svg version="1.1" xmlns:xlink="http://www.w3.org/1999/xlink" width="271px" height="170px" xmlns="http://www.w3.org/2000/svg">
  <g transform="matrix(1 0 0 1 -299 -689 )">
    <path d="M 299 689  L 570 689  L 570 859  L 299 859  L 299 689  " fill-rule="nonzero" fill="#cccccc" stroke="none" />
    <path d="M 311 701  L 558 701  L 558 847  L 311 847  L 311 701  " fill-rule="nonzero" fill="#ffffff" stroke="none" />
    <path d="M 452.67 740  C 445.53 740  439.92 734.39  439.92 727.25  C 439.92 720.11  445.53 714.5  452.67 714.5  C 459.81 714.5  465.42 720.11  465.42 727.25  C 465.42 734.39  459.81 740  452.67 740  " fill-rule="nonzero" fill="#cccccc" stroke="none" />
    <path d="M 316 843  L 316 767.65  L 375.5 733.4  L 458.8 791.435424354244  L 506.4 753.95  L 554 791.435424354244  L 554 843  L 316 843  " fill-rule="nonzero" fill="#169bd5" stroke="none" />
  </g>
</svg>