﻿<?xml version="1.0" encoding="utf-8"?>
<svg version="1.1" xmlns:xlink="http://www.w3.org/1999/xlink" width="35px" height="38px" xmlns="http://www.w3.org/2000/svg">
  <g transform="matrix(1 0 0 1 -305 -947 )">
    <path d="M 5.400390625 31.7199519230769  C 5.68901909722222 31.4306891025641  5.83333333333333 31.088141025641  5.83333333333333 30.6923076923077  C 5.83333333333333 30.2964743589744  5.68901909722222 29.9539262820513  5.400390625 29.6646634615385  C 5.11176215277778 29.3754006410256  4.76996527777778 29.2307692307692  4.375 29.2307692307692  C 3.98003472222222 29.2307692307692  3.63823784722222 29.3754006410256  3.349609375 29.6646634615385  C 3.06098090277778 29.9539262820513  2.91666666666667 30.2964743589744  2.91666666666667 30.6923076923077  C 2.91666666666667 31.088141025641  3.06098090277778 31.4306891025641  3.349609375 31.7199519230769  C 3.63823784722222 32.0092147435897  3.98003472222222 32.1538461538462  4.375 32.1538461538462  C 4.76996527777778 32.1538461538462  5.11176215277778 32.0092147435897  5.400390625 31.7199519230769  Z M 31.5934244791667 19.3882211538462  C 31.9200303819444 18.6879006410256  32.0833333333333 18.0713141025641  32.0833333333333 17.5384615384615  C 32.0833333333333 16.7620192307692  31.787109375 16.0807291666667  31.1946614583333 15.4945913461538  C 30.6022135416667 14.908453525641  29.9262152777778 14.6153846153846  29.1666666666667 14.6153846153846  L 21.1458333333333 14.6153846153846  C 21.1458333333333 13.7323717948718  21.5104166666667 12.5182291666667  22.2395833333333 10.9729567307692  C 22.96875 9.42768429487179  23.3333333333333 8.20592948717949  23.3333333333333 7.30769230769231  C 23.3333333333333 5.81570512820512  23.0902777777778 4.7119391025641  22.6041666666667 3.99639423076923  C 22.1180555555556 3.28084935897436  21.1458333333333 2.92307692307692  19.6875 2.92307692307692  C 19.2925347222222 3.31891025641025  19.00390625 3.96594551282051  18.8216145833333 4.86418269230769  C 18.6393229166667 5.76241987179487  18.4076605902778 6.71774839743589  18.1266276041667 7.73016826923077  C 17.8455946180556 8.74258814102564  17.3936631944444 9.57612179487179  16.7708333333333 10.2307692307692  C 16.4366319444444 10.5809294871795  15.8517795138889 11.2736378205128  15.0162760416667 12.3088942307692  C 14.9555121527778 12.385016025641  14.7808159722222 12.6133814102564  14.4921875 12.9939903846154  C 14.2035590277778 13.3745993589744  13.9643012152778 13.6866987179487  13.7744140625 13.9302884615385  C 13.5845269097222 14.1738782051282  13.3224826388889 14.4973958333333  12.98828125 14.9008413461538  C 12.6540798611111 15.3042868589744  12.3502604166667 15.6392227564103  12.0768229166667 15.9056490384615  C 11.8033854166667 16.1720753205128  11.5109592013889 16.4423076923077  11.1995442708333 16.7163461538462  C 10.8881293402778 16.9903846153846  10.5843098958333 17.1959134615385  10.2880859375 17.3329326923077  C 9.99186197916667 17.4699519230769  9.72222222222222 17.5384615384615  9.47916666666667 17.5384615384615  L 9 17.5384615384615  L 9 32.1538461538462  L 9.47916666666667 32.1538461538462  C 9.67664930555556 32.1538461538462  9.91590711805556 32.1766826923077  10.1969401041667 32.2223557692308  C 10.4779730902778 32.2680288461538  10.7286241319444 32.3175080128205  10.9488932291667 32.3707932692308  C 11.1691623263889 32.424078525641  11.4577907986111 32.5078125  11.8147786458333 32.6219951923077  C 12.1717664930556 32.7361778846154  12.4376085069444 32.8237179487179  12.6123046875 32.8846153846154  C 12.7870008680556 32.9455128205128  13.056640625 33.0406650641026  13.4212239583333 33.1700721153846  C 13.7858072916667 33.2994791666667  14.0060763888889 33.3794070512821  14.08203125 33.4098557692308  C 17.2873263888889 34.521233974359  19.8849826388889 35.0769230769231  21.875 35.0769230769231  L 24.6321614583333 35.0769230769231  C 27.548828125 35.0769230769231  29.0071614583333 33.8056891025641  29.0071614583333 31.2632211538462  C 29.0071614583333 30.8673878205128  28.9691840277778 30.4411057692308  28.8932291666667 29.984375  C 29.3489583333333 29.7407852564103  29.7097439236111 29.3411458333333  29.9755859375 28.7854567307692  C 30.2414279513889 28.2297676282051  30.3743489583333 27.6702724358974  30.3743489583333 27.1069711538462  C 30.3743489583333 26.5436698717949  30.2376302083333 26.0184294871795  29.9641927083333 25.53125  C 30.7693142361111 24.7700320512821  31.171875 23.8641826923077  31.171875 22.8137019230769  C 31.171875 22.4330929487179  31.0959201388889 22.0106169871795  30.9440104166667 21.5462740384615  C 30.7921006944444 21.0819310897436  30.6022135416667 20.7203525641026  30.3743489583333 20.4615384615385  C 30.8604600694444 20.4463141025641  31.2668185763889 20.0885416666667  31.5934244791667 19.3882211538462  Z M 33.2682291666667 13.4278846153846  C 34.4227430555556 14.5849358974359  35 15.947516025641  35 17.515625  C 35 18.8705929487179  34.6278211805556 20.1113782051282  33.8834635416667 21.2379807692308  C 34.0201822916667 21.7403846153846  34.0885416666667 22.265625  34.0885416666667 22.8137019230769  C 34.0885416666667 23.9859775641026  33.7999131944444 25.0821314102564  33.22265625 26.1021634615385  C 33.2682291666667 26.421875  33.291015625 26.7491987179487  33.291015625 27.0841346153846  C 33.291015625 28.6217948717949  32.8352864583333 29.9767628205128  31.923828125 31.1490384615385  C 31.9390190972222 33.2652243589744  31.2934027777778 34.9360977564103  29.9869791666667 36.1616586538462  C 28.6805555555556 37.3872195512821  26.9563802083333 38  24.814453125 38  L 23.994140625 38  L 21.875 38  C 20.4166666666667 38  18.9773220486111 37.8287259615385  17.5569661458333 37.4861778846154  C 16.1366102430556 37.1436298076923  14.4921875 36.6450320512821  12.6236979166667 35.9903846153846  C 10.8615451388889 35.3814102564103  9.81336805555556 35.0769230769231  9.47916666666667 35.0769230769231  L 2.91666666666667 35.0769230769231  C 2.11154513888889 35.0769230769231  1.42415364583333 34.7914663461538  0.8544921875 34.2205528846154  C 0.284830729166667 33.6496394230769  0 32.9607371794872  0 32.1538461538462  L 0 17.5384615384615  C 0 16.7315705128205  0.284830729166667 16.0426682692308  0.8544921875 15.4717548076923  C 1.42415364583333 14.9008413461538  2.11154513888889 14.6153846153846  2.91666666666667 14.6153846153846  L 9.16015625 14.6153846153846  C 9.70703125 14.25  10.7476128472222 13.0701121794872  12.2819010416667 11.0757211538462  C 13.1629774305556 9.93389423076923  13.9756944444444 8.95953525641025  14.7200520833333 8.15264423076923  C 15.0846354166667 7.77203525641025  15.3542751736111 7.12119391025641  15.5289713541667 6.20012019230769  C 15.7036675347222 5.27904647435897  15.9353298611111 4.31610576923077  16.2239583333333 3.31129807692308  C 16.5125868055556 2.30649038461539  16.9835069444444 1.484375  17.63671875 0.844951923076921  C 18.2291666666667 0.281650641025643  18.9127604166667 0  19.6875 0  C 20.9635416666667 0  22.1104600694444 0.247395833333336  23.1282552083333 0.7421875  C 24.1460503472222 1.23697916666666  24.9207899305556 2.00961538461539  25.4524739583333 3.06009615384615  C 25.9841579861111 4.11057692307692  26.25 5.52644230769231  26.25 7.30769230769231  C 26.25 8.72355769230769  25.8854166666667 10.1850961538462  25.15625 11.6923076923077  L 29.1666666666667 11.6923076923077  C 30.7465277777778 11.6923076923077  32.1137152777778 12.2708333333333  33.2682291666667 13.4278846153846  Z " fill-rule="nonzero" fill="#000000" stroke="none" transform="matrix(1 0 0 1 305 947 )" />
  </g>
</svg>