﻿<?xml version="1.0" encoding="utf-8"?>
<svg version="1.1" xmlns:xlink="http://www.w3.org/1999/xlink" width="250px" height="250px" xmlns="http://www.w3.org/2000/svg">
  <g transform="matrix(1 0 0 1 -663 -289 )">
    <path d="M 788 289  C 858 289  913 344  913 414  C 913 484  858 539  788 539  C 718 539  663 484  663 414  C 663 344  718 289  788 289  Z " fill-rule="nonzero" fill="#ffffff" stroke="none" />
    <path d="M 788 289.5  C 857.72 289.5  912.5 344.28  912.5 414  C 912.5 483.72  857.72 538.5  788 538.5  C 718.28 538.5  663.5 483.72  663.5 414  C 663.5 344.28  718.28 289.5  788 289.5  Z " stroke-width="1" stroke="#797979" fill="none" />
  </g>
</svg>