﻿<?xml version="1.0" encoding="utf-8"?>
<svg version="1.1" xmlns:xlink="http://www.w3.org/1999/xlink" width="12px" height="12px" viewBox="468 247  12 12" xmlns="http://www.w3.org/2000/svg">
  <path d="M 468.5 247.5  L 479.5 247.5  L 479.5 258.5  L 468.5 258.5  L 468.5 247.5  Z " fill-rule="nonzero" fill="#ffffff" stroke="none" />
  <path d="M 468.5 247.5  L 479.5 247.5  L 479.5 258.5  L 468.5 258.5  L 468.5 247.5  Z " stroke-width="1" stroke="#797979" fill="none" />
  <path d="M 470.571428571429 253  L 473.142857142857 255.571428571429  " stroke-width="2.57142857142857" stroke="#797979" fill="none" />
  <path d="M 473.142857142857 255.571428571429  L 477.428571428571 249.571428571429  " stroke-width="2.57142857142857" stroke="#797979" fill="none" />
</svg>