﻿<?xml version="1.0" encoding="utf-8"?>
<svg version="1.1" xmlns:xlink="http://www.w3.org/1999/xlink" width="12px" height="12px" viewBox="540 311  12 12" xmlns="http://www.w3.org/2000/svg">
  <path d="M 540.5 311.5  L 551.5 311.5  L 551.5 322.5  L 540.5 322.5  L 540.5 311.5  Z " fill-rule="nonzero" fill="#f0f0f0" stroke="none" />
  <path d="M 540.5 311.5  L 551.5 311.5  L 551.5 322.5  L 540.5 322.5  L 540.5 311.5  Z " stroke-width="1" stroke="#797979" fill="none" />
  <path d="M 542.571428571429 317  L 545.142857142857 319.571428571429  " stroke-width="2.57142857142857" stroke="#797979" fill="none" />
  <path d="M 545.142857142857 319.571428571429  L 549.428571428571 313.571428571429  " stroke-width="2.57142857142857" stroke="#797979" fill="none" />
</svg>