﻿<?xml version="1.0" encoding="utf-8"?>
<svg version="1.1" xmlns:xlink="http://www.w3.org/1999/xlink" width="12px" height="12px" viewBox="442 346  12 12" xmlns="http://www.w3.org/2000/svg">
  <path d="M 442.5 346.5  L 453.5 346.5  L 453.5 357.5  L 442.5 357.5  L 442.5 346.5  Z " fill-rule="nonzero" fill="#ffffff" stroke="none" />
  <path d="M 442.5 346.5  L 453.5 346.5  L 453.5 357.5  L 442.5 357.5  L 442.5 346.5  Z " stroke-width="1" stroke="#797979" fill="none" />
  <path d="M 444.571428571429 352  L 447.142857142857 354.571428571429  " stroke-width="2.57142857142857" stroke="#797979" fill="none" />
  <path d="M 447.142857142857 354.571428571429  L 451.428571428571 348.571428571429  " stroke-width="2.57142857142857" stroke="#797979" fill="none" />
</svg>