﻿<?xml version="1.0" encoding="utf-8"?>
<svg version="1.1" xmlns:xlink="http://www.w3.org/1999/xlink" width="12px" height="12px" viewBox="521 287  12 12" xmlns="http://www.w3.org/2000/svg">
  <path d="M 527 287  C 530.36 287  533 289.64  533 293  C 533 296.36  530.36 299  527 299  C 523.64 299  521 296.36  521 293  C 521 289.64  523.64 287  527 287  Z " fill-rule="nonzero" fill="#f0f0f0" stroke="none" />
  <path d="M 527 287.5  C 530.08 287.5  532.5 289.92  532.5 293  C 532.5 296.08  530.08 298.5  527 298.5  C 523.92 298.5  521.5 296.08  521.5 293  C 521.5 289.92  523.92 287.5  527 287.5  Z " stroke-width="1" stroke="#797979" fill="none" />
  <path d="M 527 296  C 525.32 296  524 294.68  524 293  C 524 291.32  525.32 290  527 290  C 528.68 290  530 291.32  530 293  C 530 294.68  528.68 296  527 296  " fill-rule="nonzero" fill="#797979" stroke="none" />
</svg>