﻿<?xml version="1.0" encoding="utf-8"?>
<svg version="1.1" xmlns:xlink="http://www.w3.org/1999/xlink" width="12px" height="12px" viewBox="1233 3032  12 12" xmlns="http://www.w3.org/2000/svg">
  <path d="M 1239 3032  C 1242.36 3032  1245 3034.64  1245 3038  C 1245 3041.36  1242.36 3044  1239 3044  C 1235.64 3044  1233 3041.36  1233 3038  C 1233 3034.64  1235.64 3032  1239 3032  Z " fill-rule="nonzero" fill="#f0f0f0" stroke="none" />
  <path d="M 1239 3032.5  C 1242.08 3032.5  1244.5 3034.92  1244.5 3038  C 1244.5 3041.08  1242.08 3043.5  1239 3043.5  C 1235.92 3043.5  1233.5 3041.08  1233.5 3038  C 1233.5 3034.92  1235.92 3032.5  1239 3032.5  Z " stroke-width="1" stroke="#797979" fill="none" />
</svg>