﻿<?xml version="1.0" encoding="utf-8"?>
<svg version="1.1" xmlns:xlink="http://www.w3.org/1999/xlink" width="12px" height="12px" viewBox="884 3127.5  12 12" xmlns="http://www.w3.org/2000/svg">
  <path d="M 890 3127.5  C 893.36 3127.5  896 3130.14  896 3133.5  C 896 3136.86  893.36 3139.5  890 3139.5  C 886.64 3139.5  884 3136.86  884 3133.5  C 884 3130.14  886.64 3127.5  890 3127.5  Z " fill-rule="nonzero" fill="#ffffff" stroke="none" />
  <path d="M 890 3128  C 893.08 3128  895.5 3130.42  895.5 3133.5  C 895.5 3136.58  893.08 3139  890 3139  C 886.92 3139  884.5 3136.58  884.5 3133.5  C 884.5 3130.42  886.92 3128  890 3128  Z " stroke-width="1" stroke="#797979" fill="none" />
</svg>