﻿<?xml version="1.0" encoding="utf-8"?>
<svg version="1.1" xmlns:xlink="http://www.w3.org/1999/xlink" width="12px" height="12px" viewBox="1199 3127.5  12 12" xmlns="http://www.w3.org/2000/svg">
  <path d="M 1205 3127.5  C 1208.36 3127.5  1211 3130.14  1211 3133.5  C 1211 3136.86  1208.36 3139.5  1205 3139.5  C 1201.64 3139.5  1199 3136.86  1199 3133.5  C 1199 3130.14  1201.64 3127.5  1205 3127.5  Z " fill-rule="nonzero" fill="#ffffff" stroke="none" />
  <path d="M 1205 3128  C 1208.08 3128  1210.5 3130.42  1210.5 3133.5  C 1210.5 3136.58  1208.08 3139  1205 3139  C 1201.92 3139  1199.5 3136.58  1199.5 3133.5  C 1199.5 3130.42  1201.92 3128  1205 3128  Z " stroke-width="1" stroke="#797979" fill="none" />
</svg>