﻿<?xml version="1.0" encoding="utf-8"?>
<svg version="1.1" xmlns:xlink="http://www.w3.org/1999/xlink" width="39px" height="38px" xmlns="http://www.w3.org/2000/svg">
  <g transform="matrix(1 0 0 1 -259 -40 )">
    <path d="M 38.0197010869565 16.8048780487805  C 38.6732336956522 17.3739837398374  39 18.1056910569106  39 19  C 39 19.8780487804878  38.6732336956522 20.6178861788618  38.0197010869565 21.219512195122  L 20.7717391304348 37.0975609756098  C 20.0828804347826 37.6991869918699  19.2792119565217 38  18.3607336956522 38  C 17.4599184782609 38  16.6650815217391 37.6991869918699  15.976222826087 37.0975609756098  L 13.9891304347826 35.2682926829268  C 13.3179347826087 34.650406504065  12.9823369565217 33.9105691056911  12.9823369565217 33.0487804878049  C 12.9823369565217 32.1869918699187  13.3179347826087 31.4471544715447  13.9891304347826 30.8292682926829  L 21.7520380434783 23  L 3.09986413043478 23  C 2.18138586956522 23.6829268292683  1.4351222826087 23.3780487804878  0.861073369565217 22.7682926829268  C 0.287024456521739 22.1585365853659  0 21.4227642276423  0 20.5609756097561  L 0 17.4390243902439  C 0 16.5772357723577  0.287024456521739 15.8414634146341  0.861073369565217 15.2317073170732  C 1.4351222826087 14.6219512195122  2.18138586956522 14.3170731707317  3.09986413043478 15  L 21.7520380434783 15  L 13.9891304347826 7.14634146341464  C 13.3179347826087 6.5609756097561  12.9823369565217 5.82926829268293  12.9823369565217 4.95121951219512  C 12.9823369565217 4.07317073170732  13.3179347826087 3.34146341463415  13.9891304347826 2.75609756097561  L 15.976222826087 0.926829268292684  C 16.6474184782609 0.308943089430892  17.4422554347826 0  18.3607336956522 0  C 19.296875 0  20.1005434782609 0.308943089430892  20.7717391304348 0.926829268292684  L 38.0197010869565 16.8048780487805  Z " fill-rule="nonzero" fill="#000000" stroke="none" transform="matrix(1 0 0 1 259 40 )" />
  </g>
</svg>