﻿<?xml version="1.0" encoding="utf-8"?>
<svg version="1.1" xmlns:xlink="http://www.w3.org/1999/xlink" width="160px" height="160px" xmlns="http://www.w3.org/2000/svg">
  <g transform="matrix(1 0 0 1 -30 -89 )">
    <path d="M 110 89  C 154.8 89  190 124.2  190 169  C 190 213.8  154.8 249  110 249  C 65.2 249  30 213.8  30 169  C 30 124.2  65.2 89  110 89  Z " fill-rule="nonzero" fill="#ffffff" stroke="none" />
    <path d="M 110 89.5  C 154.52 89.5  189.5 124.48  189.5 169  C 189.5 213.52  154.52 248.5  110 248.5  C 65.48 248.5  30.5 213.52  30.5 169  C 30.5 124.48  65.48 89.5  110 89.5  Z " stroke-width="1" stroke="#797979" fill="none" />
  </g>
</svg>