﻿<?xml version="1.0" encoding="utf-8"?>
<svg version="1.1" xmlns:xlink="http://www.w3.org/1999/xlink" width="180px" height="150px" xmlns="http://www.w3.org/2000/svg">
  <g transform="matrix(1 0 0 1 -20 -90 )">
    <path d="M 20.5813776741499 165  L 65.28137767415 90.5  L 154.71862232585 90.5  L 199.41862232585 165  L 154.71862232585 239.5  L 65.28137767415 239.5  L 20.5813776741499 165  Z " fill-rule="nonzero" fill="#ffffff" stroke="none" />
    <path d="M 20 165  L 65 90  L 155 90  L 200 165  L 155 240  L 65 240  L 20 165  Z M 65.5627553482999 91  L 21.1627553482999 165  L 65.5627553482999 239  L 154.4372446517 239  L 198.8372446517 165  L 154.4372446517 91  L 65.5627553482999 91  Z " fill-rule="nonzero" fill="#797979" stroke="none" />
  </g>
</svg>