﻿<?xml version="1.0" encoding="utf-8"?>
<svg version="1.1" xmlns:xlink="http://www.w3.org/1999/xlink" width="12px" height="12px" viewBox="1073 3152  12 12" xmlns="http://www.w3.org/2000/svg">
  <path d="M 1079 3152  C 1082.36 3152  1085 3154.64  1085 3158  C 1085 3161.36  1082.36 3164  1079 3164  C 1075.64 3164  1073 3161.36  1073 3158  C 1073 3154.64  1075.64 3152  1079 3152  Z " fill-rule="nonzero" fill="#ffffff" stroke="none" />
  <path d="M 1079 3152.5  C 1082.08 3152.5  1084.5 3154.92  1084.5 3158  C 1084.5 3161.08  1082.08 3163.5  1079 3163.5  C 1075.92 3163.5  1073.5 3161.08  1073.5 3158  C 1073.5 3154.92  1075.92 3152.5  1079 3152.5  Z " stroke-width="1" stroke="#797979" fill="none" />
  <path d="M 1079 3161  C 1077.32 3161  1076 3159.68  1076 3158  C 1076 3156.32  1077.32 3155  1079 3155  C 1080.68 3155  1082 3156.32  1082 3158  C 1082 3159.68  1080.68 3161  1079 3161  " fill-rule="nonzero" fill="#797979" stroke="none" />
</svg>