﻿<?xml version="1.0" encoding="utf-8"?>
<svg version="1.1" xmlns:xlink="http://www.w3.org/1999/xlink" width="12px" height="12px" viewBox="891 3152  12 12" xmlns="http://www.w3.org/2000/svg">
  <path d="M 897 3152  C 900.36 3152  903 3154.64  903 3158  C 903 3161.36  900.36 3164  897 3164  C 893.64 3164  891 3161.36  891 3158  C 891 3154.64  893.64 3152  897 3152  Z " fill-rule="nonzero" fill="#f0f0f0" stroke="none" />
  <path d="M 897 3152.5  C 900.08 3152.5  902.5 3154.92  902.5 3158  C 902.5 3161.08  900.08 3163.5  897 3163.5  C 893.92 3163.5  891.5 3161.08  891.5 3158  C 891.5 3154.92  893.92 3152.5  897 3152.5  Z " stroke-width="1" stroke="#797979" fill="none" />
  <path d="M 897 3161  C 895.32 3161  894 3159.68  894 3158  C 894 3156.32  895.32 3155  897 3155  C 898.68 3155  900 3156.32  900 3158  C 900 3159.68  898.68 3161  897 3161  " fill-rule="nonzero" fill="#797979" stroke="none" />
</svg>