﻿<?xml version="1.0" encoding="utf-8"?>
<svg version="1.1" xmlns:xlink="http://www.w3.org/1999/xlink" width="12px" height="12px" viewBox="1206 3247.5  12 12" xmlns="http://www.w3.org/2000/svg">
  <path d="M 1212 3247.5  C 1215.36 3247.5  1218 3250.14  1218 3253.5  C 1218 3256.86  1215.36 3259.5  1212 3259.5  C 1208.64 3259.5  1206 3256.86  1206 3253.5  C 1206 3250.14  1208.64 3247.5  1212 3247.5  Z " fill-rule="nonzero" fill="#f0f0f0" stroke="none" />
  <path d="M 1212 3248  C 1215.08 3248  1217.5 3250.42  1217.5 3253.5  C 1217.5 3256.58  1215.08 3259  1212 3259  C 1208.92 3259  1206.5 3256.58  1206.5 3253.5  C 1206.5 3250.42  1208.92 3248  1212 3248  Z " stroke-width="1" stroke="#797979" fill="none" />
  <path d="M 1212 3256.5  C 1210.32 3256.5  1209 3255.18  1209 3253.5  C 1209 3251.82  1210.32 3250.5  1212 3250.5  C 1213.68 3250.5  1215 3251.82  1215 3253.5  C 1215 3255.18  1213.68 3256.5  1212 3256.5  " fill-rule="nonzero" fill="#797979" stroke="none" />
</svg>