﻿<?xml version="1.0" encoding="utf-8"?>
<svg version="1.1" xmlns:xlink="http://www.w3.org/1999/xlink" width="12px" height="12px" viewBox="1001 3247.5  12 12" xmlns="http://www.w3.org/2000/svg">
  <path d="M 1007 3247.5  C 1010.36 3247.5  1013 3250.14  1013 3253.5  C 1013 3256.86  1010.36 3259.5  1007 3259.5  C 1003.64 3259.5  1001 3256.86  1001 3253.5  C 1001 3250.14  1003.64 3247.5  1007 3247.5  Z " fill-rule="nonzero" fill="#ffffff" stroke="none" />
  <path d="M 1007 3248  C 1010.08 3248  1012.5 3250.42  1012.5 3253.5  C 1012.5 3256.58  1010.08 3259  1007 3259  C 1003.92 3259  1001.5 3256.58  1001.5 3253.5  C 1001.5 3250.42  1003.92 3248  1007 3248  Z " stroke-width="1" stroke="#797979" fill="none" />
  <path d="M 1007 3256.5  C 1005.32 3256.5  1004 3255.18  1004 3253.5  C 1004 3251.82  1005.32 3250.5  1007 3250.5  C 1008.68 3250.5  1010 3251.82  1010 3253.5  C 1010 3255.18  1008.68 3256.5  1007 3256.5  " fill-rule="nonzero" fill="#797979" stroke="none" />
</svg>