﻿<?xml version="1.0" encoding="utf-8"?>
<svg version="1.1" xmlns:xlink="http://www.w3.org/1999/xlink" width="12px" height="12px" viewBox="891 3247.5  12 12" xmlns="http://www.w3.org/2000/svg">
  <path d="M 897 3247.5  C 900.36 3247.5  903 3250.14  903 3253.5  C 903 3256.86  900.36 3259.5  897 3259.5  C 893.64 3259.5  891 3256.86  891 3253.5  C 891 3250.14  893.64 3247.5  897 3247.5  Z " fill-rule="nonzero" fill="#ffffff" stroke="none" />
  <path d="M 897 3248  C 900.08 3248  902.5 3250.42  902.5 3253.5  C 902.5 3256.58  900.08 3259  897 3259  C 893.92 3259  891.5 3256.58  891.5 3253.5  C 891.5 3250.42  893.92 3248  897 3248  Z " stroke-width="1" stroke="#797979" fill="none" />
  <path d="M 897 3256.5  C 895.32 3256.5  894 3255.18  894 3253.5  C 894 3251.82  895.32 3250.5  897 3250.5  C 898.68 3250.5  900 3251.82  900 3253.5  C 900 3255.18  898.68 3256.5  897 3256.5  " fill-rule="nonzero" fill="#797979" stroke="none" />
</svg>