﻿<?xml version="1.0" encoding="utf-8"?>
<svg version="1.1" xmlns:xlink="http://www.w3.org/1999/xlink" width="12px" height="12px" viewBox="431 275  12 12" xmlns="http://www.w3.org/2000/svg">
  <path d="M 431.5 275.5  L 442.5 275.5  L 442.5 286.5  L 431.5 286.5  L 431.5 275.5  Z " fill-rule="nonzero" fill="#ffffff" stroke="none" />
  <path d="M 431.5 275.5  L 442.5 275.5  L 442.5 286.5  L 431.5 286.5  L 431.5 275.5  Z " stroke-width="1" stroke="#797979" fill="none" />
  <path d="M 433.571428571429 281  L 436.142857142857 283.571428571429  " stroke-width="2.57142857142857" stroke="#797979" fill="none" />
  <path d="M 436.142857142857 283.571428571429  L 440.428571428571 277.571428571429  " stroke-width="2.57142857142857" stroke="#797979" fill="none" />
</svg>