﻿<?xml version="1.0" encoding="utf-8"?>
<svg version="1.1" xmlns:xlink="http://www.w3.org/1999/xlink" width="12px" height="12px" viewBox="676 212  12 12" xmlns="http://www.w3.org/2000/svg">
  <path d="M 676.5 212.5  L 687.5 212.5  L 687.5 223.5  L 676.5 223.5  L 676.5 212.5  Z " fill-rule="nonzero" fill="#ffffff" stroke="none" />
  <path d="M 676.5 212.5  L 687.5 212.5  L 687.5 223.5  L 676.5 223.5  L 676.5 212.5  Z " stroke-width="1" stroke="#797979" fill="none" />
  <path d="M 678.571428571429 218  L 681.142857142857 220.571428571429  " stroke-width="2.57142857142857" stroke="#797979" fill="none" />
  <path d="M 681.142857142857 220.571428571429  L 685.428571428571 214.571428571429  " stroke-width="2.57142857142857" stroke="#797979" fill="none" />
</svg>