﻿<?xml version="1.0" encoding="utf-8"?>
<svg version="1.1" xmlns:xlink="http://www.w3.org/1999/xlink" width="12px" height="12px" viewBox="587 242  12 12" xmlns="http://www.w3.org/2000/svg">
  <path d="M 587.5 242.5  L 598.5 242.5  L 598.5 253.5  L 587.5 253.5  L 587.5 242.5  Z " fill-rule="nonzero" fill="#ffffff" stroke="none" />
  <path d="M 587.5 242.5  L 598.5 242.5  L 598.5 253.5  L 587.5 253.5  L 587.5 242.5  Z " stroke-width="1" stroke="#797979" fill="none" />
  <path d="M 589.571428571429 248  L 592.142857142857 250.571428571429  " stroke-width="2.57142857142857" stroke="#797979" fill="none" />
  <path d="M 592.142857142857 250.571428571429  L 596.428571428571 244.571428571429  " stroke-width="2.57142857142857" stroke="#797979" fill="none" />
</svg>