﻿<?xml version="1.0" encoding="utf-8"?>
<svg version="1.1" xmlns:xlink="http://www.w3.org/1999/xlink" width="12px" height="12px" viewBox="539 726  12 12" xmlns="http://www.w3.org/2000/svg">
  <path d="M 539.5 726.5  L 550.5 726.5  L 550.5 737.5  L 539.5 737.5  L 539.5 726.5  Z " fill-rule="nonzero" fill="#f0f0f0" stroke="none" />
  <path d="M 539.5 726.5  L 550.5 726.5  L 550.5 737.5  L 539.5 737.5  L 539.5 726.5  Z " stroke-width="1" stroke="#797979" fill="none" />
  <path d="M 541.571428571429 732  L 544.142857142857 734.571428571429  " stroke-width="2.57142857142857" stroke="#797979" fill="none" />
  <path d="M 544.142857142857 734.571428571429  L 548.428571428571 728.571428571429  " stroke-width="2.57142857142857" stroke="#797979" fill="none" />
</svg>