﻿<?xml version="1.0" encoding="utf-8"?>
<svg version="1.1" xmlns:xlink="http://www.w3.org/1999/xlink" width="12px" height="12px" viewBox="605 318  12 12" xmlns="http://www.w3.org/2000/svg">
  <path d="M 605.5 318.5  L 616.5 318.5  L 616.5 329.5  L 605.5 329.5  L 605.5 318.5  Z " fill-rule="nonzero" fill="#ffffff" stroke="none" />
  <path d="M 605.5 318.5  L 616.5 318.5  L 616.5 329.5  L 605.5 329.5  L 605.5 318.5  Z " stroke-width="1" stroke="#797979" fill="none" />
  <path d="M 607.571428571429 324  L 610.142857142857 326.571428571429  " stroke-width="2.57142857142857" stroke="#797979" fill="none" />
  <path d="M 610.142857142857 326.571428571429  L 614.428571428571 320.571428571429  " stroke-width="2.57142857142857" stroke="#797979" fill="none" />
</svg>