﻿<?xml version="1.0" encoding="utf-8"?>
<svg version="1.1" xmlns:xlink="http://www.w3.org/1999/xlink" width="12px" height="12px" viewBox="763 318  12 12" xmlns="http://www.w3.org/2000/svg">
  <path d="M 763.5 318.5  L 774.5 318.5  L 774.5 329.5  L 763.5 329.5  L 763.5 318.5  Z " fill-rule="nonzero" fill="#f0f0f0" stroke="none" />
  <path d="M 763.5 318.5  L 774.5 318.5  L 774.5 329.5  L 763.5 329.5  L 763.5 318.5  Z " stroke-width="1" stroke="#797979" fill="none" />
  <path d="M 765.571428571429 324  L 768.142857142857 326.571428571429  " stroke-width="2.57142857142857" stroke="#797979" fill="none" />
  <path d="M 768.142857142857 326.571428571429  L 772.428571428571 320.571428571429  " stroke-width="2.57142857142857" stroke="#797979" fill="none" />
</svg>