﻿<?xml version="1.0" encoding="utf-8"?>
<svg version="1.1" xmlns:xlink="http://www.w3.org/1999/xlink" width="12px" height="12px" viewBox="747 382  12 12" xmlns="http://www.w3.org/2000/svg">
  <path d="M 747.5 382.5  L 758.5 382.5  L 758.5 393.5  L 747.5 393.5  L 747.5 382.5  Z " fill-rule="nonzero" fill="#ffffff" stroke="none" />
  <path d="M 747.5 382.5  L 758.5 382.5  L 758.5 393.5  L 747.5 393.5  L 747.5 382.5  Z " stroke-width="1" stroke="#797979" fill="none" />
  <path d="M 749.571428571429 388  L 752.142857142857 390.571428571429  " stroke-width="2.57142857142857" stroke="#797979" fill="none" />
  <path d="M 752.142857142857 390.571428571429  L 756.428571428571 384.571428571429  " stroke-width="2.57142857142857" stroke="#797979" fill="none" />
</svg>