﻿<?xml version="1.0" encoding="utf-8"?>
<svg version="1.1" xmlns:xlink="http://www.w3.org/1999/xlink" width="12px" height="12px" viewBox="831 382  12 12" xmlns="http://www.w3.org/2000/svg">
  <path d="M 831.5 382.5  L 842.5 382.5  L 842.5 393.5  L 831.5 393.5  L 831.5 382.5  Z " fill-rule="nonzero" fill="#f0f0f0" stroke="none" />
  <path d="M 831.5 382.5  L 842.5 382.5  L 842.5 393.5  L 831.5 393.5  L 831.5 382.5  Z " stroke-width="1" stroke="#797979" fill="none" />
  <path d="M 833.571428571429 388  L 836.142857142857 390.571428571429  " stroke-width="2.57142857142857" stroke="#797979" fill="none" />
  <path d="M 836.142857142857 390.571428571429  L 840.428571428571 384.571428571429  " stroke-width="2.57142857142857" stroke="#797979" fill="none" />
</svg>