﻿<?xml version="1.0" encoding="utf-8"?>
<svg version="1.1" xmlns:xlink="http://www.w3.org/1999/xlink" width="12px" height="12px" viewBox="790 726  12 12" xmlns="http://www.w3.org/2000/svg">
  <path d="M 790.5 726.5  L 801.5 726.5  L 801.5 737.5  L 790.5 737.5  L 790.5 726.5  Z " fill-rule="nonzero" fill="#f0f0f0" stroke="none" />
  <path d="M 790.5 726.5  L 801.5 726.5  L 801.5 737.5  L 790.5 737.5  L 790.5 726.5  Z " stroke-width="1" stroke="#797979" fill="none" />
  <path d="M 792.571428571429 732  L 795.142857142857 734.571428571429  " stroke-width="2.57142857142857" stroke="#797979" fill="none" />
  <path d="M 795.142857142857 734.571428571429  L 799.428571428571 728.571428571429  " stroke-width="2.57142857142857" stroke="#797979" fill="none" />
</svg>