﻿<?xml version="1.0" encoding="utf-8"?>
<svg version="1.1" xmlns:xlink="http://www.w3.org/1999/xlink" width="12px" height="12px" viewBox="844 318  12 12" xmlns="http://www.w3.org/2000/svg">
  <path d="M 844.5 318.5  L 855.5 318.5  L 855.5 329.5  L 844.5 329.5  L 844.5 318.5  Z " fill-rule="nonzero" fill="#ffffff" stroke="none" />
  <path d="M 844.5 318.5  L 855.5 318.5  L 855.5 329.5  L 844.5 329.5  L 844.5 318.5  Z " stroke-width="1" stroke="#797979" fill="none" />
  <path d="M 846.571428571429 324  L 849.142857142857 326.571428571429  " stroke-width="2.57142857142857" stroke="#797979" fill="none" />
  <path d="M 849.142857142857 326.571428571429  L 853.428571428571 320.571428571429  " stroke-width="2.57142857142857" stroke="#797979" fill="none" />
</svg>