﻿<?xml version="1.0" encoding="utf-8"?>
<svg version="1.1" xmlns:xlink="http://www.w3.org/1999/xlink" width="12px" height="12px" viewBox="401 358  12 12" xmlns="http://www.w3.org/2000/svg">
  <path d="M 407 358  C 410.36 358  413 360.64  413 364  C 413 367.36  410.36 370  407 370  C 403.64 370  401 367.36  401 364  C 401 360.64  403.64 358  407 358  Z " fill-rule="nonzero" fill="#ffffff" stroke="none" />
  <path d="M 407 358.5  C 410.08 358.5  412.5 360.92  412.5 364  C 412.5 367.08  410.08 369.5  407 369.5  C 403.92 369.5  401.5 367.08  401.5 364  C 401.5 360.92  403.92 358.5  407 358.5  Z " stroke-width="1" stroke="#797979" fill="none" />
</svg>