﻿<?xml version="1.0" encoding="utf-8"?>
<svg version="1.1" xmlns:xlink="http://www.w3.org/1999/xlink" width="12px" height="12px" viewBox="459 358  12 12" xmlns="http://www.w3.org/2000/svg">
  <path d="M 465 358  C 468.36 358  471 360.64  471 364  C 471 367.36  468.36 370  465 370  C 461.64 370  459 367.36  459 364  C 459 360.64  461.64 358  465 358  Z " fill-rule="nonzero" fill="#ffffff" stroke="none" />
  <path d="M 465 358.5  C 468.08 358.5  470.5 360.92  470.5 364  C 470.5 367.08  468.08 369.5  465 369.5  C 461.92 369.5  459.5 367.08  459.5 364  C 459.5 360.92  461.92 358.5  465 358.5  Z " stroke-width="1" stroke="#797979" fill="none" />
</svg>