﻿<?xml version="1.0" encoding="utf-8"?>
<svg version="1.1" xmlns:xlink="http://www.w3.org/1999/xlink" width="265px" height="127px" xmlns="http://www.w3.org/2000/svg">
  <defs>
    <mask fill="white" id="clip160">
      <path d="M 381 1915  L 532 1915  L 532 1991  L 381 1991  Z M 323 1888  L 588 1888  L 588 2015  L 323 2015  Z " fill-rule="evenodd" />
    </mask>
  </defs>
  <g transform="matrix(1 0 0 1 -323 -1888 )">
    <path d="M 323.5 1888.5  L 587.5 1888.5  L 587.5 2014.5  L 323.5 2014.5  L 323.5 1888.5  Z " fill-rule="nonzero" fill="#f2f2f2" stroke="none" />
    <path d="M 323.5 1888.5  L 587.5 1888.5  L 587.5 2014.5  L 323.5 2014.5  L 323.5 1888.5  Z " stroke-width="1" stroke="#797979" fill="none" />
    <path d="M 323.940842227804 1888.45089419974  L 587.059157772196 2014.54910580026  M 587.059157772196 1888.45089419974  L 323.940842227804 2014.54910580026  " stroke-width="1" stroke="#797979" fill="none" mask="url(#clip160)" />
  </g>
</svg>