﻿<?xml version="1.0" encoding="utf-8"?>
<svg version="1.1" xmlns:xlink="http://www.w3.org/1999/xlink" width="12px" height="12px" viewBox="550 627.5  12 12" xmlns="http://www.w3.org/2000/svg">
  <path d="M 556 627.5  C 559.36 627.5  562 630.14  562 633.5  C 562 636.86  559.36 639.5  556 639.5  C 552.64 639.5  550 636.86  550 633.5  C 550 630.14  552.64 627.5  556 627.5  Z " fill-rule="nonzero" fill="#f0f0f0" stroke="none" />
  <path d="M 556 628  C 559.08 628  561.5 630.42  561.5 633.5  C 561.5 636.58  559.08 639  556 639  C 552.92 639  550.5 636.58  550.5 633.5  C 550.5 630.42  552.92 628  556 628  Z " stroke-width="1" stroke="#797979" fill="none" />
</svg>