﻿<?xml version="1.0" encoding="utf-8"?>
<svg version="1.1" xmlns:xlink="http://www.w3.org/1999/xlink" width="12px" height="12px" viewBox="641 849.5  12 12" xmlns="http://www.w3.org/2000/svg">
  <path d="M 647 849.5  C 650.36 849.5  653 852.14  653 855.5  C 653 858.86  650.36 861.5  647 861.5  C 643.64 861.5  641 858.86  641 855.5  C 641 852.14  643.64 849.5  647 849.5  Z " fill-rule="nonzero" fill="#f0f0f0" stroke="none" />
  <path d="M 647 850  C 650.08 850  652.5 852.42  652.5 855.5  C 652.5 858.58  650.08 861  647 861  C 643.92 861  641.5 858.58  641.5 855.5  C 641.5 852.42  643.92 850  647 850  Z " stroke-width="1" stroke="#797979" fill="none" />
  <path d="M 647 858.5  C 645.32 858.5  644 857.18  644 855.5  C 644 853.82  645.32 852.5  647 852.5  C 648.68 852.5  650 853.82  650 855.5  C 650 857.18  648.68 858.5  647 858.5  " fill-rule="nonzero" fill="#797979" stroke="none" />
</svg>