﻿<?xml version="1.0" encoding="utf-8"?>
<svg version="1.1" xmlns:xlink="http://www.w3.org/1999/xlink" width="12px" height="12px" viewBox="969 849.5  12 12" xmlns="http://www.w3.org/2000/svg">
  <path d="M 975 849.5  C 978.36 849.5  981 852.14  981 855.5  C 981 858.86  978.36 861.5  975 861.5  C 971.64 861.5  969 858.86  969 855.5  C 969 852.14  971.64 849.5  975 849.5  Z " fill-rule="nonzero" fill="#f0f0f0" stroke="none" />
  <path d="M 975 850  C 978.08 850  980.5 852.42  980.5 855.5  C 980.5 858.58  978.08 861  975 861  C 971.92 861  969.5 858.58  969.5 855.5  C 969.5 852.42  971.92 850  975 850  Z " stroke-width="1" stroke="#797979" fill="none" />
  <path d="M 975 858.5  C 973.32 858.5  972 857.18  972 855.5  C 972 853.82  973.32 852.5  975 852.5  C 976.68 852.5  978 853.82  978 855.5  C 978 857.18  976.68 858.5  975 858.5  " fill-rule="nonzero" fill="#797979" stroke="none" />
</svg>