﻿<?xml version="1.0" encoding="utf-8"?>
<svg version="1.1" xmlns:xlink="http://www.w3.org/1999/xlink" width="12px" height="12px" viewBox="830 849.5  12 12" xmlns="http://www.w3.org/2000/svg">
  <path d="M 836 849.5  C 839.36 849.5  842 852.14  842 855.5  C 842 858.86  839.36 861.5  836 861.5  C 832.64 861.5  830 858.86  830 855.5  C 830 852.14  832.64 849.5  836 849.5  Z " fill-rule="nonzero" fill="#ffffff" stroke="none" />
  <path d="M 836 850  C 839.08 850  841.5 852.42  841.5 855.5  C 841.5 858.58  839.08 861  836 861  C 832.92 861  830.5 858.58  830.5 855.5  C 830.5 852.42  832.92 850  836 850  Z " stroke-width="1" stroke="#797979" fill="none" />
</svg>