﻿<?xml version="1.0" encoding="utf-8"?>
<svg version="1.1" xmlns:xlink="http://www.w3.org/1999/xlink" width="12px" height="12px" viewBox="601 1067.5  12 12" xmlns="http://www.w3.org/2000/svg">
  <path d="M 607 1067.5  C 610.36 1067.5  613 1070.14  613 1073.5  C 613 1076.86  610.36 1079.5  607 1079.5  C 603.64 1079.5  601 1076.86  601 1073.5  C 601 1070.14  603.64 1067.5  607 1067.5  Z " fill-rule="nonzero" fill="#f0f0f0" stroke="none" />
  <path d="M 607 1068  C 610.08 1068  612.5 1070.42  612.5 1073.5  C 612.5 1076.58  610.08 1079  607 1079  C 603.92 1079  601.5 1076.58  601.5 1073.5  C 601.5 1070.42  603.92 1068  607 1068  Z " stroke-width="1" stroke="#797979" fill="none" />
  <path d="M 607 1076.5  C 605.32 1076.5  604 1075.18  604 1073.5  C 604 1071.82  605.32 1070.5  607 1070.5  C 608.68 1070.5  610 1071.82  610 1073.5  C 610 1075.18  608.68 1076.5  607 1076.5  " fill-rule="nonzero" fill="#797979" stroke="none" />
</svg>