﻿<?xml version="1.0" encoding="utf-8"?>
<svg version="1.1" xmlns:xlink="http://www.w3.org/1999/xlink" width="12px" height="12px" viewBox="550 1021.5  12 12" xmlns="http://www.w3.org/2000/svg">
  <path d="M 556 1021.5  C 559.36 1021.5  562 1024.14  562 1027.5  C 562 1030.86  559.36 1033.5  556 1033.5  C 552.64 1033.5  550 1030.86  550 1027.5  C 550 1024.14  552.64 1021.5  556 1021.5  Z " fill-rule="nonzero" fill="#ffffff" stroke="none" />
  <path d="M 556 1022  C 559.08 1022  561.5 1024.42  561.5 1027.5  C 561.5 1030.58  559.08 1033  556 1033  C 552.92 1033  550.5 1030.58  550.5 1027.5  C 550.5 1024.42  552.92 1022  556 1022  Z " stroke-width="1" stroke="#797979" fill="none" />
</svg>