﻿<?xml version="1.0" encoding="utf-8"?>
<svg version="1.1" xmlns:xlink="http://www.w3.org/1999/xlink" width="12px" height="12px" viewBox="601 1116.5  12 12" xmlns="http://www.w3.org/2000/svg">
  <path d="M 607 1116.5  C 610.36 1116.5  613 1119.14  613 1122.5  C 613 1125.86  610.36 1128.5  607 1128.5  C 603.64 1128.5  601 1125.86  601 1122.5  C 601 1119.14  603.64 1116.5  607 1116.5  Z " fill-rule="nonzero" fill="#f0f0f0" stroke="none" />
  <path d="M 607 1117  C 610.08 1117  612.5 1119.42  612.5 1122.5  C 612.5 1125.58  610.08 1128  607 1128  C 603.92 1128  601.5 1125.58  601.5 1122.5  C 601.5 1119.42  603.92 1117  607 1117  Z " stroke-width="1" stroke="#797979" fill="none" />
</svg>