﻿<?xml version="1.0" encoding="utf-8"?>
<svg version="1.1" xmlns:xlink="http://www.w3.org/1999/xlink" width="12px" height="12px" viewBox="789 1067.5  12 12" xmlns="http://www.w3.org/2000/svg">
  <path d="M 795 1067.5  C 798.36 1067.5  801 1070.14  801 1073.5  C 801 1076.86  798.36 1079.5  795 1079.5  C 791.64 1079.5  789 1076.86  789 1073.5  C 789 1070.14  791.64 1067.5  795 1067.5  Z " fill-rule="nonzero" fill="#f0f0f0" stroke="none" />
  <path d="M 795 1068  C 798.08 1068  800.5 1070.42  800.5 1073.5  C 800.5 1076.58  798.08 1079  795 1079  C 791.92 1079  789.5 1076.58  789.5 1073.5  C 789.5 1070.42  791.92 1068  795 1068  Z " stroke-width="1" stroke="#797979" fill="none" />
  <path d="M 795 1076.5  C 793.32 1076.5  792 1075.18  792 1073.5  C 792 1071.82  793.32 1070.5  795 1070.5  C 796.68 1070.5  798 1071.82  798 1073.5  C 798 1075.18  796.68 1076.5  795 1076.5  " fill-rule="nonzero" fill="#797979" stroke="none" />
</svg>