﻿<?xml version="1.0" encoding="utf-8"?>
<svg version="1.1" xmlns:xlink="http://www.w3.org/1999/xlink" width="12px" height="12px" viewBox="853 1116.5  12 12" xmlns="http://www.w3.org/2000/svg">
  <path d="M 859 1116.5  C 862.36 1116.5  865 1119.14  865 1122.5  C 865 1125.86  862.36 1128.5  859 1128.5  C 855.64 1128.5  853 1125.86  853 1122.5  C 853 1119.14  855.64 1116.5  859 1116.5  Z " fill-rule="nonzero" fill="#f0f0f0" stroke="none" />
  <path d="M 859 1117  C 862.08 1117  864.5 1119.42  864.5 1122.5  C 864.5 1125.58  862.08 1128  859 1128  C 855.92 1128  853.5 1125.58  853.5 1122.5  C 853.5 1119.42  855.92 1117  859 1117  Z " stroke-width="1" stroke="#797979" fill="none" />
</svg>