﻿<?xml version="1.0" encoding="utf-8"?>
<svg version="1.1" xmlns:xlink="http://www.w3.org/1999/xlink" width="12px" height="12px" viewBox="601 1162.5  12 12" xmlns="http://www.w3.org/2000/svg">
  <path d="M 607 1162.5  C 610.36 1162.5  613 1165.14  613 1168.5  C 613 1171.86  610.36 1174.5  607 1174.5  C 603.64 1174.5  601 1171.86  601 1168.5  C 601 1165.14  603.64 1162.5  607 1162.5  Z " fill-rule="nonzero" fill="#ffffff" stroke="none" />
  <path d="M 607 1163  C 610.08 1163  612.5 1165.42  612.5 1168.5  C 612.5 1171.58  610.08 1174  607 1174  C 603.92 1174  601.5 1171.58  601.5 1168.5  C 601.5 1165.42  603.92 1163  607 1163  Z " stroke-width="1" stroke="#797979" fill="none" />
</svg>