﻿<?xml version="1.0" encoding="utf-8"?>
<svg version="1.1" xmlns:xlink="http://www.w3.org/1999/xlink" width="12px" height="12px" viewBox="623 627.5  12 12" xmlns="http://www.w3.org/2000/svg">
  <path d="M 629 627.5  C 632.36 627.5  635 630.14  635 633.5  C 635 636.86  632.36 639.5  629 639.5  C 625.64 639.5  623 636.86  623 633.5  C 623 630.14  625.64 627.5  629 627.5  Z " fill-rule="nonzero" fill="#f0f0f0" stroke="none" />
  <path d="M 629 628  C 632.08 628  634.5 630.42  634.5 633.5  C 634.5 636.58  632.08 639  629 639  C 625.92 639  623.5 636.58  623.5 633.5  C 623.5 630.42  625.92 628  629 628  Z " stroke-width="1" stroke="#797979" fill="none" />
</svg>