﻿<?xml version="1.0" encoding="utf-8"?>
<svg version="1.1" xmlns:xlink="http://www.w3.org/1999/xlink" width="12px" height="12px" viewBox="972 1116.5  12 12" xmlns="http://www.w3.org/2000/svg">
  <path d="M 978 1116.5  C 981.36 1116.5  984 1119.14  984 1122.5  C 984 1125.86  981.36 1128.5  978 1128.5  C 974.64 1128.5  972 1125.86  972 1122.5  C 972 1119.14  974.64 1116.5  978 1116.5  Z " fill-rule="nonzero" fill="#f0f0f0" stroke="none" />
  <path d="M 978 1117  C 981.08 1117  983.5 1119.42  983.5 1122.5  C 983.5 1125.58  981.08 1128  978 1128  C 974.92 1128  972.5 1125.58  972.5 1122.5  C 972.5 1119.42  974.92 1117  978 1117  Z " stroke-width="1" stroke="#797979" fill="none" />
  <path d="M 978 1125.5  C 976.32 1125.5  975 1124.18  975 1122.5  C 975 1120.82  976.32 1119.5  978 1119.5  C 979.68 1119.5  981 1120.82  981 1122.5  C 981 1124.18  979.68 1125.5  978 1125.5  " fill-rule="nonzero" fill="#797979" stroke="none" />
</svg>