﻿<?xml version="1.0" encoding="utf-8"?>
<svg version="1.1" xmlns:xlink="http://www.w3.org/1999/xlink" width="12px" height="12px" viewBox="775 1162.5  12 12" xmlns="http://www.w3.org/2000/svg">
  <path d="M 781 1162.5  C 784.36 1162.5  787 1165.14  787 1168.5  C 787 1171.86  784.36 1174.5  781 1174.5  C 777.64 1174.5  775 1171.86  775 1168.5  C 775 1165.14  777.64 1162.5  781 1162.5  Z " fill-rule="nonzero" fill="#f0f0f0" stroke="none" />
  <path d="M 781 1163  C 784.08 1163  786.5 1165.42  786.5 1168.5  C 786.5 1171.58  784.08 1174  781 1174  C 777.92 1174  775.5 1171.58  775.5 1168.5  C 775.5 1165.42  777.92 1163  781 1163  Z " stroke-width="1" stroke="#797979" fill="none" />
</svg>