﻿<?xml version="1.0" encoding="utf-8"?>
<svg version="1.1" xmlns:xlink="http://www.w3.org/1999/xlink" width="12px" height="12px" viewBox="715 1162.5  12 12" xmlns="http://www.w3.org/2000/svg">
  <path d="M 721 1162.5  C 724.36 1162.5  727 1165.14  727 1168.5  C 727 1171.86  724.36 1174.5  721 1174.5  C 717.64 1174.5  715 1171.86  715 1168.5  C 715 1165.14  717.64 1162.5  721 1162.5  Z " fill-rule="nonzero" fill="#f0f0f0" stroke="none" />
  <path d="M 721 1163  C 724.08 1163  726.5 1165.42  726.5 1168.5  C 726.5 1171.58  724.08 1174  721 1174  C 717.92 1174  715.5 1171.58  715.5 1168.5  C 715.5 1165.42  717.92 1163  721 1163  Z " stroke-width="1" stroke="#797979" fill="none" />
</svg>