﻿<?xml version="1.0" encoding="utf-8"?>
<svg version="1.1" xmlns:xlink="http://www.w3.org/1999/xlink" width="12px" height="12px" viewBox="601 1021.5  12 12" xmlns="http://www.w3.org/2000/svg">
  <path d="M 607 1021.5  C 610.36 1021.5  613 1024.14  613 1027.5  C 613 1030.86  610.36 1033.5  607 1033.5  C 603.64 1033.5  601 1030.86  601 1027.5  C 601 1024.14  603.64 1021.5  607 1021.5  Z " fill-rule="nonzero" fill="#f0f0f0" stroke="none" />
  <path d="M 607 1022  C 610.08 1022  612.5 1024.42  612.5 1027.5  C 612.5 1030.58  610.08 1033  607 1033  C 603.92 1033  601.5 1030.58  601.5 1027.5  C 601.5 1024.42  603.92 1022  607 1022  Z " stroke-width="1" stroke="#797979" fill="none" />
  <path d="M 607 1030.5  C 605.32 1030.5  604 1029.18  604 1027.5  C 604 1025.82  605.32 1024.5  607 1024.5  C 608.68 1024.5  610 1025.82  610 1027.5  C 610 1029.18  608.68 1030.5  607 1030.5  " fill-rule="nonzero" fill="#797979" stroke="none" />
</svg>