﻿<?xml version="1.0" encoding="utf-8"?>
<svg version="1.1" xmlns:xlink="http://www.w3.org/1999/xlink" width="12px" height="12px" viewBox="812 1021.5  12 12" xmlns="http://www.w3.org/2000/svg">
  <path d="M 818 1021.5  C 821.36 1021.5  824 1024.14  824 1027.5  C 824 1030.86  821.36 1033.5  818 1033.5  C 814.64 1033.5  812 1030.86  812 1027.5  C 812 1024.14  814.64 1021.5  818 1021.5  Z " fill-rule="nonzero" fill="#ffffff" stroke="none" />
  <path d="M 818 1022  C 821.08 1022  823.5 1024.42  823.5 1027.5  C 823.5 1030.58  821.08 1033  818 1033  C 814.92 1033  812.5 1030.58  812.5 1027.5  C 812.5 1024.42  814.92 1022  818 1022  Z " stroke-width="1" stroke="#797979" fill="none" />
  <path d="M 818 1030.5  C 816.32 1030.5  815 1029.18  815 1027.5  C 815 1025.82  816.32 1024.5  818 1024.5  C 819.68 1024.5  821 1025.82  821 1027.5  C 821 1029.18  819.68 1030.5  818 1030.5  " fill-rule="nonzero" fill="#797979" stroke="none" />
</svg>