﻿<?xml version="1.0" encoding="utf-8"?>
<svg version="1.1" xmlns:xlink="http://www.w3.org/1999/xlink" width="12px" height="12px" viewBox="655 1067.5  12 12" xmlns="http://www.w3.org/2000/svg">
  <path d="M 661 1067.5  C 664.36 1067.5  667 1070.14  667 1073.5  C 667 1076.86  664.36 1079.5  661 1079.5  C 657.64 1079.5  655 1076.86  655 1073.5  C 655 1070.14  657.64 1067.5  661 1067.5  Z " fill-rule="nonzero" fill="#ffffff" stroke="none" />
  <path d="M 661 1068  C 664.08 1068  666.5 1070.42  666.5 1073.5  C 666.5 1076.58  664.08 1079  661 1079  C 657.92 1079  655.5 1076.58  655.5 1073.5  C 655.5 1070.42  657.92 1068  661 1068  Z " stroke-width="1" stroke="#797979" fill="none" />
  <path d="M 661 1076.5  C 659.32 1076.5  658 1075.18  658 1073.5  C 658 1071.82  659.32 1070.5  661 1070.5  C 662.68 1070.5  664 1071.82  664 1073.5  C 664 1075.18  662.68 1076.5  661 1076.5  " fill-rule="nonzero" fill="#797979" stroke="none" />
</svg>