﻿<?xml version="1.0" encoding="utf-8"?>
<svg version="1.1" xmlns:xlink="http://www.w3.org/1999/xlink" width="12px" height="12px" viewBox="550 1067.5  12 12" xmlns="http://www.w3.org/2000/svg">
  <path d="M 556 1067.5  C 559.36 1067.5  562 1070.14  562 1073.5  C 562 1076.86  559.36 1079.5  556 1079.5  C 552.64 1079.5  550 1076.86  550 1073.5  C 550 1070.14  552.64 1067.5  556 1067.5  Z " fill-rule="nonzero" fill="#ffffff" stroke="none" />
  <path d="M 556 1068  C 559.08 1068  561.5 1070.42  561.5 1073.5  C 561.5 1076.58  559.08 1079  556 1079  C 552.92 1079  550.5 1076.58  550.5 1073.5  C 550.5 1070.42  552.92 1068  556 1068  Z " stroke-width="1" stroke="#797979" fill="none" />
</svg>