﻿<?xml version="1.0" encoding="utf-8"?>
<svg version="1.1" xmlns:xlink="http://www.w3.org/1999/xlink" width="12px" height="12px" viewBox="719 1067.5  12 12" xmlns="http://www.w3.org/2000/svg">
  <path d="M 725 1067.5  C 728.36 1067.5  731 1070.14  731 1073.5  C 731 1076.86  728.36 1079.5  725 1079.5  C 721.64 1079.5  719 1076.86  719 1073.5  C 719 1070.14  721.64 1067.5  725 1067.5  Z " fill-rule="nonzero" fill="#f0f0f0" stroke="none" />
  <path d="M 725 1068  C 728.08 1068  730.5 1070.42  730.5 1073.5  C 730.5 1076.58  728.08 1079  725 1079  C 721.92 1079  719.5 1076.58  719.5 1073.5  C 719.5 1070.42  721.92 1068  725 1068  Z " stroke-width="1" stroke="#797979" fill="none" />
</svg>