﻿<?xml version="1.0" encoding="utf-8"?>
<svg version="1.1" xmlns:xlink="http://www.w3.org/1999/xlink" width="12px" height="12px" viewBox="655 1162.5  12 12" xmlns="http://www.w3.org/2000/svg">
  <path d="M 661 1162.5  C 664.36 1162.5  667 1165.14  667 1168.5  C 667 1171.86  664.36 1174.5  661 1174.5  C 657.64 1174.5  655 1171.86  655 1168.5  C 655 1165.14  657.64 1162.5  661 1162.5  Z " fill-rule="nonzero" fill="#ffffff" stroke="none" />
  <path d="M 661 1163  C 664.08 1163  666.5 1165.42  666.5 1168.5  C 666.5 1171.58  664.08 1174  661 1174  C 657.92 1174  655.5 1171.58  655.5 1168.5  C 655.5 1165.42  657.92 1163  661 1163  Z " stroke-width="1" stroke="#797979" fill="none" />
</svg>