﻿<?xml version="1.0" encoding="utf-8"?>
<svg version="1.1" xmlns:xlink="http://www.w3.org/1999/xlink" width="12px" height="12px" viewBox="954 1162.5  12 12" xmlns="http://www.w3.org/2000/svg">
  <path d="M 960 1162.5  C 963.36 1162.5  966 1165.14  966 1168.5  C 966 1171.86  963.36 1174.5  960 1174.5  C 956.64 1174.5  954 1171.86  954 1168.5  C 954 1165.14  956.64 1162.5  960 1162.5  Z " fill-rule="nonzero" fill="#f0f0f0" stroke="none" />
  <path d="M 960 1163  C 963.08 1163  965.5 1165.42  965.5 1168.5  C 965.5 1171.58  963.08 1174  960 1174  C 956.92 1174  954.5 1171.58  954.5 1168.5  C 954.5 1165.42  956.92 1163  960 1163  Z " stroke-width="1" stroke="#797979" fill="none" />
</svg>