﻿<?xml version="1.0" encoding="utf-8"?>
<svg version="1.1" xmlns:xlink="http://www.w3.org/1999/xlink" width="12px" height="12px" viewBox="699 849.5  12 12" xmlns="http://www.w3.org/2000/svg">
  <path d="M 705 849.5  C 708.36 849.5  711 852.14  711 855.5  C 711 858.86  708.36 861.5  705 861.5  C 701.64 861.5  699 858.86  699 855.5  C 699 852.14  701.64 849.5  705 849.5  Z " fill-rule="nonzero" fill="#f0f0f0" stroke="none" />
  <path d="M 705 850  C 708.08 850  710.5 852.42  710.5 855.5  C 710.5 858.58  708.08 861  705 861  C 701.92 861  699.5 858.58  699.5 855.5  C 699.5 852.42  701.92 850  705 850  Z " stroke-width="1" stroke="#797979" fill="none" />
</svg>