﻿<?xml version="1.0" encoding="utf-8"?>
<svg version="1.1" xmlns:xlink="http://www.w3.org/1999/xlink" width="12px" height="12px" viewBox="756 849.5  12 12" xmlns="http://www.w3.org/2000/svg">
  <path d="M 762 849.5  C 765.36 849.5  768 852.14  768 855.5  C 768 858.86  765.36 861.5  762 861.5  C 758.64 861.5  756 858.86  756 855.5  C 756 852.14  758.64 849.5  762 849.5  Z " fill-rule="nonzero" fill="#f0f0f0" stroke="none" />
  <path d="M 762 850  C 765.08 850  767.5 852.42  767.5 855.5  C 767.5 858.58  765.08 861  762 861  C 758.92 861  756.5 858.58  756.5 855.5  C 756.5 852.42  758.92 850  762 850  Z " stroke-width="1" stroke="#797979" fill="none" />
  <path d="M 762 858.5  C 760.32 858.5  759 857.18  759 855.5  C 759 853.82  760.32 852.5  762 852.5  C 763.68 852.5  765 853.82  765 855.5  C 765 857.18  763.68 858.5  762 858.5  " fill-rule="nonzero" fill="#797979" stroke="none" />
</svg>