﻿<?xml version="1.0" encoding="utf-8"?>
<svg version="1.1" xmlns:xlink="http://www.w3.org/1999/xlink" width="12px" height="12px" viewBox="655 1021.5  12 12" xmlns="http://www.w3.org/2000/svg">
  <path d="M 661 1021.5  C 664.36 1021.5  667 1024.14  667 1027.5  C 667 1030.86  664.36 1033.5  661 1033.5  C 657.64 1033.5  655 1030.86  655 1027.5  C 655 1024.14  657.64 1021.5  661 1021.5  Z " fill-rule="nonzero" fill="#f0f0f0" stroke="none" />
  <path d="M 661 1022  C 664.08 1022  666.5 1024.42  666.5 1027.5  C 666.5 1030.58  664.08 1033  661 1033  C 657.92 1033  655.5 1030.58  655.5 1027.5  C 655.5 1024.42  657.92 1022  661 1022  Z " stroke-width="1" stroke="#797979" fill="none" />
</svg>