﻿<?xml version="1.0" encoding="utf-8"?>
<svg version="1.1" xmlns:xlink="http://www.w3.org/1999/xlink" width="12px" height="12px" viewBox="550 1116.5  12 12" xmlns="http://www.w3.org/2000/svg">
  <path d="M 556 1116.5  C 559.36 1116.5  562 1119.14  562 1122.5  C 562 1125.86  559.36 1128.5  556 1128.5  C 552.64 1128.5  550 1125.86  550 1122.5  C 550 1119.14  552.64 1116.5  556 1116.5  Z " fill-rule="nonzero" fill="#ffffff" stroke="none" />
  <path d="M 556 1117  C 559.08 1117  561.5 1119.42  561.5 1122.5  C 561.5 1125.58  559.08 1128  556 1128  C 552.92 1128  550.5 1125.58  550.5 1122.5  C 550.5 1119.42  552.92 1117  556 1117  Z " stroke-width="1" stroke="#797979" fill="none" />
</svg>