﻿<?xml version="1.0" encoding="utf-8"?>
<svg version="1.1" xmlns:xlink="http://www.w3.org/1999/xlink" width="12px" height="12px" viewBox="756 1021.5  12 12" xmlns="http://www.w3.org/2000/svg">
  <path d="M 762 1021.5  C 765.36 1021.5  768 1024.14  768 1027.5  C 768 1030.86  765.36 1033.5  762 1033.5  C 758.64 1033.5  756 1030.86  756 1027.5  C 756 1024.14  758.64 1021.5  762 1021.5  Z " fill-rule="nonzero" fill="#ffffff" stroke="none" />
  <path d="M 762 1022  C 765.08 1022  767.5 1024.42  767.5 1027.5  C 767.5 1030.58  765.08 1033  762 1033  C 758.92 1033  756.5 1030.58  756.5 1027.5  C 756.5 1024.42  758.92 1022  762 1022  Z " stroke-width="1" stroke="#797979" fill="none" />
  <path d="M 762 1030.5  C 760.32 1030.5  759 1029.18  759 1027.5  C 759 1025.82  760.32 1024.5  762 1024.5  C 763.68 1024.5  765 1025.82  765 1027.5  C 765 1029.18  763.68 1030.5  762 1030.5  " fill-rule="nonzero" fill="#797979" stroke="none" />
</svg>