﻿<?xml version="1.0" encoding="utf-8"?>
<svg version="1.1" xmlns:xlink="http://www.w3.org/1999/xlink" width="12px" height="12px" viewBox="655 1116.5  12 12" xmlns="http://www.w3.org/2000/svg">
  <path d="M 661 1116.5  C 664.36 1116.5  667 1119.14  667 1122.5  C 667 1125.86  664.36 1128.5  661 1128.5  C 657.64 1128.5  655 1125.86  655 1122.5  C 655 1119.14  657.64 1116.5  661 1116.5  Z " fill-rule="nonzero" fill="#ffffff" stroke="none" />
  <path d="M 661 1117  C 664.08 1117  666.5 1119.42  666.5 1122.5  C 666.5 1125.58  664.08 1128  661 1128  C 657.92 1128  655.5 1125.58  655.5 1122.5  C 655.5 1119.42  657.92 1117  661 1117  Z " stroke-width="1" stroke="#797979" fill="none" />
  <path d="M 661 1125.5  C 659.32 1125.5  658 1124.18  658 1122.5  C 658 1120.82  659.32 1119.5  661 1119.5  C 662.68 1119.5  664 1120.82  664 1122.5  C 664 1124.18  662.68 1125.5  661 1125.5  " fill-rule="nonzero" fill="#797979" stroke="none" />
</svg>